﻿
DisplayName "Solitary Island"



EVENT   1
 PAGE   1
  ChangeSwitch(100,100,1)
  250(bytes(0x04,0x08,0x6f,0x3a,0x0c,0x52,0x50,0x47,0x3a,0x3a,0x53,0x45,0x08,0x3a,0x0a,0x40,0x6e,0x61,0x6d,0x65,0x49,0x22,0x09,0x4d,0x6f,0x76,0x65,0x06,0x3a,0x06,0x45,0x54,0x3a,0x0b,0x40,0x70,0x69,0x74,0x63,0x68,0x69,0x69,0x3a,0x0c,0x40,0x76,0x6f,0x6c,0x75,0x6d,0x65,0x69,0x55))
  TeleportPlayer(0,2,164,170,0,0)
  0()



EVENT   2
 PAGE   1
  250(bytes(0x04,0x08,0x6f,0x3a,0x0c,0x52,0x50,0x47,0x3a,0x3a,0x53,0x45,0x08,0x3a,0x0a,0x40,0x6e,0x61,0x6d,0x65,0x49,0x22,0x09,0x4d,0x6f,0x76,0x65,0x06,0x3a,0x06,0x45,0x54,0x3a,0x0b,0x40,0x70,0x69,0x74,0x63,0x68,0x69,0x69,0x3a,0x0c,0x40,0x76,0x6f,0x6c,0x75,0x6d,0x65,0x69,0x55))
  TeleportPlayer(0,214,19,32,0,0)
  0()



EVENT   3
 PAGE   1
  250(bytes(0x04,0x08,0x6f,0x3a,0x0c,0x52,0x50,0x47,0x3a,0x3a,0x53,0x45,0x08,0x3a,0x0a,0x40,0x6e,0x61,0x6d,0x65,0x49,0x22,0x09,0x4d,0x6f,0x76,0x65,0x06,0x3a,0x06,0x45,0x54,0x3a,0x0b,0x40,0x70,0x69,0x74,0x63,0x68,0x69,0x69,0x3a,0x0c,0x40,0x76,0x6f,0x6c,0x75,0x6d,0x65,0x69,0x55))
  TeleportPlayer(0,214,76,49,2,0)
  0()



EVENT   4
 PAGE   1
  250(bytes(0x04,0x08,0x6f,0x3a,0x0c,0x52,0x50,0x47,0x3a,0x3a,0x53,0x45,0x08,0x3a,0x0a,0x40,0x6e,0x61,0x6d,0x65,0x49,0x22,0x09,0x4d,0x6f,0x76,0x65,0x06,0x3a,0x06,0x45,0x54,0x3a,0x0b,0x40,0x70,0x69,0x74,0x63,0x68,0x69,0x69,0x3a,0x0c,0x40,0x76,0x6f,0x6c,0x75,0x6d,0x65,0x69,0x55))
  TeleportPlayer(0,214,126,45,2,0)
  0()



EVENT   5
 PAGE   1
  250(bytes(0x04,0x08,0x6f,0x3a,0x0c,0x52,0x50,0x47,0x3a,0x3a,0x53,0x45,0x08,0x3a,0x0a,0x40,0x6e,0x61,0x6d,0x65,0x49,0x22,0x09,0x4d,0x6f,0x76,0x65,0x06,0x3a,0x06,0x45,0x54,0x3a,0x0b,0x40,0x70,0x69,0x74,0x63,0x68,0x69,0x69,0x3a,0x0c,0x40,0x76,0x6f,0x6c,0x75,0x6d,0x65,0x69,0x55))
  TeleportPlayer(0,214,140,44,2,0)
  0()



EVENT   6
 PAGE   1
  250(bytes(0x04,0x08,0x6f,0x3a,0x0c,0x52,0x50,0x47,0x3a,0x3a,0x53,0x45,0x08,0x3a,0x0a,0x40,0x6e,0x61,0x6d,0x65,0x49,0x22,0x09,0x4d,0x6f,0x76,0x65,0x06,0x3a,0x06,0x45,0x54,0x3a,0x0b,0x40,0x70,0x69,0x74,0x63,0x68,0x69,0x69,0x3a,0x0c,0x40,0x76,0x6f,0x6c,0x75,0x6d,0x65,0x69,0x55))
  TeleportPlayer(0,214,153,32,0,0)
  0()



EVENT   7
 PAGE   1
  250(bytes(0x04,0x08,0x6f,0x3a,0x0c,0x52,0x50,0x47,0x3a,0x3a,0x53,0x45,0x08,0x3a,0x0a,0x40,0x6e,0x61,0x6d,0x65,0x49,0x22,0x09,0x4d,0x6f,0x76,0x65,0x06,0x3a,0x06,0x45,0x54,0x3a,0x0b,0x40,0x70,0x69,0x74,0x63,0x68,0x69,0x69,0x3a,0x0c,0x40,0x76,0x6f,0x6c,0x75,0x6d,0x65,0x69,0x55))
  TeleportPlayer(0,214,20,119,0,0)
  0()



EVENT   8
 PAGE   1
  250(bytes(0x04,0x08,0x6f,0x3a,0x0c,0x52,0x50,0x47,0x3a,0x3a,0x53,0x45,0x08,0x3a,0x0a,0x40,0x6e,0x61,0x6d,0x65,0x49,0x22,0x09,0x4d,0x6f,0x76,0x65,0x06,0x3a,0x06,0x45,0x54,0x3a,0x0b,0x40,0x70,0x69,0x74,0x63,0x68,0x69,0x69,0x3a,0x0c,0x40,0x76,0x6f,0x6c,0x75,0x6d,0x65,0x69,0x55))
  TeleportPlayer(0,214,53,114,0,0)
  0()



EVENT   9
 PAGE   1
  250(bytes(0x04,0x08,0x6f,0x3a,0x0c,0x52,0x50,0x47,0x3a,0x3a,0x53,0x45,0x08,0x3a,0x0a,0x40,0x6e,0x61,0x6d,0x65,0x49,0x22,0x09,0x4d,0x6f,0x76,0x65,0x06,0x3a,0x06,0x45,0x54,0x3a,0x0b,0x40,0x70,0x69,0x74,0x63,0x68,0x69,0x69,0x3a,0x0c,0x40,0x76,0x6f,0x6c,0x75,0x6d,0x65,0x69,0x55))
  TeleportPlayer(0,214,72,134,0,0)
  0()



EVENT   10
 PAGE   1
  250(bytes(0x04,0x08,0x6f,0x3a,0x0c,0x52,0x50,0x47,0x3a,0x3a,0x53,0x45,0x08,0x3a,0x0a,0x40,0x6e,0x61,0x6d,0x65,0x49,0x22,0x09,0x4d,0x6f,0x76,0x65,0x06,0x3a,0x06,0x45,0x54,0x3a,0x0b,0x40,0x70,0x69,0x74,0x63,0x68,0x69,0x69,0x3a,0x0c,0x40,0x76,0x6f,0x6c,0x75,0x6d,0x65,0x69,0x55))
  TeleportPlayer(0,214,125,126,0,0)
  0()



EVENT   11
 PAGE   1
  250(bytes(0x04,0x08,0x6f,0x3a,0x0c,0x52,0x50,0x47,0x3a,0x3a,0x53,0x45,0x08,0x3a,0x0a,0x40,0x6e,0x61,0x6d,0x65,0x49,0x22,0x0a,0x43,0x68,0x65,0x73,0x74,0x06,0x3a,0x06,0x45,0x54,0x3a,0x0b,0x40,0x70,0x69,0x74,0x63,0x68,0x69,0x69,0x3a,0x0c,0x40,0x76,0x6f,0x6c,0x75,0x6d,0x65,0x69,0x55))
  205(0,bytes(0x04,0x08,0x6f,0x3a,0x13,0x52,0x50,0x47,0x3a,0x3a,0x4d,0x6f,0x76,0x65,0x52,0x6f,0x75,0x74,0x65,0x09,0x3a,0x0c,0x40,0x72,0x65,0x70,0x65,0x61,0x74,0x46,0x3a,0x0f,0x40,0x73,0x6b,0x69,0x70,0x70,0x61,0x62,0x6c,0x65,0x46,0x3a,0x0a,0x40,0x77,0x61,0x69,0x74,0x54,0x3a,0x0a,0x40,0x6c,0x69,0x73,0x74,0x5b,0x0b,0x6f,0x3a,0x15,0x52,0x50,0x47,0x3a,0x3a,0x4d,0x6f,0x76,0x65,0x43,0x6f,0x6d,0x6d,0x61,0x6e,0x64,0x07,0x3a,0x0a,0x40,0x63,0x6f,0x64,0x65,0x69,0x29,0x3a,0x10,0x40,0x70,0x61,0x72,0x61,0x6d,0x65,0x74,0x65,0x72,0x73,0x5b,0x00,0x6f,0x3b,0x0a,0x07,0x3b,0x0b,0x69,0x16,0x3b,0x0c,0x5b,0x00,0x6f,0x3b,0x0a,0x07,0x3b,0x0b,0x69,0x14,0x3b,0x0c,0x5b,0x06,0x69,0x08,0x6f,0x3b,0x0a,0x07,0x3b,0x0b,0x69,0x17,0x3b,0x0c,0x5b,0x00,0x6f,0x3b,0x0a,0x07,0x3b,0x0b,0x69,0x14,0x3b,0x0c,0x5b,0x06,0x69,0x08,0x6f,0x3b,0x0a,0x07,0x3b,0x0b,0x69,0x00,0x3b,0x0c,0x5b,0x00))
  ChangeSelfSwitch("A",0)
  ChangeInventory_Item(32,0,0,1)
  0()
 PAGE   2
  // condition: self-switch A is ON
  0()



EVENT   12
 PAGE   1
  If(12,"unlock_level < 1")
   ShowMessageFace("",0,0,2,1)
   ShowMessage("The chest is locked.")
   EndEventProcessing()
   0()
  EndIf()
  250(bytes(0x04,0x08,0x6f,0x3a,0x0c,0x52,0x50,0x47,0x3a,0x3a,0x53,0x45,0x08,0x3a,0x0a,0x40,0x6e,0x61,0x6d,0x65,0x49,0x22,0x0a,0x43,0x68,0x65,0x73,0x74,0x06,0x3a,0x06,0x45,0x54,0x3a,0x0b,0x40,0x70,0x69,0x74,0x63,0x68,0x69,0x69,0x3a,0x0c,0x40,0x76,0x6f,0x6c,0x75,0x6d,0x65,0x69,0x55))
  205(0,bytes(0x04,0x08,0x6f,0x3a,0x13,0x52,0x50,0x47,0x3a,0x3a,0x4d,0x6f,0x76,0x65,0x52,0x6f,0x75,0x74,0x65,0x09,0x3a,0x0c,0x40,0x72,0x65,0x70,0x65,0x61,0x74,0x46,0x3a,0x0f,0x40,0x73,0x6b,0x69,0x70,0x70,0x61,0x62,0x6c,0x65,0x46,0x3a,0x0a,0x40,0x77,0x61,0x69,0x74,0x54,0x3a,0x0a,0x40,0x6c,0x69,0x73,0x74,0x5b,0x0b,0x6f,0x3a,0x15,0x52,0x50,0x47,0x3a,0x3a,0x4d,0x6f,0x76,0x65,0x43,0x6f,0x6d,0x6d,0x61,0x6e,0x64,0x07,0x3a,0x0a,0x40,0x63,0x6f,0x64,0x65,0x69,0x29,0x3a,0x10,0x40,0x70,0x61,0x72,0x61,0x6d,0x65,0x74,0x65,0x72,0x73,0x5b,0x00,0x6f,0x3b,0x0a,0x07,0x3b,0x0b,0x69,0x16,0x3b,0x0c,0x5b,0x00,0x6f,0x3b,0x0a,0x07,0x3b,0x0b,0x69,0x14,0x3b,0x0c,0x5b,0x06,0x69,0x08,0x6f,0x3b,0x0a,0x07,0x3b,0x0b,0x69,0x17,0x3b,0x0c,0x5b,0x00,0x6f,0x3b,0x0a,0x07,0x3b,0x0b,0x69,0x14,0x3b,0x0c,0x5b,0x06,0x69,0x08,0x6f,0x3b,0x0a,0x07,0x3b,0x0b,0x69,0x00,0x3b,0x0c,0x5b,0x00))
  ChangeSelfSwitch("A",0)
  ChangeInventoryArmor(1229,0,0,1)
  0()
 PAGE   2
  // condition: self-switch A is ON
  0()



EVENT   13
 PAGE   1
  250(bytes(0x04,0x08,0x6f,0x3a,0x0c,0x52,0x50,0x47,0x3a,0x3a,0x53,0x45,0x08,0x3a,0x0a,0x40,0x6e,0x61,0x6d,0x65,0x49,0x22,0x0a,0x43,0x68,0x65,0x73,0x74,0x06,0x3a,0x06,0x45,0x54,0x3a,0x0b,0x40,0x70,0x69,0x74,0x63,0x68,0x69,0x69,0x3a,0x0c,0x40,0x76,0x6f,0x6c,0x75,0x6d,0x65,0x69,0x55))
  205(0,bytes(0x04,0x08,0x6f,0x3a,0x13,0x52,0x50,0x47,0x3a,0x3a,0x4d,0x6f,0x76,0x65,0x52,0x6f,0x75,0x74,0x65,0x09,0x3a,0x0c,0x40,0x72,0x65,0x70,0x65,0x61,0x74,0x46,0x3a,0x0f,0x40,0x73,0x6b,0x69,0x70,0x70,0x61,0x62,0x6c,0x65,0x46,0x3a,0x0a,0x40,0x77,0x61,0x69,0x74,0x54,0x3a,0x0a,0x40,0x6c,0x69,0x73,0x74,0x5b,0x0b,0x6f,0x3a,0x15,0x52,0x50,0x47,0x3a,0x3a,0x4d,0x6f,0x76,0x65,0x43,0x6f,0x6d,0x6d,0x61,0x6e,0x64,0x07,0x3a,0x0a,0x40,0x63,0x6f,0x64,0x65,0x69,0x29,0x3a,0x10,0x40,0x70,0x61,0x72,0x61,0x6d,0x65,0x74,0x65,0x72,0x73,0x5b,0x00,0x6f,0x3b,0x0a,0x07,0x3b,0x0b,0x69,0x16,0x3b,0x0c,0x5b,0x00,0x6f,0x3b,0x0a,0x07,0x3b,0x0b,0x69,0x14,0x3b,0x0c,0x5b,0x06,0x69,0x08,0x6f,0x3b,0x0a,0x07,0x3b,0x0b,0x69,0x17,0x3b,0x0c,0x5b,0x00,0x6f,0x3b,0x0a,0x07,0x3b,0x0b,0x69,0x14,0x3b,0x0c,0x5b,0x06,0x69,0x08,0x6f,0x3b,0x0a,0x07,0x3b,0x0b,0x69,0x00,0x3b,0x0c,0x5b,0x00))
  ChangeSelfSwitch("A",0)
  ChangeInventory_Item(69,0,0,1)
  0()
 PAGE   2
  // condition: self-switch A is ON
  0()



EVENT   14
 PAGE   1
  250(bytes(0x04,0x08,0x6f,0x3a,0x0c,0x52,0x50,0x47,0x3a,0x3a,0x53,0x45,0x08,0x3a,0x0a,0x40,0x6e,0x61,0x6d,0x65,0x49,0x22,0x0a,0x43,0x68,0x65,0x73,0x74,0x06,0x3a,0x06,0x45,0x54,0x3a,0x0b,0x40,0x70,0x69,0x74,0x63,0x68,0x69,0x69,0x3a,0x0c,0x40,0x76,0x6f,0x6c,0x75,0x6d,0x65,0x69,0x55))
  205(0,bytes(0x04,0x08,0x6f,0x3a,0x13,0x52,0x50,0x47,0x3a,0x3a,0x4d,0x6f,0x76,0x65,0x52,0x6f,0x75,0x74,0x65,0x09,0x3a,0x0c,0x40,0x72,0x65,0x70,0x65,0x61,0x74,0x46,0x3a,0x0f,0x40,0x73,0x6b,0x69,0x70,0x70,0x61,0x62,0x6c,0x65,0x46,0x3a,0x0a,0x40,0x77,0x61,0x69,0x74,0x54,0x3a,0x0a,0x40,0x6c,0x69,0x73,0x74,0x5b,0x0b,0x6f,0x3a,0x15,0x52,0x50,0x47,0x3a,0x3a,0x4d,0x6f,0x76,0x65,0x43,0x6f,0x6d,0x6d,0x61,0x6e,0x64,0x07,0x3a,0x0a,0x40,0x63,0x6f,0x64,0x65,0x69,0x29,0x3a,0x10,0x40,0x70,0x61,0x72,0x61,0x6d,0x65,0x74,0x65,0x72,0x73,0x5b,0x00,0x6f,0x3b,0x0a,0x07,0x3b,0x0b,0x69,0x16,0x3b,0x0c,0x5b,0x00,0x6f,0x3b,0x0a,0x07,0x3b,0x0b,0x69,0x14,0x3b,0x0c,0x5b,0x06,0x69,0x08,0x6f,0x3b,0x0a,0x07,0x3b,0x0b,0x69,0x17,0x3b,0x0c,0x5b,0x00,0x6f,0x3b,0x0a,0x07,0x3b,0x0b,0x69,0x14,0x3b,0x0c,0x5b,0x06,0x69,0x08,0x6f,0x3b,0x0a,0x07,0x3b,0x0b,0x69,0x00,0x3b,0x0c,0x5b,0x00))
  ChangeSelfSwitch("A",0)
  ChangeInventoryArmor(268,0,0,1,false)
  0()
 PAGE   2
  // condition: self-switch A is ON
  0()



EVENT   16
 PAGE   1
  250(bytes(0x04,0x08,0x6f,0x3a,0x0c,0x52,0x50,0x47,0x3a,0x3a,0x53,0x45,0x08,0x3a,0x0a,0x40,0x6e,0x61,0x6d,0x65,0x49,0x22,0x0a,0x43,0x68,0x65,0x73,0x74,0x06,0x3a,0x06,0x45,0x54,0x3a,0x0b,0x40,0x70,0x69,0x74,0x63,0x68,0x69,0x69,0x3a,0x0c,0x40,0x76,0x6f,0x6c,0x75,0x6d,0x65,0x69,0x55))
  205(0,bytes(0x04,0x08,0x6f,0x3a,0x13,0x52,0x50,0x47,0x3a,0x3a,0x4d,0x6f,0x76,0x65,0x52,0x6f,0x75,0x74,0x65,0x09,0x3a,0x0c,0x40,0x72,0x65,0x70,0x65,0x61,0x74,0x46,0x3a,0x0f,0x40,0x73,0x6b,0x69,0x70,0x70,0x61,0x62,0x6c,0x65,0x46,0x3a,0x0a,0x40,0x77,0x61,0x69,0x74,0x54,0x3a,0x0a,0x40,0x6c,0x69,0x73,0x74,0x5b,0x0b,0x6f,0x3a,0x15,0x52,0x50,0x47,0x3a,0x3a,0x4d,0x6f,0x76,0x65,0x43,0x6f,0x6d,0x6d,0x61,0x6e,0x64,0x07,0x3a,0x0a,0x40,0x63,0x6f,0x64,0x65,0x69,0x29,0x3a,0x10,0x40,0x70,0x61,0x72,0x61,0x6d,0x65,0x74,0x65,0x72,0x73,0x5b,0x00,0x6f,0x3b,0x0a,0x07,0x3b,0x0b,0x69,0x16,0x3b,0x0c,0x5b,0x00,0x6f,0x3b,0x0a,0x07,0x3b,0x0b,0x69,0x14,0x3b,0x0c,0x5b,0x06,0x69,0x08,0x6f,0x3b,0x0a,0x07,0x3b,0x0b,0x69,0x17,0x3b,0x0c,0x5b,0x00,0x6f,0x3b,0x0a,0x07,0x3b,0x0b,0x69,0x14,0x3b,0x0c,0x5b,0x06,0x69,0x08,0x6f,0x3b,0x0a,0x07,0x3b,0x0b,0x69,0x00,0x3b,0x0c,0x5b,0x00))
  ChangeSelfSwitch("A",0)
  ChangeInventoryWeapon(644,0,0,1,false)
  0()
 PAGE   2
  // condition: self-switch A is ON
  0()



EVENT   17
 PAGE   1
  250(bytes(0x04,0x08,0x6f,0x3a,0x0c,0x52,0x50,0x47,0x3a,0x3a,0x53,0x45,0x08,0x3a,0x0a,0x40,0x6e,0x61,0x6d,0x65,0x49,0x22,0x0a,0x43,0x68,0x65,0x73,0x74,0x06,0x3a,0x06,0x45,0x54,0x3a,0x0b,0x40,0x70,0x69,0x74,0x63,0x68,0x69,0x69,0x3a,0x0c,0x40,0x76,0x6f,0x6c,0x75,0x6d,0x65,0x69,0x55))
  205(0,bytes(0x04,0x08,0x6f,0x3a,0x13,0x52,0x50,0x47,0x3a,0x3a,0x4d,0x6f,0x76,0x65,0x52,0x6f,0x75,0x74,0x65,0x09,0x3a,0x0c,0x40,0x72,0x65,0x70,0x65,0x61,0x74,0x46,0x3a,0x0f,0x40,0x73,0x6b,0x69,0x70,0x70,0x61,0x62,0x6c,0x65,0x46,0x3a,0x0a,0x40,0x77,0x61,0x69,0x74,0x54,0x3a,0x0a,0x40,0x6c,0x69,0x73,0x74,0x5b,0x0b,0x6f,0x3a,0x15,0x52,0x50,0x47,0x3a,0x3a,0x4d,0x6f,0x76,0x65,0x43,0x6f,0x6d,0x6d,0x61,0x6e,0x64,0x07,0x3a,0x0a,0x40,0x63,0x6f,0x64,0x65,0x69,0x29,0x3a,0x10,0x40,0x70,0x61,0x72,0x61,0x6d,0x65,0x74,0x65,0x72,0x73,0x5b,0x00,0x6f,0x3b,0x0a,0x07,0x3b,0x0b,0x69,0x16,0x3b,0x0c,0x5b,0x00,0x6f,0x3b,0x0a,0x07,0x3b,0x0b,0x69,0x14,0x3b,0x0c,0x5b,0x06,0x69,0x08,0x6f,0x3b,0x0a,0x07,0x3b,0x0b,0x69,0x17,0x3b,0x0c,0x5b,0x00,0x6f,0x3b,0x0a,0x07,0x3b,0x0b,0x69,0x14,0x3b,0x0c,0x5b,0x06,0x69,0x08,0x6f,0x3b,0x0a,0x07,0x3b,0x0b,0x69,0x00,0x3b,0x0c,0x5b,0x00))
  ChangeSelfSwitch("A",0)
  ChangeInventory_Item(24,0,0,1)
  0()
 PAGE   2
  // condition: self-switch A is ON
  0()



EVENT   18
 PAGE   1
  ChangeSelfSwitch("A",0)
  If(0,6,0)
   ShowMessageFace("sonia_fc1",0,0,2,1)
   ShowMessage("【ソニア】")
   ShowMessage("こんな島に、入り組んだ森が……")
   ShowMessage("向こうには洞窟も見えない？")
   0()
  EndIf()
  ShowMessageFace("ruka_fc1",0,0,2,2)
  ShowMessage("【ルカ】")
  ShowMessage("ここは、いったい何だろう……")
  If(0,4,0)
   ShowMessageFace("alice_fc5",0,0,2,3)
   ShowMessage("【アリス】")
   ShowMessage("一部の者のみに知られた、「孤独の地」という場所だ。")
   ShowMessage("地下の入り組んだ地形が、狭き場所に潜む者どもに好まれてな。")
   ShowMessageFace("alice_fc5",0,0,2,4)
   ShowMessage("【アリス】")
   ShowMessage("聞いた話、今では蜘蛛族の魔物どもの隠れ場になっているという。")
   ShowMessage("用もないのに、近寄らん方がいいぞ。")
   0()
  EndIf()
  If(0,5,0)
   ShowMessageFace("iriasu_fc4",2,0,2,5)
   ShowMessage("【イリアス】")
   ShowMessage("一部の妖魔のみに知られた、「孤独の地」という場所です。")
   ShowMessage("地下の入り組んだ地形が、蟲の魔物にとって住みよいようですね。")
   ShowMessageFace("iriasu_fc4",2,0,2,6)
   ShowMessage("【イリアス】")
   ShowMessage("噂では、蜘蛛族の魔物どもの隠れ場になっているとか……")
   ShowMessage("用もないのに、足を踏み入れる必要はありません。")
   0()
  EndIf()
  EndEventProcessing()
  0()
 PAGE   2
  // condition: self-switch A is ON
  0()
 PAGE   3
  // condition: variable 1072 >= 1
  ChangeSelfSwitch("B",0)
  If(0,6,0)
   ShowMessageFace("sonia_fc2",2,0,2,1)
   ShowMessage("【ソニア】")
   ShowMessage("入り組んだ森に、洞窟……")
   ShowMessage("ここが蜘蛛族の隠れ家、「孤独の地」なんだよね？")
   0()
  Else()
   ShowMessageFace("ruka_fc1",0,0,2,2)
   ShowMessage("【ルカ】")
   ShowMessage("入り組んだ森に、洞窟……")
   ShowMessage("ここが蜘蛛族の隠れ家、「孤独の地」だな。")
   0()
  EndIf()
  If(0,4,0)
   ShowMessageFace("alice_fc5",0,0,2,3)
   ShowMessage("【アリス】")
   ShowMessage("地下の入り組んだ構造は、狭い場所を好む蜘蛛に最適だろう。")
   ShowMessage("アリス17世に圧倒された蜘蛛之皇女達は、ここに逃げ込んだのだ。")
   ShowMessageFace("alice_fc5",0,0,2,4)
   ShowMessage("【アリス】")
   ShowMessage("そして今でも、奴はこの場所で指揮を執っている。")
   ShowMessage("グランゴルドの地を蹂躙する、蜘蛛の軍勢のな……")
   0()
  EndIf()
  If(0,5,0)
   ShowMessageFace("iriasu_fc4",2,0,2,5)
   ShowMessage("【イリアス】")
   ShowMessage("地下の入り組んだ構造は、狭い場所を好む蜘蛛に最適。")
   ShowMessage("アリス17世に圧倒された蜘蛛之皇女達は、ここに逃げ込んだのです。")
   ShowMessageFace("iriasu_fc4",2,0,2,6)
   ShowMessage("【イリアス】")
   ShowMessage("そして今でも、かの者はこの場所で指揮を執っています。")
   ShowMessage("グランゴルドの地を蹂躙する、蜘蛛の軍勢の指揮を……")
   0()
  EndIf()
  If(4,45,0)
   ShowMessageFace("alicetromeria_fc1",4,0,2,7)
   ShowMessage("【アリストロメリア】")
   ShowMessage("そして、今度はこちらから誘いに来た……")
   ShowMessage("……というわけですわね。")
   0()
  EndIf()
  ShowMessageFace("ruka_fc1",0,0,2,8)
  ShowMessage("【ルカ】")
  ShowMessage("蜘蛛之皇女って、女王とは違うの？")
  ShowMessage("いったいどういう奴なんだ……？")
  If(0,4,0)
   ShowMessageFace("alice_fc5",0,0,2,9)
   ShowMessage("【アリス】")
   ShowMessage("蜘蛛族の長だが、クィーンインセクトの座に就いた事もある。")
   ShowMessage("あまりの残忍さゆえ、すぐに女王の座から追放されたがな。")
   ShowMessageFace("alice_fc5",0,0,2,10)
   ShowMessage("【アリス】")
   ShowMessage("奴の性質は、残忍にして極悪。")
   ShowMessage("弱き者を支配し、貪ることを楽しみとする下劣の輩。")
   ShowMessageFace("alice_fc5",0,0,2,11)
   ShowMessage("【アリス】")
   ShowMessage("ゆえに説得など考えず、倒すしかない。")
   ShowMessage("同情すべき事情もまるでない分、ある意味では戦いやすい相手だな。")
   0()
  EndIf()
  If(0,5,0)
   ShowMessageFace("iriasu_fc4",7,0,2,12)
   ShowMessage("【イリアス】")
   ShowMessage("蜘蛛族の長であり、一時はクィーンインセクトでした。")
   ShowMessage("あまりの残忍さゆえ、すぐに女王の座から追放されましたが……")
   ShowMessageFace("iriasu_fc4",7,0,2,13)
   ShowMessage("【イリアス】")
   ShowMessage("魔物の間でさえ忌み嫌われるほど、残忍な外道です。")
   ShowMessage("弱肉強食を是とし、弱き者を餌としか考えていません。")
   ShowMessageFace("iriasu_fc4",7,0,2,14)
   ShowMessage("【イリアス】")
   ShowMessage("ゆえに説得など考えず、討伐しかありません。")
   ShowMessage("同情すべき事情もまるでないため、躊躇なく戦える相手です。")
   0()
  EndIf()
  ShowMessageFace("ruka_fc1",0,0,2,15)
  ShowMessage("【ルカ】")
  ShowMessage("ああ……そんな相手なら、迷わず剣を振るえるよ。")
  If(0,4,0)
   ShowMessageFace("alice_fc5",0,0,2,16)
   ShowMessage("【アリス】")
   ShowMessage("ただし、油断するな……その強さも、各種族の女王と同格。")
   ShowMessage("優れた身体能力と魔力の高さを併せ持つ実力者なのだ。")
   0()
  EndIf()
  If(0,5,0)
   ShowMessageFace("iriasu_fc4",7,0,2,17)
   ShowMessage("【イリアス】")
   ShowMessage("ですが、油断しないように……その強さも、各種族の女王と同格です。")
   ShowMessage("優れた身体能力と魔力の高さを誇り、かなりの難敵ですよ。")
   0()
  EndIf()
  If(4,268,0)
   ShowMessageFace("queenant_fc1",1,0,2,18)
   ShowMessage("【アンティーヌ・アン】")
   ShowMessage("ここで止めねば、さらなる犠牲を生み出します。")
   ShowMessage("なんとしても、倒さねば……")
   0()
  EndIf()
  ShowMessageFace("ruka_fc1",0,0,2,19)
  ShowMessage("【ルカ】")
  ShowMessage("よし、気合いを入れて行こう！")
  0()
 PAGE   4
  // condition: self-switch B is ON
  0()



EVENT   19
 PAGE   1
  If(1,1072,0,0,0)
   ShowMessageFace("alakneload_fc1",0,0,2,1)
   ShowMessage("【アラクネロード】")
   ShowMessage("人間がこの地に何の用事だ？")
   ShowMessage("消えるがいい……")
   ShowMessageFace("ruka_fc1",0,0,2,2)
   ShowMessage("【ルカ】")
   ShowMessage("用事もない以上、無理に入ろうとすると揉めるだけだね。")
   0()
  EndIf()
  If(1,1072,0,1,1)
   ShowMessageFace("alakneload_fc1",0,0,2,3)
   ShowMessage("【アラクネロード】")
   ShowMessage("人間がこの地に何の用事だ？")
   ShowMessage("消えるがいい……")
   ShowMessageFace("ruka_fc1",0,0,2,4)
   ShowMessage("【ルカ】")
   ShowMessage("悪いけれど、無理にでも押し通る！")
   ShowMessage("蜘蛛之皇女にグランゴルド攻撃をやめさせるために！")
   ShowMessageFace("alakneload_fc1",0,0,2,5)
   ShowMessage("【アラクネロード】")
   ShowMessage("あの方に害を為す気か……？")
   ShowMessage("ならば、ここで消えてもらおう！")
   If(4,535,0)
    ShowMessageFace("grangold_fc2",0,0,2,6)
    ShowMessage("【グランゴルド王】")
    ShowMessage("貴様が……消えよ……")
    0()
   EndIf()
   ChangeSwitch(81,81,0)
   Battle(0,805,false,false)
   ChangeSwitch(81,81,1)
   ChangeSelfSwitch("A",0)
   If(0,4,0)
    ShowMessageFace("alice_fc5",2,0,2,7)
    ShowMessage("【アリス】")
    ShowMessage("よし、行くぞ。")
    ShowMessage("中は蜘蛛の巣窟だ、注意しろ！")
    0()
   EndIf()
   If(0,5,0)
    ShowMessageFace("iriasu_fc4",7,0,2,8)
    ShowMessage("【イリアス】")
    ShowMessage("それでは、蜘蛛退治に行きましょう。")
    ShowMessage("油断してはなりませんよ……")
    0()
   EndIf()
   If(4,12,0)
    ShowMessageFace("sylph_fc1",0,0,2,9)
    ShowMessage("【シルフ】")
    ShowMessage("洞窟探検～♪")
    0()
   EndIf()
   If(4,13,0)
    ShowMessageFace("gnome_fc1",0,0,2,10)
    ShowMessage("【ノーム】")
    ShowMessage("……………………")
    0()
   EndIf()
   EndEventProcessing()
   0()
  EndIf()
  0()
 PAGE   2
  // condition: self-switch A is ON
  0()



EVENT   20
 PAGE   1
  // condition: variable 1072 >= 2
  ShowMessageFace("alakneload_fc1",0,0,2,1)
  ShowMessage("【アラクネロード】")
  ShowMessage("蜘蛛之皇女様のところまで、送ってやろうか……？")
  ShowChoices(strings("送ってもらう","断る"),2)
  IfPlayerPicksChoice(0,null)
   250(bytes(0x04,0x08,0x6f,0x3a,0x0c,0x52,0x50,0x47,0x3a,0x3a,0x53,0x45,0x08,0x3a,0x0a,0x40,0x6e,0x61,0x6d,0x65,0x49,0x22,0x0e,0x6d,0x6f,0x6e,0x5f,0x75,0x6d,0x61,0x72,0x75,0x06,0x3a,0x06,0x45,0x54,0x3a,0x0b,0x40,0x70,0x69,0x74,0x63,0x68,0x69,0x69,0x3a,0x0c,0x40,0x76,0x6f,0x6c,0x75,0x6d,0x65,0x69,0x55))
   ChangeSwitch(100,100,0)
   TeleportPlayer(0,214,154,112,8,0)
   0()
  IfPlayerPicksChoice(1,null)
   0()
  404()
  0()



EVENT   21
 PAGE   1
  250(bytes(0x04,0x08,0x6f,0x3a,0x0c,0x52,0x50,0x47,0x3a,0x3a,0x53,0x45,0x08,0x3a,0x0a,0x40,0x6e,0x61,0x6d,0x65,0x49,0x22,0x0a,0x43,0x68,0x65,0x73,0x74,0x06,0x3a,0x06,0x45,0x54,0x3a,0x0b,0x40,0x70,0x69,0x74,0x63,0x68,0x69,0x69,0x3a,0x0c,0x40,0x76,0x6f,0x6c,0x75,0x6d,0x65,0x69,0x55))
  205(0,bytes(0x04,0x08,0x6f,0x3a,0x13,0x52,0x50,0x47,0x3a,0x3a,0x4d,0x6f,0x76,0x65,0x52,0x6f,0x75,0x74,0x65,0x09,0x3a,0x0c,0x40,0x72,0x65,0x70,0x65,0x61,0x74,0x46,0x3a,0x0f,0x40,0x73,0x6b,0x69,0x70,0x70,0x61,0x62,0x6c,0x65,0x46,0x3a,0x0a,0x40,0x77,0x61,0x69,0x74,0x54,0x3a,0x0a,0x40,0x6c,0x69,0x73,0x74,0x5b,0x0b,0x6f,0x3a,0x15,0x52,0x50,0x47,0x3a,0x3a,0x4d,0x6f,0x76,0x65,0x43,0x6f,0x6d,0x6d,0x61,0x6e,0x64,0x07,0x3a,0x0a,0x40,0x63,0x6f,0x64,0x65,0x69,0x29,0x3a,0x10,0x40,0x70,0x61,0x72,0x61,0x6d,0x65,0x74,0x65,0x72,0x73,0x5b,0x00,0x6f,0x3b,0x0a,0x07,0x3b,0x0b,0x69,0x16,0x3b,0x0c,0x5b,0x00,0x6f,0x3b,0x0a,0x07,0x3b,0x0b,0x69,0x14,0x3b,0x0c,0x5b,0x06,0x69,0x08,0x6f,0x3b,0x0a,0x07,0x3b,0x0b,0x69,0x17,0x3b,0x0c,0x5b,0x00,0x6f,0x3b,0x0a,0x07,0x3b,0x0b,0x69,0x14,0x3b,0x0c,0x5b,0x06,0x69,0x08,0x6f,0x3b,0x0a,0x07,0x3b,0x0b,0x69,0x00,0x3b,0x0c,0x5b,0x00))
  ChangeSelfSwitch("A",0)
  ChangeInventory_Item(30,0,0,1)
  0()
 PAGE   2
  // condition: self-switch A is ON
  0()
