﻿
DisplayName "Minotaur's Maze 1F"



EVENT   1
 PAGE   1
  250(bytes(0x04,0x08,0x6f,0x3a,0x0c,0x52,0x50,0x47,0x3a,0x3a,0x53,0x45,0x08,0x3a,0x0a,0x40,0x6e,0x61,0x6d,0x65,0x49,0x22,0x09,0x4d,0x6f,0x76,0x65,0x06,0x3a,0x06,0x45,0x54,0x3a,0x0b,0x40,0x70,0x69,0x74,0x63,0x68,0x69,0x69,0x3a,0x0c,0x40,0x76,0x6f,0x6c,0x75,0x6d,0x65,0x69,0x55))
  TeleportPlayer(0,284,16,7,0,0)
  0()



EVENT   2
 PAGE   1
  250(bytes(0x04,0x08,0x6f,0x3a,0x0c,0x52,0x50,0x47,0x3a,0x3a,0x53,0x45,0x08,0x3a,0x0a,0x40,0x6e,0x61,0x6d,0x65,0x49,0x22,0x09,0x4d,0x6f,0x76,0x65,0x06,0x3a,0x06,0x45,0x54,0x3a,0x0b,0x40,0x70,0x69,0x74,0x63,0x68,0x69,0x69,0x3a,0x0c,0x40,0x76,0x6f,0x6c,0x75,0x6d,0x65,0x69,0x55))
  TeleportPlayer(0,284,17,7,0,0)
  0()



EVENT   3
 PAGE   1
  250(bytes(0x04,0x08,0x6f,0x3a,0x0c,0x52,0x50,0x47,0x3a,0x3a,0x53,0x45,0x08,0x3a,0x0a,0x40,0x6e,0x61,0x6d,0x65,0x49,0x22,0x09,0x4d,0x6f,0x76,0x65,0x06,0x3a,0x06,0x45,0x54,0x3a,0x0b,0x40,0x70,0x69,0x74,0x63,0x68,0x69,0x69,0x3a,0x0c,0x40,0x76,0x6f,0x6c,0x75,0x6d,0x65,0x69,0x55))
  TeleportPlayer(0,284,18,7,0,0)
  0()



EVENT   4
 PAGE   1
  250(bytes(0x04,0x08,0x6f,0x3a,0x0c,0x52,0x50,0x47,0x3a,0x3a,0x53,0x45,0x08,0x3a,0x0a,0x40,0x6e,0x61,0x6d,0x65,0x49,0x22,0x09,0x4d,0x6f,0x76,0x65,0x06,0x3a,0x06,0x45,0x54,0x3a,0x0b,0x40,0x70,0x69,0x74,0x63,0x68,0x69,0x69,0x3a,0x0c,0x40,0x76,0x6f,0x6c,0x75,0x6d,0x65,0x69,0x55))
  TeleportPlayer(0,284,16,35,0,0)
  0()



EVENT   5
 PAGE   1
  ChangeSwitch(100,100,1)
  250(bytes(0x04,0x08,0x6f,0x3a,0x0c,0x52,0x50,0x47,0x3a,0x3a,0x53,0x45,0x08,0x3a,0x0a,0x40,0x6e,0x61,0x6d,0x65,0x49,0x22,0x09,0x4d,0x6f,0x76,0x65,0x06,0x3a,0x06,0x45,0x54,0x3a,0x0b,0x40,0x70,0x69,0x74,0x63,0x68,0x69,0x69,0x3a,0x0c,0x40,0x76,0x6f,0x6c,0x75,0x6d,0x65,0x69,0x55))
  TeleportPlayer(0,2,327,160,0,0)
  0()



EVENT   6
 PAGE   1
  ChangeSwitch(100,100,1)
  250(bytes(0x04,0x08,0x6f,0x3a,0x0c,0x52,0x50,0x47,0x3a,0x3a,0x53,0x45,0x08,0x3a,0x0a,0x40,0x6e,0x61,0x6d,0x65,0x49,0x22,0x09,0x4d,0x6f,0x76,0x65,0x06,0x3a,0x06,0x45,0x54,0x3a,0x0b,0x40,0x70,0x69,0x74,0x63,0x68,0x69,0x69,0x3a,0x0c,0x40,0x76,0x6f,0x6c,0x75,0x6d,0x65,0x69,0x55))
  TeleportPlayer(0,2,327,160,0,0)
  0()



EVENT   7
 PAGE   1
  ChangeSwitch(100,100,1)
  250(bytes(0x04,0x08,0x6f,0x3a,0x0c,0x52,0x50,0x47,0x3a,0x3a,0x53,0x45,0x08,0x3a,0x0a,0x40,0x6e,0x61,0x6d,0x65,0x49,0x22,0x09,0x4d,0x6f,0x76,0x65,0x06,0x3a,0x06,0x45,0x54,0x3a,0x0b,0x40,0x70,0x69,0x74,0x63,0x68,0x69,0x69,0x3a,0x0c,0x40,0x76,0x6f,0x6c,0x75,0x6d,0x65,0x69,0x55))
  TeleportPlayer(0,2,328,160,0,0)
  0()



EVENT   8
 PAGE   1
  250(bytes(0x04,0x08,0x6f,0x3a,0x0c,0x52,0x50,0x47,0x3a,0x3a,0x53,0x45,0x08,0x3a,0x0a,0x40,0x6e,0x61,0x6d,0x65,0x49,0x22,0x09,0x4d,0x6f,0x76,0x65,0x06,0x3a,0x06,0x45,0x54,0x3a,0x0b,0x40,0x70,0x69,0x74,0x63,0x68,0x69,0x69,0x3a,0x0c,0x40,0x76,0x6f,0x6c,0x75,0x6d,0x65,0x69,0x55))
  TeleportPlayer(0,284,17,35,0,0)
  0()



EVENT   9
 PAGE   1
  250(bytes(0x04,0x08,0x6f,0x3a,0x0c,0x52,0x50,0x47,0x3a,0x3a,0x53,0x45,0x08,0x3a,0x0a,0x40,0x6e,0x61,0x6d,0x65,0x49,0x22,0x09,0x4d,0x6f,0x76,0x65,0x06,0x3a,0x06,0x45,0x54,0x3a,0x0b,0x40,0x70,0x69,0x74,0x63,0x68,0x69,0x69,0x3a,0x0c,0x40,0x76,0x6f,0x6c,0x75,0x6d,0x65,0x69,0x55))
  TeleportPlayer(0,284,18,35,0,0)
  0()



EVENT   10
 PAGE   1
  250(bytes(0x04,0x08,0x6f,0x3a,0x0c,0x52,0x50,0x47,0x3a,0x3a,0x53,0x45,0x08,0x3a,0x0a,0x40,0x6e,0x61,0x6d,0x65,0x49,0x22,0x09,0x4d,0x6f,0x76,0x65,0x06,0x3a,0x06,0x45,0x54,0x3a,0x0b,0x40,0x70,0x69,0x74,0x63,0x68,0x69,0x69,0x3a,0x0c,0x40,0x76,0x6f,0x6c,0x75,0x6d,0x65,0x69,0x55))
  TeleportPlayer(0,284,44,35,0,0)
  0()



EVENT   11
 PAGE   1
  250(bytes(0x04,0x08,0x6f,0x3a,0x0c,0x52,0x50,0x47,0x3a,0x3a,0x53,0x45,0x08,0x3a,0x0a,0x40,0x6e,0x61,0x6d,0x65,0x49,0x22,0x09,0x4d,0x6f,0x76,0x65,0x06,0x3a,0x06,0x45,0x54,0x3a,0x0b,0x40,0x70,0x69,0x74,0x63,0x68,0x69,0x69,0x3a,0x0c,0x40,0x76,0x6f,0x6c,0x75,0x6d,0x65,0x69,0x55))
  TeleportPlayer(0,284,45,35,0,0)
  0()



EVENT   12
 PAGE   1
  250(bytes(0x04,0x08,0x6f,0x3a,0x0c,0x52,0x50,0x47,0x3a,0x3a,0x53,0x45,0x08,0x3a,0x0a,0x40,0x6e,0x61,0x6d,0x65,0x49,0x22,0x09,0x4d,0x6f,0x76,0x65,0x06,0x3a,0x06,0x45,0x54,0x3a,0x0b,0x40,0x70,0x69,0x74,0x63,0x68,0x69,0x69,0x3a,0x0c,0x40,0x76,0x6f,0x6c,0x75,0x6d,0x65,0x69,0x55))
  TeleportPlayer(0,284,46,35,0,0)
  0()



EVENT   13
 PAGE   1
  250(bytes(0x04,0x08,0x6f,0x3a,0x0c,0x52,0x50,0x47,0x3a,0x3a,0x53,0x45,0x08,0x3a,0x0a,0x40,0x6e,0x61,0x6d,0x65,0x49,0x22,0x0a,0x43,0x68,0x65,0x73,0x74,0x06,0x3a,0x06,0x45,0x54,0x3a,0x0b,0x40,0x70,0x69,0x74,0x63,0x68,0x69,0x69,0x3a,0x0c,0x40,0x76,0x6f,0x6c,0x75,0x6d,0x65,0x69,0x55))
  205(0,bytes(0x04,0x08,0x6f,0x3a,0x13,0x52,0x50,0x47,0x3a,0x3a,0x4d,0x6f,0x76,0x65,0x52,0x6f,0x75,0x74,0x65,0x09,0x3a,0x0c,0x40,0x72,0x65,0x70,0x65,0x61,0x74,0x46,0x3a,0x0f,0x40,0x73,0x6b,0x69,0x70,0x70,0x61,0x62,0x6c,0x65,0x46,0x3a,0x0a,0x40,0x77,0x61,0x69,0x74,0x54,0x3a,0x0a,0x40,0x6c,0x69,0x73,0x74,0x5b,0x0b,0x6f,0x3a,0x15,0x52,0x50,0x47,0x3a,0x3a,0x4d,0x6f,0x76,0x65,0x43,0x6f,0x6d,0x6d,0x61,0x6e,0x64,0x07,0x3a,0x0a,0x40,0x63,0x6f,0x64,0x65,0x69,0x29,0x3a,0x10,0x40,0x70,0x61,0x72,0x61,0x6d,0x65,0x74,0x65,0x72,0x73,0x5b,0x00,0x6f,0x3b,0x0a,0x07,0x3b,0x0b,0x69,0x16,0x3b,0x0c,0x5b,0x00,0x6f,0x3b,0x0a,0x07,0x3b,0x0b,0x69,0x14,0x3b,0x0c,0x5b,0x06,0x69,0x08,0x6f,0x3b,0x0a,0x07,0x3b,0x0b,0x69,0x17,0x3b,0x0c,0x5b,0x00,0x6f,0x3b,0x0a,0x07,0x3b,0x0b,0x69,0x14,0x3b,0x0c,0x5b,0x06,0x69,0x08,0x6f,0x3b,0x0a,0x07,0x3b,0x0b,0x69,0x00,0x3b,0x0c,0x5b,0x00))
  ChangeSelfSwitch("A",0)
  ChangeInventory_Item(32,0,0,1)
  0()
 PAGE   2
  // condition: self-switch A is ON
  0()



EVENT   14
 PAGE   1
  250(bytes(0x04,0x08,0x6f,0x3a,0x0c,0x52,0x50,0x47,0x3a,0x3a,0x53,0x45,0x08,0x3a,0x0a,0x40,0x6e,0x61,0x6d,0x65,0x49,0x22,0x0a,0x43,0x68,0x65,0x73,0x74,0x06,0x3a,0x06,0x45,0x54,0x3a,0x0b,0x40,0x70,0x69,0x74,0x63,0x68,0x69,0x69,0x3a,0x0c,0x40,0x76,0x6f,0x6c,0x75,0x6d,0x65,0x69,0x55))
  205(0,bytes(0x04,0x08,0x6f,0x3a,0x13,0x52,0x50,0x47,0x3a,0x3a,0x4d,0x6f,0x76,0x65,0x52,0x6f,0x75,0x74,0x65,0x09,0x3a,0x0c,0x40,0x72,0x65,0x70,0x65,0x61,0x74,0x46,0x3a,0x0f,0x40,0x73,0x6b,0x69,0x70,0x70,0x61,0x62,0x6c,0x65,0x46,0x3a,0x0a,0x40,0x77,0x61,0x69,0x74,0x54,0x3a,0x0a,0x40,0x6c,0x69,0x73,0x74,0x5b,0x0b,0x6f,0x3a,0x15,0x52,0x50,0x47,0x3a,0x3a,0x4d,0x6f,0x76,0x65,0x43,0x6f,0x6d,0x6d,0x61,0x6e,0x64,0x07,0x3a,0x0a,0x40,0x63,0x6f,0x64,0x65,0x69,0x29,0x3a,0x10,0x40,0x70,0x61,0x72,0x61,0x6d,0x65,0x74,0x65,0x72,0x73,0x5b,0x00,0x6f,0x3b,0x0a,0x07,0x3b,0x0b,0x69,0x16,0x3b,0x0c,0x5b,0x00,0x6f,0x3b,0x0a,0x07,0x3b,0x0b,0x69,0x14,0x3b,0x0c,0x5b,0x06,0x69,0x08,0x6f,0x3b,0x0a,0x07,0x3b,0x0b,0x69,0x17,0x3b,0x0c,0x5b,0x00,0x6f,0x3b,0x0a,0x07,0x3b,0x0b,0x69,0x14,0x3b,0x0c,0x5b,0x06,0x69,0x08,0x6f,0x3b,0x0a,0x07,0x3b,0x0b,0x69,0x00,0x3b,0x0c,0x5b,0x00))
  ChangeSelfSwitch("A",0)
  ChangeInventoryWeapon(763,0,0,1)
  0()
 PAGE   2
  // condition: self-switch A is ON
  0()



EVENT   15
 PAGE   1
  250(bytes(0x04,0x08,0x6f,0x3a,0x0c,0x52,0x50,0x47,0x3a,0x3a,0x53,0x45,0x08,0x3a,0x0a,0x40,0x6e,0x61,0x6d,0x65,0x49,0x22,0x0a,0x43,0x68,0x65,0x73,0x74,0x06,0x3a,0x06,0x45,0x54,0x3a,0x0b,0x40,0x70,0x69,0x74,0x63,0x68,0x69,0x69,0x3a,0x0c,0x40,0x76,0x6f,0x6c,0x75,0x6d,0x65,0x69,0x55))
  205(0,bytes(0x04,0x08,0x6f,0x3a,0x13,0x52,0x50,0x47,0x3a,0x3a,0x4d,0x6f,0x76,0x65,0x52,0x6f,0x75,0x74,0x65,0x09,0x3a,0x0c,0x40,0x72,0x65,0x70,0x65,0x61,0x74,0x46,0x3a,0x0f,0x40,0x73,0x6b,0x69,0x70,0x70,0x61,0x62,0x6c,0x65,0x46,0x3a,0x0a,0x40,0x77,0x61,0x69,0x74,0x54,0x3a,0x0a,0x40,0x6c,0x69,0x73,0x74,0x5b,0x0b,0x6f,0x3a,0x15,0x52,0x50,0x47,0x3a,0x3a,0x4d,0x6f,0x76,0x65,0x43,0x6f,0x6d,0x6d,0x61,0x6e,0x64,0x07,0x3a,0x0a,0x40,0x63,0x6f,0x64,0x65,0x69,0x29,0x3a,0x10,0x40,0x70,0x61,0x72,0x61,0x6d,0x65,0x74,0x65,0x72,0x73,0x5b,0x00,0x6f,0x3b,0x0a,0x07,0x3b,0x0b,0x69,0x16,0x3b,0x0c,0x5b,0x00,0x6f,0x3b,0x0a,0x07,0x3b,0x0b,0x69,0x14,0x3b,0x0c,0x5b,0x06,0x69,0x08,0x6f,0x3b,0x0a,0x07,0x3b,0x0b,0x69,0x17,0x3b,0x0c,0x5b,0x00,0x6f,0x3b,0x0a,0x07,0x3b,0x0b,0x69,0x14,0x3b,0x0c,0x5b,0x06,0x69,0x08,0x6f,0x3b,0x0a,0x07,0x3b,0x0b,0x69,0x00,0x3b,0x0c,0x5b,0x00))
  ChangeSelfSwitch("A",0)
  ChangeInventory_Item(76,0,0,1)
  0()
 PAGE   2
  // condition: self-switch A is ON
  0()



EVENT   16
 PAGE   1
  ShowMessageFace("mino_fc1",0,0,2,1)
  ShowMessage("【ミノタウロス娘】")
  ShowMessage("すきやき、最高だな！")
  ShowMessage("ここが肉のパラダイスだぜ！")
  0()
 PAGE   2
  // condition: variable 1054 >= 7
  0()



EVENT   17
 PAGE   1
  241(bytes(0x04,0x08,0x6f,0x3a,0x0d,0x52,0x50,0x47,0x3a,0x3a,0x42,0x47,0x4d,0x08,0x3a,0x0a,0x40,0x6e,0x61,0x6d,0x65,0x49,0x22,0x10,0x73,0x63,0x65,0x6e,0x65,0x5f,0x63,0x6f,0x6d,0x69,0x32,0x06,0x3a,0x06,0x45,0x54,0x3a,0x0c,0x40,0x76,0x6f,0x6c,0x75,0x6d,0x65,0x69,0x69,0x3a,0x0b,0x40,0x70,0x69,0x74,0x63,0x68,0x69,0x69))
  ShowMessageFace("seitentaisei_fc1",1,0,2,1)
  ShowMessage("【？？？】")
  ShowMessage("ふぅ、食った食った。")
  ShowMessage("それじゃあ、さっそく妖怪退治を……ん？")
  205(0,bytes(0x04,0x08,0x6f,0x3a,0x13,0x52,0x50,0x47,0x3a,0x3a,0x4d,0x6f,0x76,0x65,0x52,0x6f,0x75,0x74,0x65,0x09,0x3a,0x0c,0x40,0x72,0x65,0x70,0x65,0x61,0x74,0x46,0x3a,0x0f,0x40,0x73,0x6b,0x69,0x70,0x70,0x61,0x62,0x6c,0x65,0x46,0x3a,0x0a,0x40,0x77,0x61,0x69,0x74,0x54,0x3a,0x0a,0x40,0x6c,0x69,0x73,0x74,0x5b,0x08,0x6f,0x3a,0x15,0x52,0x50,0x47,0x3a,0x3a,0x4d,0x6f,0x76,0x65,0x43,0x6f,0x6d,0x6d,0x61,0x6e,0x64,0x07,0x3a,0x0a,0x40,0x63,0x6f,0x64,0x65,0x69,0x29,0x3a,0x10,0x40,0x70,0x61,0x72,0x61,0x6d,0x65,0x74,0x65,0x72,0x73,0x5b,0x00,0x6f,0x3b,0x0a,0x07,0x3b,0x0b,0x69,0x1e,0x3b,0x0c,0x5b,0x00,0x6f,0x3b,0x0a,0x07,0x3b,0x0b,0x69,0x00,0x3b,0x0c,0x5b,0x00))
  Wait(60)
  PictureDisplay(5,"80_seitentaisei_st01",0,0,0,0,100,100,0,0)
  PictureMove(5,null,0,0,0,0,100,100,255,0,30,true)
  ShowMessageFace("seitentaisei_fc1",2,0,2,2)
  ShowMessage("【？？？】")
  ShowMessage("なんだ、お前達？")
  ShowMessage("ああ、もしかして例の……")
  If(0,4,0)
   ShowMessageFace("alice_fc5",2,0,2,3)
   ShowMessage("【アリス】")
   ShowMessage("貴様が黒幕か！")
   ShowMessage("いったい、何を企んでいる！？")
   0()
  EndIf()
  If(0,5,0)
   ShowMessageFace("iriasu_fc4",7,0,2,4)
   ShowMessage("【イリアス】")
   ShowMessage("あなたがこの一件の黒幕ですか！")
   ShowMessage("……なんだか、どこかで見覚えがありますね……")
   0()
  EndIf()
  ShowMessageFace("seitentaisei_fc1",1,0,2,5)
  ShowMessage("【？？？】")
  ShowMessage("おいおい、勘違いすんなよ……")
  ShowMessage("俺はむしろ、黒幕を退治しに来たんだぜ？")
  If(0,6,0)
   ShowMessageFace("sonia_fc2",2,0,2,6)
   ShowMessage("【ソニア】")
   ShowMessage("黒幕を退治しに……って事は、敵じゃないの？")
   ShowMessage("あなた、いったい何者？")
   0()
  Else()
   ShowMessageFace("ruka_fc1",0,0,2,7)
   ShowMessage("【ルカ】")
   ShowMessage("じゃあ、敵じゃないのか？　いったい何者なんだ？")
   0()
  EndIf()
  If(4,62,0)
   ShowMessageFace("gob_fc1",3,0,2,8)
   ShowMessage("【ゴブ】")
   ShowMessage("おばあちゃんの持っていた絵巻物で見たような……")
   0()
  EndIf()
  If(4,121,0)
   ShowMessageFace("page65537_fc1",2,0,2,9)
   ShowMessage("【コーネリア】")
   ShowMessage("その姿は、まさに伝承の通り……")
   0()
  EndIf()
  ShowMessageFace("seitentaisei_fc1",0,0,2,10)
  ShowMessage("【孫悟空】")
  ShowMessage("よくぞ聞いた、俺の名は孫悟空！")
  ShowMessage("天に刃向かう魔猿の王とは、俺の事よ！")
  If(0,4,0)
   ShowMessageFace("alice_fc5",6,0,2,11)
   ShowMessage("【アリス】")
   ShowMessage("孫悟空とは、いにしえの妖魔ではないか！")
   ShowMessage("ただの紛い物か？　それとも子孫か……？")
   ShowMessageFace("seitentaisei_fc1",0,0,2,12)
   ShowMessage("【孫悟空】")
   ShowMessage("ところがどっこい、本人様よ！")
   ShowMessage("口にはできない諸事情で、ちょっと現世に戻ってな！")
   0()
  EndIf()
  If(0,5,0)
   ShowMessageFace("iriasu_fc4",5,0,2,13)
   ShowMessage("【イリアス】")
   ShowMessage("そう、孫悟空ではないですか！")
   ShowMessage("聖魔大戦においても、何度も天使軍を悩ませた、あの……")
   ShowMessageFace("seitentaisei_fc1",0,0,2,14)
   ShowMessage("【孫悟空】")
   ShowMessage("説明不要とは、ありがたい！")
   ShowMessage("口にはできない諸事情で、ちょっと現世に戻ってな！")
   0()
  EndIf()
  ShowMessageFace("seitentaisei_fc1",0,0,2,15)
  ShowMessage("【孫悟空】")
  ShowMessage("お前達の事も、黒のアリスから聞いてるぜ！")
  ShowMessage("ここで会ったが、百年目ってな！")
  If(0,4,0)
   ShowMessageFace("alice_fc5",6,0,2,16)
   ShowMessage("【アリス】")
   ShowMessage("黒のアリス！？")
   ShowMessage("アリスフィーズ8世が、貴様を蘇らせたというのか！")
   0()
  EndIf()
  If(0,5,0)
   ShowMessageFace("iriasu_fc4",5,0,2,17)
   ShowMessage("【イリアス】")
   ShowMessage("黒のアリス！？")
   ShowMessage("奴があなたを復活させたというのですか！")
   0()
  EndIf()
  PictureDisplay(5,"80_seitentaisei_st03",0,0,0,0,100,100,255,0)
  ShowMessageFace("seitentaisei_fc1",2,0,2,18)
  ShowMessage("【孫悟空】")
  ShowMessage("おっと、うっかり喋っちまった！")
  ShowMessage("まあいい、お前達も敵って話だ！")
  PictureDisplay(5,"80_seitentaisei_st01",0,0,0,0,100,100,255,0)
  ShowMessageFace("seitentaisei_fc1",0,0,2,19)
  ShowMessage("【孫悟空】")
  ShowMessage("それじゃあ、行くぜ！　観念しな！")
  If(0,4,0)
   ShowMessageFace("alice_fc6",1,0,2,20)
   ShowMessage("【アリス】")
   ShowMessage("気をつけろ、こいつは伝説に残るほどの妖魔だ！")
   ShowMessage("すさまじく強いぞ！")
   0()
  EndIf()
  If(0,5,0)
   ShowMessageFace("iriasu_fc4",7,0,2,21)
   ShowMessage("【イリアス】")
   ShowMessage("気をつけなさい！")
   ShowMessage("こいつは、かなり強力な妖魔ですよ！")
   0()
  EndIf()
  If(4,129,0)
   ShowMessageFace("brunhild_fc1",0,0,2,22)
   ShowMessage("【ヒルデ】")
   ShowMessage("敵はサル……戦闘、開始。")
   0()
  EndIf()
  If(4,79,0)
   ShowMessageFace("nuruko_fc1",0,0,2,23)
   ShowMessage("【ヌルコ】")
   ShowMessage("きゅー！　きゅー！")
   0()
  EndIf()
  PictureClear(5)
  SetBattleBGM(bytes(0x04,0x08,0x6f,0x3a,0x0d,0x52,0x50,0x47,0x3a,0x3a,0x42,0x47,0x4d,0x08,0x3a,0x0a,0x40,0x6e,0x61,0x6d,0x65,0x49,0x22,0x0a,0x62,0x6f,0x73,0x73,0x31,0x06,0x3a,0x06,0x45,0x54,0x3a,0x0c,0x40,0x76,0x6f,0x6c,0x75,0x6d,0x65,0x69,0x69,0x3a,0x0b,0x40,0x70,0x69,0x74,0x63,0x68,0x69,0x69))
  ChangeSwitch(22,22,0)
  Battle(0,625,false,false)
  ChangeSwitch(22,22,1)
  SetBattleBGM(bytes(0x04,0x08,0x6f,0x3a,0x0d,0x52,0x50,0x47,0x3a,0x3a,0x42,0x47,0x4d,0x08,0x3a,0x0a,0x40,0x6e,0x61,0x6d,0x65,0x49,0x22,0x0b,0x62,0x61,0x74,0x74,0x6c,0x65,0x06,0x3a,0x06,0x45,0x54,0x3a,0x0c,0x40,0x76,0x6f,0x6c,0x75,0x6d,0x65,0x69,0x69,0x3a,0x0b,0x40,0x70,0x69,0x74,0x63,0x68,0x69,0x69))
  241(bytes(0x04,0x08,0x6f,0x3a,0x0d,0x52,0x50,0x47,0x3a,0x3a,0x42,0x47,0x4d,0x08,0x3a,0x0a,0x40,0x6e,0x61,0x6d,0x65,0x49,0x22,0x10,0x73,0x63,0x65,0x6e,0x65,0x5f,0x63,0x6f,0x6d,0x69,0x32,0x06,0x3a,0x06,0x45,0x54,0x3a,0x0c,0x40,0x76,0x6f,0x6c,0x75,0x6d,0x65,0x69,0x69,0x3a,0x0b,0x40,0x70,0x69,0x74,0x63,0x68,0x69,0x69))
  PictureDisplay(5,"80_seitentaisei_st03",0,0,0,0,100,100,0,0)
  PictureMove(5,null,0,0,0,0,100,100,255,0,30,true)
  ShowMessageFace("seitentaisei_fc1",2,0,2,24)
  ShowMessage("【孫悟空】")
  ShowMessage("ちっ、やられちまったか！")
  ShowMessage("すきやきの食い過ぎで、腹が重いぜ……")
  If(0,4,0)
   ShowMessageFace("alice_fc5",0,0,2,25)
   ShowMessage("【アリス】")
   ShowMessage("貴様、黒幕を倒しに来たと言っていたな。")
   ShowMessage("詳しく語ってもらおうか。")
   0()
  EndIf()
  If(0,5,0)
   ShowMessageFace("iriasu_fc4",2,0,2,26)
   ShowMessage("【イリアス】")
   ShowMessage("さっき、黒幕を倒しに来たと言いましたね。")
   ShowMessage("詳しく話さないと、あなたがすきやきになりますよ。")
   0()
  EndIf()
  PictureDisplay(5,"80_seitentaisei_st02",0,0,0,0,100,100,255,0)
  ShowMessageFace("seitentaisei_fc1",1,0,2,27)
  ShowMessage("【孫悟空】")
  ShowMessage("しゃーねーなー。俺に勝ったし、教えてやるか……")
  ShowMessage("この一件の黒幕は、牛魔王っていう妖魔だよ。")
  If(0,4,0)
   ShowMessageFace("alice_fc5",6,0,2,28)
   ShowMessage("【アリス】")
   ShowMessage("牛魔王！？")
   ShowMessage("これまた有名な、いにしえの妖魔ではないか！")
   0()
  EndIf()
  If(0,5,0)
   ShowMessageFace("iriasu_fc4",5,0,2,29)
   ShowMessage("【イリアス】")
   ShowMessage("牛魔王！？　奴まで蘇ったというのですか……？")
   0()
  EndIf()
  If(4,164,0)
   ShowMessageFace("kooni_fc1",2,0,2,30)
   ShowMessage("【雫】")
   ShowMessage("昔話で聞いた事があるけど、本当にいたなんて……")
   0()
  EndIf()
  ShowMessageFace("seitentaisei_fc1",1,0,2,31)
  ShowMessage("【孫悟空】")
  ShowMessage("ところがどっこい、こっちは本人じゃねぇ。")
  ShowMessage("何代目だったか忘れたが、初代牛魔王の子孫のまた子孫だ。")
  ShowMessageFace("seitentaisei_fc1",1,0,2,32)
  ShowMessage("【孫悟空】")
  ShowMessage("とは言え、けっこう強い妖魔には違いなくてな。")
  ShowMessage("どうもクィーンビーストの座を狙い軍勢を集めてるんだとか。")
  ShowMessageFace("seitentaisei_fc1",1,0,2,33)
  ShowMessage("【孫悟空】")
  ShowMessage("ミノタウロスどもを集め、すきやきで手懐け、")
  ShowMessage("自分の軍隊にしようってハラらしいんだな、これが。")
  If(4,201,0)
   ShowMessageFace("ashel_fc1",2,0,2,34)
   ShowMessage("【アシェル】")
   ShowMessage("せ、せこい……")
   0()
  EndIf()
  If(4,203,0)
   ShowMessageFace("tatunoko_k_fc1",2,0,2,35)
   ShowMessage("【たつこ】")
   ShowMessage("あたしも釣られてしまいそうなのです……")
   0()
  EndIf()
  If(4,143,0)
   ShowMessageFace("eva_fc1",0,0,2,36)
   ShowMessage("【エヴァ】")
   ShowMessage("すきやきくれるなら、あたしも協力するけど？")
   0()
  EndIf()
  ShowMessageFace("seitentaisei_fc1",0,0,2,37)
  ShowMessage("【孫悟空】")
  ShowMessage("だが、そんなの放っちゃおけねぇ！")
  ShowMessage("初代牛魔王とは因縁のある俺が、退治しに来たってわけよ！")
  PictureDisplay(5,"80_seitentaisei_st03",0,0,0,0,100,100,255,0)
  ShowMessageFace("seitentaisei_fc1",2,0,2,38)
  ShowMessage("【孫悟空】")
  ShowMessage("……が、今の戦いですっかり疲れちまったな。")
  ShowMessage("ちょっとすきやきでも食ってくるわ。")
  PictureClear(5)
  Wait(60)
  205(0,bytes(0x04,0x08,0x6f,0x3a,0x13,0x52,0x50,0x47,0x3a,0x3a,0x4d,0x6f,0x76,0x65,0x52,0x6f,0x75,0x74,0x65,0x09,0x3a,0x0c,0x40,0x72,0x65,0x70,0x65,0x61,0x74,0x46,0x3a,0x0f,0x40,0x73,0x6b,0x69,0x70,0x70,0x61,0x62,0x6c,0x65,0x46,0x3a,0x0a,0x40,0x77,0x61,0x69,0x74,0x54,0x3a,0x0a,0x40,0x6c,0x69,0x73,0x74,0x5b,0x1e,0x6f,0x3a,0x15,0x52,0x50,0x47,0x3a,0x3a,0x4d,0x6f,0x76,0x65,0x43,0x6f,0x6d,0x6d,0x61,0x6e,0x64,0x07,0x3a,0x0a,0x40,0x63,0x6f,0x64,0x65,0x69,0x2a,0x3a,0x10,0x40,0x70,0x61,0x72,0x61,0x6d,0x65,0x74,0x65,0x72,0x73,0x5b,0x00,0x6f,0x3b,0x0a,0x07,0x3b,0x0b,0x69,0x22,0x3b,0x0c,0x5b,0x06,0x69,0x0a,0x6f,0x3b,0x0a,0x07,0x3b,0x0b,0x69,0x23,0x3b,0x0c,0x5b,0x06,0x69,0x09,0x6f,0x3b,0x0a,0x07,0x3b,0x0b,0x69,0x06,0x3b,0x0c,0x5b,0x00,0x6f,0x3b,0x0a,0x07,0x3b,0x0b,0x69,0x06,0x3b,0x0c,0x5b,0x00,0x6f,0x3b,0x0a,0x07,0x3b,0x0b,0x69,0x06,0x3b,0x0c,0x5b,0x00,0x6f,0x3b,0x0a,0x07,0x3b,0x0b,0x69,0x06,0x3b,0x0c,0x5b,0x00,0x6f,0x3b,0x0a,0x07,0x3b,0x0b,0x69,0x06,0x3b,0x0c,0x5b,0x00,0x6f,0x3b,0x0a,0x07,0x3b,0x0b,0x69,0x06,0x3b,0x0c,0x5b,0x00,0x6f,0x3b,0x0a,0x07,0x3b,0x0b,0x69,0x06,0x3b,0x0c,0x5b,0x00,0x6f,0x3b,0x0a,0x07,0x3b,0x0b,0x69,0x08,0x3b,0x0c,0x5b,0x00,0x6f,0x3b,0x0a,0x07,0x3b,0x0b,0x69,0x08,0x3b,0x0c,0x5b,0x00,0x6f,0x3b,0x0a,0x07,0x3b,0x0b,0x69,0x08,0x3b,0x0c,0x5b,0x00,0x6f,0x3b,0x0a,0x07,0x3b,0x0b,0x69,0x08,0x3b,0x0c,0x5b,0x00,0x6f,0x3b,0x0a,0x07,0x3b,0x0b,0x69,0x08,0x3b,0x0c,0x5b,0x00,0x6f,0x3b,0x0a,0x07,0x3b,0x0b,0x69,0x08,0x3b,0x0c,0x5b,0x00,0x6f,0x3b,0x0a,0x07,0x3b,0x0b,0x69,0x08,0x3b,0x0c,0x5b,0x00,0x6f,0x3b,0x0a,0x07,0x3b,0x0b,0x69,0x08,0x3b,0x0c,0x5b,0x00,0x6f,0x3b,0x0a,0x07,0x3b,0x0b,0x69,0x08,0x3b,0x0c,0x5b,0x00,0x6f,0x3b,0x0a,0x07,0x3b,0x0b,0x69,0x08,0x3b,0x0c,0x5b,0x00,0x6f,0x3b,0x0a,0x07,0x3b,0x0b,0x69,0x08,0x3b,0x0c,0x5b,0x00,0x6f,0x3b,0x0a,0x07,0x3b,0x0b,0x69,0x08,0x3b,0x0c,0x5b,0x00,0x6f,0x3b,0x0a,0x07,0x3b,0x0b,0x69,0x08,0x3b,0x0c,0x5b,0x00,0x6f,0x3b,0x0a,0x07,0x3b,0x0b,0x69,0x08,0x3b,0x0c,0x5b,0x00,0x6f,0x3b,0x0a,0x07,0x3b,0x0b,0x69,0x00,0x3b,0x0c,0x5b,0x00))
  ChangeVariable(1054,1054,0,0,6)
  If(0,6,0)
   ShowMessageFace("sonia_fc2",2,0,2,39)
   ShowMessage("【ソニア】")
   ShowMessage("つまり……その牛魔王ってのが黒幕なわけね。")
   0()
  Else()
   ShowMessageFace("ruka_fc1",0,0,2,40)
   ShowMessage("【ルカ】")
   ShowMessage("つまり、牛魔王ってのが黒幕なんだね。")
   0()
  EndIf()
  If(0,4,0)
   ShowMessageFace("alice_fc5",0,0,2,41)
   ShowMessage("【アリス】")
   ShowMessage("独自の軍勢を集めているとなると、放置はできんな。")
   ShowMessage("いずれもっと大きな問題を起こすだろう……")
   0()
  EndIf()
  If(0,5,0)
   ShowMessageFace("iriasu_fc4",2,0,2,42)
   ShowMessage("【イリアス】")
   ShowMessage("独自の軍勢を集めているならば、放置はできません。")
   ShowMessage("いずれ必ず、世の中に害するでしょう。")
   0()
  EndIf()
  ShowMessageFace("kerberos_fc1",0,0,2,43)
  ShowMessage("【シーザー】")
  ShowMessage("よし、行くぞ！")
  ShowMessage("きっと牛魔王は最上階にいるはずだ！")
  If(4,62,0)
   ShowMessageFace("gob_fc1",0,0,2,44)
   ShowMessage("【ゴブ】")
   ShowMessage("いざ、牛魔王退治だ～！")
   0()
  EndIf()
  241(bytes(0x04,0x08,0x6f,0x3a,0x0d,0x52,0x50,0x47,0x3a,0x3a,0x42,0x47,0x4d,0x08,0x3a,0x0a,0x40,0x6e,0x61,0x6d,0x65,0x49,0x22,0x12,0x64,0x75,0x6e,0x67,0x65,0x6f,0x6e,0x5f,0x74,0x6f,0x77,0x65,0x72,0x06,0x3a,0x06,0x45,0x54,0x3a,0x0c,0x40,0x76,0x6f,0x6c,0x75,0x6d,0x65,0x69,0x69,0x3a,0x0b,0x40,0x70,0x69,0x74,0x63,0x68,0x69,0x69))
  EndEventProcessing()
  0()
 PAGE   2
  // condition: variable 1054 >= 6
  0()



EVENT   18
 PAGE   1
  ShowMessageFace("mino_fc1",0,0,2,1)
  ShowMessage("【ミノタウロス娘】")
  ShowMessage("うめー！　どれだけ食ってもうめー！")
  0()
 PAGE   2
  // condition: variable 1054 >= 7
  0()



EVENT   19
 PAGE   1
  ShowMessageFace("mino_fc1",0,0,2,1)
  ShowMessage("【ミノタウロス娘】")
  ShowMessage("このすきやきパーティの主催は、なんと……")
  ShowMessage("……なんだっけ？　すきやき王だったっけ？")
  0()
 PAGE   2
  // condition: variable 1054 >= 7
  0()



EVENT   20
 PAGE   1
  ShowMessageFace("mino_fc1",0,0,2,1)
  ShowMessage("【ミノタウロス娘】")
  ShowMessage("やめられねぇぜ！　止まられねぇぜ！")
  0()
 PAGE   2
  // condition: variable 1054 >= 7
  0()



EVENT   21
 PAGE   1
  ShowMessageFace("mino_fc1",0,0,2,1)
  ShowMessage("【ミノタウロス娘】")
  ShowMessage("すきやき天国だよな！")
  0()
 PAGE   2
  // condition: variable 1054 >= 7
  0()



EVENT   22
 PAGE   1
  ShowMessageFace("mino_fc1",0,0,2,1)
  ShowMessage("【ミノタウロス娘】")
  ShowMessage("肉！　食べ放題だぜ！")
  0()
 PAGE   2
  // condition: variable 1054 >= 7
  0()



EVENT   23
 PAGE   1
  ShowMessageFace("mino_fc1",0,0,2,1)
  ShowMessage("【ミノタウロス娘】")
  ShowMessage("どれだけ食ったか分からねぇぜ……おかわり！")
  0()
 PAGE   2
  // condition: variable 1054 >= 7
  0()



EVENT   24
 PAGE   1
  ShowMessageFace("mino_fc1",0,0,2,1)
  ShowMessage("【ミノタウロス娘】")
  ShowMessage("おお、シーザーじゃないか！")
  ShowMessage("お前も、すきやき食いに来たのか？")
  ShowMessageFace("kerberos_fc1",2,0,2,2)
  ShowMessage("【シーザー】")
  ShowMessage("お前を探しに来たんだよ！")
  If(2,"A",1)
   ChangeSelfSwitch("A",0)
   ShowMessageFace("kerberos_fc1",1,0,2,3)
   ShowMessage("【シーザー】")
   ShowMessage("……それはそれとして、すきやきは食うぞ。")
   ShowMessageFace("",0,0,2,4)
   ShowMessage("ルカ達は、すきやきを食べた……")
   250(bytes(0x04,0x08,0x6f,0x3a,0x0c,0x52,0x50,0x47,0x3a,0x3a,0x53,0x45,0x08,0x3a,0x0a,0x40,0x6e,0x61,0x6d,0x65,0x49,0x22,0x0a,0x48,0x65,0x61,0x6c,0x37,0x06,0x3a,0x06,0x45,0x54,0x3a,0x0b,0x40,0x70,0x69,0x74,0x63,0x68,0x69,0x69,0x3a,0x0c,0x40,0x76,0x6f,0x6c,0x75,0x6d,0x65,0x69,0x55))
   224(bytes(0x04,0x08,0x75,0x3a,0x0a,0x43,0x6f,0x6c,0x6f,0x72,0x25,0x00,0x00,0x00,0x00,0x00,0xe0,0x6f,0x40,0x00,0x00,0x00,0x00,0x00,0xe0,0x6f,0x40,0x00,0x00,0x00,0x00,0x00,0xe0,0x6f,0x40,0x00,0x00,0x00,0x00,0x00,0xe0,0x6f,0x40),30,true)
   314(0,0)
   ShowMessageFace("",0,0,2,5)
   ShowMessage("The party's HP and MP have been fully restored!")
   If(0,6,0)
    ShowMessageFace("sonia_fc2",2,0,2,6)
    ShowMessage("【ソニア】")
    ShowMessage("でも、これで事件解決とはいかないわよね。")
    ShowMessage("いったい何故、こんなところでパーティしてるんだろ……")
    0()
   Else()
    ShowMessageFace("ruka_fc1",0,0,2,7)
    ShowMessage("【ルカ】")
    ShowMessage("でも、これで事件解決とはいかないよね。")
    ShowMessage("いったい何故、こんなところでパーティを……")
    0()
   EndIf()
   If(0,4,0)
    ShowMessageFace("alice_fc5",0,0,2,8)
    ShowMessage("【アリス】")
    ShowMessage("遺跡の中を探索してみるとしよう。")
    ShowMessage("すきやきパーティの主催者が何を企んでいるのか、見極めねばな……")
    0()
   EndIf()
   If(0,5,0)
    ShowMessageFace("iriasu_fc4",7,0,2,9)
    ShowMessage("【イリアス】")
    ShowMessage("遺跡の中を調べてみましょう。")
    ShowMessage("すきやきパーティの主催者には、何か悪巧みがあるはずです。")
    0()
   EndIf()
   0()
  EndIf()
  0()
 PAGE   2
  // condition: variable 1054 >= 7
  0()



EVENT   25
 PAGE   1
  If(1,1054,0,5,0)
   ShowMessageFace("mino_fc1",2,0,2,1)
   ShowMessage("【ミノタウロス娘】")
   ShowMessage("あのサル、どれだけ食うんだよ……")
   If(0,6,0)
    ShowMessageFace("sonia_fc2",2,0,2,2)
    ShowMessage("【ソニア】")
    ShowMessage("サル？")
    0()
   Else()
    ShowMessageFace("ruka_fc1",0,0,2,3)
    ShowMessage("【ルカ】")
    ShowMessage("さる？")
    0()
   EndIf()
   ShowMessageFace("mino_fc1",2,0,2,4)
   ShowMessage("【ミノタウロス娘】")
   ShowMessage("さっきまで肉食いまくってた、変なサルの妖魔だよ。")
   ShowMessage("ちょっと前に、どっか行ったぜ。")
   EndEventProcessing()
   0()
  EndIf()
  If(1,1054,0,6,0)
   ShowMessageFace("mino_fc1",2,0,2,5)
   ShowMessage("【ミノタウロス娘】")
   ShowMessage("このサル、また戻ってきやがった！")
   ShowMessage("畜生、どれだけ食うんだよ！")
   EndEventProcessing()
   0()
  EndIf()
  0()
 PAGE   2
  // condition: variable 1054 >= 7
  0()



EVENT   26
 PAGE   1
  If(1,1054,0,5,0)
   ShowMessageFace("mino_fc1",2,0,2,1)
   ShowMessage("【ミノタウロス娘】")
   ShowMessage("この鍋、あの猿のせいで空っぽだぜ……")
   EndEventProcessing()
   0()
  EndIf()
  If(1,1054,0,6,0)
   ShowMessageFace("mino_fc1",2,0,2,2)
   ShowMessage("【ミノタウロス娘】")
   ShowMessage("やめろォ！")
   EndEventProcessing()
   0()
  EndIf()
  0()
 PAGE   2
  // condition: variable 1054 >= 7
  0()



EVENT   27
 PAGE   1
  ShowMessageFace("mino_fc1",0,0,2,1)
  ShowMessage("【ミノタウロス娘】")
  ShowMessage("おかわり！　限りなくおかわり！")
  0()
 PAGE   2
  // condition: variable 1054 >= 7
  0()



EVENT   28
 PAGE   1
  ShowMessageFace("mino_fc1",0,0,2,1)
  ShowMessage("【ミノタウロス娘】")
  ShowMessage("感謝するぜ、牛肉王！")
  ShowMessage("……あれ？　名前、違ったっけ？")
  0()
 PAGE   2
  // condition: variable 1054 >= 7
  0()



EVENT   29
 PAGE   1
  ShowMessageFace("mino_fc1",0,0,2,1)
  ShowMessage("【ミノタウロス娘】")
  ShowMessage("すきやき肉に埋もれて死にてぇ！")
  0()
 PAGE   2
  // condition: variable 1054 >= 7
  0()



EVENT   30
 PAGE   1
  ShowMessageFace("mino_fc1",0,0,2,1)
  ShowMessage("【ミノタウロス娘】")
  ShowMessage("最高のパーティーだな！")
  ShowMessage("すきやき食べ放題だぜ！")
  0()
 PAGE   2
  // condition: variable 1054 >= 7
  0()



EVENT   31
 PAGE   1
  ShowMessageFace("mino_fc1",0,0,2,1)
  ShowMessage("【ミノタウロス娘】")
  ShowMessage("これだけ御馳走になって、牛すき王には感謝だぜ！")
  0()
 PAGE   2
  // condition: variable 1054 >= 7
  0()



EVENT   32
 PAGE   1
  // condition: variable 1054 >= 6
  PictureDisplay(5,"80_seitentaisei_st01",0,0,0,0,100,100,255,0)
  ShowMessageFace("seitentaisei_fc1",0,0,2,1)
  ShowMessage("【孫悟空】")
  ShowMessage("すきやき、うめぇ！")
  ShowMessage("なんだよ、邪魔するなよ？")
  PictureClear(5)
  0()
 PAGE   2
  // condition: variable 1054 >= 7
  0()



EVENT   33
 PAGE   1
  ShowMessageFace("h_mino_fc1",0,0,2,1)
  ShowMessage("【ハイミノタウロス娘】")
  ShowMessage("すきやきパーティーへようこそ！")
  ShowMessage("思う存分、食べて下さいね！")
  355("actor_label_jump")
  EndEventProcessing()
  DefineLabel("62")
  ShowMessageFace("gob_fc1",0,0,2,2)
  ShowMessage("【ゴブ】")
  ShowMessage("おなかいっぱい食べるよ～！")
  If(0,6,0)
   ShowMessageFace("sonia_fc4",0,0,2,3)
   ShowMessage("【ソニア】")
   ShowMessage("趣旨を忘れちゃダメでしょ……")
   0()
  EndIf()
  EndEventProcessing()
  DefineLabel("68")
  ShowMessageFace("dragonp_fc1",0,0,2,4)
  ShowMessage("【パピ】")
  ShowMessage("よし！　いっぱい食べるのだ～！")
  If(0,6,0)
   ShowMessageFace("sonia_fc4",0,0,2,5)
   ShowMessage("【ソニア】")
   ShowMessage("趣旨を忘れちゃダメでしょ……")
   0()
  EndIf()
  EndEventProcessing()
  DefineLabel("141")
  ShowMessageFace("mino_fc1",0,0,2,6)
  ShowMessage("【ミナ】")
  ShowMessage("よっしゃ、頂くぜ！")
  If(0,6,0)
   ShowMessageFace("sonia_fc4",0,0,2,7)
   ShowMessage("【ソニア】")
   ShowMessage("趣旨を忘れちゃダメでしょ……")
   0()
  EndIf()
  EndEventProcessing()
  0()
 PAGE   2
  // condition: variable 1054 >= 7
  0()



EVENT   34
 PAGE   1
  ShowMessageFace("",0,0,2,1)
  ShowMessage("すきやきを食べると、もりもり力が湧いてくる……！")
  250(bytes(0x04,0x08,0x6f,0x3a,0x0c,0x52,0x50,0x47,0x3a,0x3a,0x53,0x45,0x08,0x3a,0x0a,0x40,0x6e,0x61,0x6d,0x65,0x49,0x22,0x0a,0x48,0x65,0x61,0x6c,0x37,0x06,0x3a,0x06,0x45,0x54,0x3a,0x0b,0x40,0x70,0x69,0x74,0x63,0x68,0x69,0x69,0x3a,0x0c,0x40,0x76,0x6f,0x6c,0x75,0x6d,0x65,0x69,0x55))
  224(bytes(0x04,0x08,0x75,0x3a,0x0a,0x43,0x6f,0x6c,0x6f,0x72,0x25,0x00,0x00,0x00,0x00,0x00,0xe0,0x6f,0x40,0x00,0x00,0x00,0x00,0x00,0xe0,0x6f,0x40,0x00,0x00,0x00,0x00,0x00,0xe0,0x6f,0x40,0x00,0x00,0x00,0x00,0x00,0xe0,0x6f,0x40),30,true)
  314(0,0)
  ShowMessageFace("",0,0,2,2)
  ShowMessage("The party's HP and MP have been fully restored!")
  0()
 PAGE   2
  // condition: variable 1054 >= 7
  0()



EVENT   35
 PAGE   1
  250(bytes(0x04,0x08,0x6f,0x3a,0x0c,0x52,0x50,0x47,0x3a,0x3a,0x53,0x45,0x08,0x3a,0x0a,0x40,0x6e,0x61,0x6d,0x65,0x49,0x22,0x0a,0x49,0x74,0x65,0x6d,0x31,0x06,0x3a,0x06,0x45,0x54,0x3a,0x0b,0x40,0x70,0x69,0x74,0x63,0x68,0x69,0x69,0x3a,0x0c,0x40,0x76,0x6f,0x6c,0x75,0x6d,0x65,0x69,0x55))
  ChangeSelfSwitch("A",0)
  ChangeInventory_Item(26,0,0,1)
  0()
 PAGE   2
  // condition: self-switch A is ON
  0()



EVENT   36
 PAGE   1
  250(bytes(0x04,0x08,0x6f,0x3a,0x0c,0x52,0x50,0x47,0x3a,0x3a,0x53,0x45,0x08,0x3a,0x0a,0x40,0x6e,0x61,0x6d,0x65,0x49,0x22,0x0a,0x49,0x74,0x65,0x6d,0x31,0x06,0x3a,0x06,0x45,0x54,0x3a,0x0b,0x40,0x70,0x69,0x74,0x63,0x68,0x69,0x69,0x3a,0x0c,0x40,0x76,0x6f,0x6c,0x75,0x6d,0x65,0x69,0x55))
  ChangeSelfSwitch("A",0)
  ChangeInventory_Item(431,0,0,1)
  0()
 PAGE   2
  // condition: self-switch A is ON
  0()



EVENT   37
 PAGE   1
  250(bytes(0x04,0x08,0x6f,0x3a,0x0c,0x52,0x50,0x47,0x3a,0x3a,0x53,0x45,0x08,0x3a,0x0a,0x40,0x6e,0x61,0x6d,0x65,0x49,0x22,0x0a,0x49,0x74,0x65,0x6d,0x31,0x06,0x3a,0x06,0x45,0x54,0x3a,0x0b,0x40,0x70,0x69,0x74,0x63,0x68,0x69,0x69,0x3a,0x0c,0x40,0x76,0x6f,0x6c,0x75,0x6d,0x65,0x69,0x55))
  ChangeSelfSwitch("A",0)
  ChangeInventory_Item(378,0,0,1)
  0()
 PAGE   2
  // condition: self-switch A is ON
  0()



EVENT   38
 PAGE   1
  250(bytes(0x04,0x08,0x6f,0x3a,0x0c,0x52,0x50,0x47,0x3a,0x3a,0x53,0x45,0x08,0x3a,0x0a,0x40,0x6e,0x61,0x6d,0x65,0x49,0x22,0x0a,0x49,0x74,0x65,0x6d,0x31,0x06,0x3a,0x06,0x45,0x54,0x3a,0x0b,0x40,0x70,0x69,0x74,0x63,0x68,0x69,0x69,0x3a,0x0c,0x40,0x76,0x6f,0x6c,0x75,0x6d,0x65,0x69,0x55))
  ChangeSelfSwitch("A",0)
  ChangeInventory_Item(378,0,0,1)
  0()
 PAGE   2
  // condition: self-switch A is ON
  0()
