﻿
DisplayName "グランドノア城 2F"



EVENT   1
 PAGE   1
  250(bytes(0x04,0x08,0x6f,0x3a,0x0c,0x52,0x50,0x47,0x3a,0x3a,0x53,0x45,0x08,0x3a,0x0a,0x40,0x6e,0x61,0x6d,0x65,0x49,0x22,0x09,0x4d,0x6f,0x76,0x65,0x06,0x3a,0x06,0x45,0x54,0x3a,0x0b,0x40,0x70,0x69,0x74,0x63,0x68,0x69,0x69,0x3a,0x0c,0x40,0x76,0x6f,0x6c,0x75,0x6d,0x65,0x69,0x55))
  TeleportPlayer(0,382,39,12,0,0)
  0()



EVENT   2
 PAGE   1
  250(bytes(0x04,0x08,0x6f,0x3a,0x0c,0x52,0x50,0x47,0x3a,0x3a,0x53,0x45,0x08,0x3a,0x0a,0x40,0x6e,0x61,0x6d,0x65,0x49,0x22,0x09,0x4d,0x6f,0x76,0x65,0x06,0x3a,0x06,0x45,0x54,0x3a,0x0b,0x40,0x70,0x69,0x74,0x63,0x68,0x69,0x69,0x3a,0x0c,0x40,0x76,0x6f,0x6c,0x75,0x6d,0x65,0x69,0x55))
  TeleportPlayer(0,382,39,12,0,0)
  0()



EVENT   3
 PAGE   1
  250(bytes(0x04,0x08,0x6f,0x3a,0x0c,0x52,0x50,0x47,0x3a,0x3a,0x53,0x45,0x08,0x3a,0x0a,0x40,0x6e,0x61,0x6d,0x65,0x49,0x22,0x09,0x4d,0x6f,0x76,0x65,0x06,0x3a,0x06,0x45,0x54,0x3a,0x0b,0x40,0x70,0x69,0x74,0x63,0x68,0x69,0x69,0x3a,0x0c,0x40,0x76,0x6f,0x6c,0x75,0x6d,0x65,0x69,0x55))
  TeleportPlayer(0,382,39,12,0,0)
  0()



EVENT   4
 PAGE   1
  If(1,1001,0,25,2)
   If(1,1052,0,1,0)
    ChangeVariable(1052,1052,0,0,2)
    217()
    PictureDisplay(5,"80_grandnoa_st01",0,0,0,0,100,100,0,0)
    PictureMove(5,null,0,0,0,0,100,100,255,0,30,true)
    ShowMessageFace("grandnoa_fc1",0,0,2,1)
    ShowMessage("【グランドノア女王】")
    ShowMessage("これは、サラ女王……ようこそ、我が城に。")
    ShowMessage("先の事件では、たいそう苦心されたようですね。")
    ShowMessageFace("sara_fc1",1,0,2,2)
    ShowMessage("【サラ】")
    ShowMessage("……お久しぶりです、グランドノア女王。")
    ShowMessage("全ては、この私の至らなさが招いた事です。")
    ShowMessageFace("grandnoa_fc1",0,0,2,3)
    ShowMessage("【グランドノア女王】")
    ShowMessage("いったん女王位を退いた後……")
    ShowMessage("議会の決定により、あらためて女王位に復帰されたとか。")
    ShowMessageFace("sara_fc1",1,0,2,4)
    ShowMessage("【サラ】")
    ShowMessage("ええ、サバサの民はまだ私を慕ってくれるようです。")
    ShowMessage("我が国は、議会と王制が両立する国家となりました。")
    ShowMessageFace("sara_fc1",1,0,2,5)
    ShowMessage("【サラ】")
    ShowMessage("それはさておき、エスタで起きた事件に関して……")
    ShowMessage("またタルタロスそのものに関連し、お話があります。")
    ShowMessageFace("grandnoa_fc1",0,0,2,6)
    ShowMessage("【グランドノア女王】")
    ShowMessage("それは興味深いですが……")
    ShowMessage("先に、彼らの紹介をお願いできますか？")
    ShowMessageFace("ruka_fc1",0,0,2,7)
    ShowMessage("【ルカ】")
    ShowMessage("えっと、僕は……")
    ShowMessageFace("sara_fc1",1,0,2,8)
    ShowMessage("【サラ】")
    ShowMessage("彼らは旅の勇者にして、タルタロスに関わる事件の専門家。")
    ShowMessage("その能力は、サバサとサン・イリアが保証致します。")
    ShowMessageFace("sara_fc1",1,0,2,9)
    ShowMessage("【サラ】")
    ShowMessage("どうか、彼らをエスタ住民消失事件の調査団にお加え下さい。")
    ShowMessage("間違いなく、貴国の利益ともなるはずです。")
    ShowMessageFace("grandnoa_fc1",0,0,2,10)
    ShowMessage("【グランドノア女王】")
    ShowMessage("……………………")
    PictureDisplay(5,"80_grandnoa_st02",0,0,0,0,100,100,255,0)
    ShowMessageFace("grandnoa_fc1",1,0,2,11)
    ShowMessage("【グランドノア女王】")
    ShowMessage("よろしいでしょう、さっそく――")
    241(bytes(0x04,0x08,0x6f,0x3a,0x0d,0x52,0x50,0x47,0x3a,0x3a,0x42,0x47,0x4d,0x08,0x3a,0x0a,0x40,0x6e,0x61,0x6d,0x65,0x49,0x22,0x0a,0x6b,0x69,0x6b,0x69,0x32,0x06,0x3a,0x06,0x45,0x54,0x3a,0x0c,0x40,0x76,0x6f,0x6c,0x75,0x6d,0x65,0x69,0x69,0x3a,0x0b,0x40,0x70,0x69,0x74,0x63,0x68,0x69,0x69))
    ShowMessageFace("",0,0,2,12)
    ShowMessage("【？？？】")
    ShowMessage("お待ち下さい、女王陛下。")
    PictureClear(5)
    Wait(60)
    250(bytes(0x04,0x08,0x6f,0x3a,0x0c,0x52,0x50,0x47,0x3a,0x3a,0x53,0x45,0x08,0x3a,0x0a,0x40,0x6e,0x61,0x6d,0x65,0x49,0x22,0x0d,0x6d,0x6f,0x6e,0x5f,0x77,0x61,0x72,0x70,0x06,0x3a,0x06,0x45,0x54,0x3a,0x0b,0x40,0x70,0x69,0x74,0x63,0x68,0x69,0x69,0x3a,0x0c,0x40,0x76,0x6f,0x6c,0x75,0x6d,0x65,0x69,0x55))
    ChangeSwitch(31,31,0)
    205(5,bytes(0x04,0x08,0x6f,0x3a,0x13,0x52,0x50,0x47,0x3a,0x3a,0x4d,0x6f,0x76,0x65,0x52,0x6f,0x75,0x74,0x65,0x09,0x3a,0x0c,0x40,0x72,0x65,0x70,0x65,0x61,0x74,0x46,0x3a,0x0f,0x40,0x73,0x6b,0x69,0x70,0x70,0x61,0x62,0x6c,0x65,0x46,0x3a,0x0a,0x40,0x77,0x61,0x69,0x74,0x54,0x3a,0x0a,0x40,0x6c,0x69,0x73,0x74,0x5b,0x07,0x6f,0x3a,0x15,0x52,0x50,0x47,0x3a,0x3a,0x4d,0x6f,0x76,0x65,0x43,0x6f,0x6d,0x6d,0x61,0x6e,0x64,0x07,0x3a,0x0a,0x40,0x63,0x6f,0x64,0x65,0x69,0x06,0x3a,0x10,0x40,0x70,0x61,0x72,0x61,0x6d,0x65,0x74,0x65,0x72,0x73,0x5b,0x00,0x6f,0x3b,0x0a,0x07,0x3b,0x0b,0x69,0x00,0x3b,0x0c,0x5b,0x00))
    ShowMessageFace("grandnoa_fc1",0,0,2,13)
    ShowMessage("【グランドノア女王】")
    ShowMessage("メフィスト、何か異論でも……？")
    PictureDisplay(5,"80_mefist_st01",0,0,0,0,100,100,0,0)
    PictureMove(5,null,0,0,0,0,100,100,255,0,30,true)
    ShowMessageFace("mefist_fc1",0,0,2,14)
    ShowMessage("【メフィスト】")
    ShowMessage("陛下に対して異論など、滅相もない……")
    ShowMessage("しかしまずは、勇者ルカ一行にご挨拶をさせて下さい。")
    ShowMessageFace("mefist_fc1",0,0,2,15)
    ShowMessage("【メフィスト】")
    ShowMessage("私はグランドノア魔導顧問メフィスト。")
    ShowMessage("魔術師の育成や、女王陛下の相談役を務めております。")
    ShowMessageFace("ruka_fc1",0,0,2,16)
    ShowMessage("【ルカ】")
    ShowMessage("僕は勇者ルカです、よろしく……")
    If(0,4,0)
     ShowMessageFace("alice_fc5",0,0,2,17)
     ShowMessage("【アリス】")
     ShowMessage("余は、仲間のアリスだ。")
     0()
    EndIf()
    If(0,5,0)
     ShowMessageFace("iriasu_fc4",0,0,2,18)
     ShowMessage("【イリアス】")
     ShowMessage("こんな姿ですが、私こそ創世の女神イリアスです。")
     0()
    EndIf()
    ShowMessageFace("mefist_fc1",0,0,2,19)
    ShowMessage("【メフィスト】")
    ShowMessage("よろしくお願いします、若き勇者達。")
    ShowMessage("さて、エスタの調査団に加わりたいという件でしたね……")
    ShowMessageFace("mefist_fc1",0,0,2,20)
    ShowMessage("【メフィスト】")
    ShowMessage("私が言うまでもなく、エスタの事件は我が国の最重要事案。")
    ShowMessage("グランゴルドの秘密作戦、という可能性も囁かれています。")
    ShowMessageFace("mefist_fc1",0,0,2,21)
    ShowMessage("【メフィスト】")
    ShowMessage("そのような事件の調査に、外部の者をいたずらに")
    ShowMessage("関わらせるのはいかがなものか……")
    PictureDisplay(6,"80_grandnoa_st01",0,0,-150,0,100,100,255,0)
    PictureDisplay(5,"80_mefist_st01",0,0,150,0,100,100,255,0)
    ShowMessageFace("grandnoa_fc1",0,0,2,22)
    ShowMessage("【グランドノア女王】")
    ShowMessage("つまり、彼らの調査団参加には反対だと……？")
    ShowMessageFace("mefist_fc1",0,0,2,23)
    ShowMessage("【メフィスト】")
    ShowMessage("いいえ、滅相もない。")
    ShowMessage("ただ、彼らには実力を示す必要があるのではないか……と。")
    ShowMessageFace("mefist_fc1",0,0,2,24)
    ShowMessage("【メフィスト】")
    ShowMessage("ちょうど三日後、コロシアムで女王杯が行われます。")
    ShowMessage("その大会に参加し、力を示してもらうのはいかがでしょう。")
    If(4,202,0)
     ShowMessageFace("bonny_fc1",0,0,2,25)
     ShowMessage("【ボニー】")
     ShowMessage("我々が、コロシアムに出場だと！？")
     0()
    EndIf()
    ShowMessageFace("mefist_fc1",0,0,2,26)
    ShowMessage("【メフィスト】")
    ShowMessage("なにせ、サバサやサン・イリアが保証したほどの者達。")
    ShowMessage("大会の優勝など、たやすき事……そうですね、サバサ女王？")
    ShowMessageFace("sara_fc1",3,0,2,27)
    ShowMessage("【サラ】")
    ShowMessage("ええ、それは……")
    ShowMessageFace("",0,0,2,28)
    ShowMessage("サラは、横目で僕の方を見た……")
    ShowChoices(strings("力強く頷く","黙って首を振る","文句を言う"),0)
    IfPlayerPicksChoice(0,null)
     ShowMessageFace("",0,0,2,29)
     ShowMessage("僕は力強く頷いた！")
     ShowMessageFace("sara_fc1",1,0,2,30)
     ShowMessage("【サラ】")
     ShowMessage("……いっさい異論はありません。")
     ShowMessage("大会で力を示せば、調査団への参加を認めてもらえるのですね。")
     ShowMessageFace("mefist_fc1",0,0,2,31)
     ShowMessage("【メフィスト】")
     ShowMessage("ええ……そうですね、女王陛下？")
     ShowMessageFace("grandnoa_fc1",0,0,2,32)
     ShowMessage("【グランドノア女王】")
     ShowMessage("メフィストの言う通り。")
     ShowMessage("女王杯で優勝を果たせば、調査団への参加を認めましょう。")
     0()
    IfPlayerPicksChoice(1,null)
     ShowMessageFace("",0,0,2,33)
     ShowMessage("僕は黙って首を振った……")
     ShowMessageFace("sara_fc1",2,0,2,34)
     ShowMessage("【サラ】")
     ShowMessage("……不服です。")
     ShowMessage("大会の優勝と調査隊への参加、交換条件には不適かと。")
     ShowMessageFace("mefist_fc1",0,0,2,35)
     ShowMessage("【メフィスト】")
     ShowMessage("おや、なんと頼りない……")
     ShowMessage("これでは、そちらの言う調査とやらも期待できませんね。")
     ShowMessageFace("mefist_fc1",0,0,2,36)
     ShowMessage("【メフィスト】")
     ShowMessage("それでは、調査団への参加はなかった事に……")
     If(0,4,0)
      ShowMessageFace("alice_fc5",2,0,2,37)
      ShowMessage("【アリス】")
      ShowMessage("待て！　大会に優勝すればいいのだろう？")
      ShowMessage("その話、余の一存で乗ってやろう。")
      0()
     EndIf()
     If(0,5,0)
      ShowMessageFace("iriasu_fc4",7,0,2,38)
      ShowMessage("【イリアス】")
      ShowMessage("待ちなさい、大会で優勝すればいいのでしょう？")
      ShowMessage("なら立ちはだかる出場者を倒し、次にあなたを倒すまで。")
      0()
     EndIf()
     ShowMessageFace("mefist_fc1",0,0,2,39)
     ShowMessage("【メフィスト】")
     ShowMessage("以上のような話となりましたが……")
     ShowMessage("よろしいですね、女王陛下？")
     ShowMessageFace("grandnoa_fc1",0,0,2,40)
     ShowMessage("【グランドノア女王】")
     ShowMessage("メフィストの言う通り。")
     ShowMessage("女王杯で優勝を果たせば、調査団への参加を認めましょう。")
     0()
    IfPlayerPicksChoice(2,null)
     ShowMessageFace("ruka_fc1",0,0,2,41)
     ShowMessage("【ルカ】")
     ShowMessage("大会で優勝する事と、調査に参加する事の何に関係が？")
     ShowMessage("調査隊参加の条件として、大会優勝はおかしいでしょう。")
     ShowMessageFace("mefist_fc1",0,0,2,42)
     ShowMessage("【メフィスト】")
     ShowMessage("おや、なんと頼りない物言い……")
     ShowMessage("これでは、そちらの言う調査とやらも期待できませんね。")
     ShowMessageFace("mefist_fc1",0,0,2,43)
     ShowMessage("【メフィスト】")
     ShowMessage("それでは、調査団への参加はなかった事に……")
     If(0,4,0)
      ShowMessageFace("alice_fc5",2,0,2,44)
      ShowMessage("【アリス】")
      ShowMessage("待て！　大会に優勝すればいいのだろう？")
      ShowMessage("その話、余の一存で乗ってやろう。")
      0()
     EndIf()
     If(0,5,0)
      ShowMessageFace("iriasu_fc4",7,0,2,45)
      ShowMessage("【イリアス】")
      ShowMessage("待ちなさい、大会で優勝すればいいのでしょう？")
      ShowMessage("なら立ちはだかる出場者を倒し、次にあなたを倒すまで。")
      0()
     EndIf()
     ShowMessageFace("mefist_fc1",0,0,2,46)
     ShowMessage("【メフィスト】")
     ShowMessage("以上のような話となりましたが……")
     ShowMessage("よろしいですね、女王陛下？")
     ShowMessageFace("grandnoa_fc1",0,0,2,47)
     ShowMessage("【グランドノア女王】")
     ShowMessage("メフィストの言う通り。")
     ShowMessage("女王杯で優勝を果たせば、調査団への参加を認めましょう。")
     0()
    404()
    ShowMessageFace("mefist_fc1",0,0,2,48)
    ShowMessage("【メフィスト】")
    ShowMessage("このように女王陛下は仰せです。")
    ShowMessage("それでは三日後、コロシアムでお会いしましょう……")
    PictureClear(5)
    PictureClear(6)
    Wait(60)
    250(bytes(0x04,0x08,0x6f,0x3a,0x0c,0x52,0x50,0x47,0x3a,0x3a,0x53,0x45,0x08,0x3a,0x0a,0x40,0x6e,0x61,0x6d,0x65,0x49,0x22,0x0d,0x6d,0x6f,0x6e,0x5f,0x77,0x61,0x72,0x70,0x06,0x3a,0x06,0x45,0x54,0x3a,0x0b,0x40,0x70,0x69,0x74,0x63,0x68,0x69,0x69,0x3a,0x0c,0x40,0x76,0x6f,0x6c,0x75,0x6d,0x65,0x69,0x55))
    ChangeSwitch(31,31,1)
    Wait(60)
    PictureDisplay(5,"80_grandnoa_st03",0,0,0,0,100,100,0,0)
    PictureMove(5,null,0,0,0,0,100,100,255,0,30,true)
    ShowMessageFace("grandnoa_fc1",2,0,2,49)
    ShowMessage("【グランドノア女王】")
    ShowMessage("……………………")
    241(bytes(0x04,0x08,0x6f,0x3a,0x0d,0x52,0x50,0x47,0x3a,0x3a,0x42,0x47,0x4d,0x08,0x3a,0x0a,0x40,0x6e,0x61,0x6d,0x65,0x49,0x22,0x0c,0x63,0x61,0x73,0x74,0x6c,0x65,0x33,0x06,0x3a,0x06,0x45,0x54,0x3a,0x0c,0x40,0x76,0x6f,0x6c,0x75,0x6d,0x65,0x69,0x69,0x3a,0x0b,0x40,0x70,0x69,0x74,0x63,0x68,0x69,0x69))
    PictureDisplay(5,"80_grandnoa_st01",0,0,0,0,100,100,255,0)
    ShowMessageFace("grandnoa_fc1",0,0,2,50)
    ShowMessage("【グランドノア女王】")
    ShowMessage("それでは、下がりなさい。")
    ShowMessage("必ずや、女王杯で優勝を果たして下さいね。")
    ShowMessageFace("sara_fc1",0,0,2,51)
    ShowMessage("【サラ】")
    ShowMessage("ええ、勝利をお約束致しましょう……")
    ShowMessage("それでは、失礼致します。")
    ShowMessageFace("ruka_fc1",0,0,2,52)
    ShowMessage("【ルカ】")
    ShowMessage("武道大会か……")
    If(4,79,0)
     ShowMessageFace("nuruko_fc1",2,0,2,53)
     ShowMessage("【ヌルコ】")
     ShowMessage("きゅきゅ……")
     0()
    EndIf()
    PictureClear(5)
    ShowMessageFace("",0,0,2,54)
    ShowMessage("こうして僕達は、魔導顧問メフィストの提案により――")
    ShowMessage("コロシアムで行われる女王杯に参加する事になったのだった。")
    ChangeSwitch(100,100,0)
    EndEventProcessing()
    0()
   EndIf()
   If(1,1052,0,2,0)
    PictureDisplay(5,"80_grandnoa_st01",0,0,0,0,100,100,0,0)
    PictureMove(5,null,0,0,0,0,100,100,255,0,30,true)
    ShowMessageFace("grandnoa_fc1",0,0,2,55)
    ShowMessage("【グランドノア女王】")
    ShowMessage("まずは、コロシアムの受付で大会出場の登録を。")
    ShowMessage("後は試合に勝ち抜くのみです。")
    ShowMessageFace("grandnoa_fc1",0,0,2,56)
    ShowMessage("【グランドノア女王】")
    ShowMessage("それでは、下がりなさい。")
    ShowMessage("必ずや、女王杯で優勝を果たして下さいね。")
    PictureClear(5)
    EndEventProcessing()
    0()
   EndIf()
   If(1,1052,0,6,0)
    PictureDisplay(5,"80_grandnoa_st01",0,0,0,0,100,100,0,0)
    PictureMove(5,null,0,0,0,0,100,100,255,0,30,true)
    ShowMessageFace("grandnoa_fc1",0,0,2,57)
    ShowMessage("【グランドノア女王】")
    ShowMessage("魔導学園の場所は、このグランドノア城の北。")
    ShowMessage("ただし、潜入にはくれぐれも気をつけて下さい。")
    ShowMessageFace("grandnoa_fc1",0,0,2,58)
    ShowMessage("【グランドノア女王】")
    ShowMessage("学園内には、メフィストの生徒達が大勢いるはずです。")
    ShowMessage("彼女達は、修行中とはいえ強力な魔導師ですから。")
    ShowMessageFace("grandnoa_fc1",0,0,2,59)
    ShowMessage("【グランドノア女王】")
    ShowMessage("それでは、任せましたよ……")
    ShowMessage("その間、あなた達を調査隊に加える手続きを進めておきます。")
    PictureClear(5)
    EndEventProcessing()
    0()
   EndIf()
   If(1,1052,0,7,0)
    PictureDisplay(5,"80_grandnoa_st01",0,0,0,0,100,100,0,0)
    PictureMove(5,null,0,0,0,0,100,100,255,0,30,true)
    ShowMessageFace("grandnoa_fc1",0,0,2,60)
    ShowMessage("【グランドノア女王】")
    ShowMessage("魔導学園の場所は、このグランドノア城の北。")
    ShowMessage("ただし、潜入にはくれぐれも気をつけて下さい。")
    ShowMessageFace("grandnoa_fc1",0,0,2,61)
    ShowMessage("【グランドノア女王】")
    ShowMessage("学園内には、メフィストの生徒達が大勢いるはずです。")
    ShowMessage("彼女達は、修行中とはいえ強力な魔導師ですから。")
    ShowMessageFace("grandnoa_fc1",0,0,2,62)
    ShowMessage("【グランドノア女王】")
    ShowMessage("それでは、任せましたよ……")
    ShowMessage("その間、あなた達を調査隊に加える手続きを進めておきます。")
    PictureClear(5)
    EndEventProcessing()
    0()
   EndIf()
   If(1,1052,0,8,0)
    If(1,1062,0,4,2)
     PictureDisplay(5,"80_grandnoa_st01",0,0,0,0,100,100,0,0)
     PictureMove(5,null,0,0,0,0,100,100,255,0,30,true)
     ShowMessageFace("grandnoa_fc1",0,0,2,63)
     ShowMessage("【グランドノア女王】")
     ShowMessage("さて、エスタへ調査に行ってもらえないでしょうか？")
     ShowMessage("以前の約束通り、調査団参加の手続きは済ませておきました。")
     ShowMessageFace("grandnoa_fc1",0,0,2,64)
     ShowMessage("【グランドノア女王】")
     ShowMessage("貴方達が帰還した頃には、こちらの軍議も済んでいるはず。")
     ShowMessage("戦略を大幅に練り直し、貴方達の手も借りる事になるでしょう。")
     ShowMessageFace("grandnoa_fc1",0,0,2,65)
     ShowMessage("【グランドノア女王】")
     ShowMessage("それでは、頼みましたよ……")
     ShowMessage("調査の件も、朗報を期待しています。")
     PictureClear(5)
     If(1,1054,0,6,2)
      ShowMessageFace("kerberos_fc1",0,0,2,66)
      ShowMessage("【シーザー】")
      ShowMessage("なあ、私からの依頼を忘れていないか？")
      ShowMessage("ミノタウロス失踪事件の解決も、手伝ってくれ。")
      0()
     EndIf()
     If(1,1055,0,3,2)
      ShowMessageFace("durahan_fc1",0,0,2,67)
      ShowMessage("【アーサー】")
      ShowMessage("もし、手が空いているのならば……")
      ShowMessage("ヤマタイの件も、手助けを願いたいのだが。")
      0()
     EndIf()
     PictureClear(5)
     EndEventProcessing()
     0()
    EndIf()
    If(1,1062,0,5,1)
     If(0,2156,1)
      ChangeSwitch(2156,2156,0)
      PictureDisplay(5,"80_grandnoa_st01",0,0,0,0,100,100,0,0)
      PictureMove(5,null,0,0,0,0,100,100,255,0,30,true)
      ShowMessageFace("grandnoa_fc1",0,0,2,68)
      ShowMessage("【グランドノア女王】")
      ShowMessage("よくぞ戻ってきました、勇者ルカ。")
      ShowMessage("エスタの調査で、分かった事はありますか……？")
      ShowMessageFace("ruka_fc1",0,0,2,69)
      ShowMessage("【ルカ】")
      ShowMessage("はい、実は――")
      ShowMessageFace("",0,0,2,70)
      ShowMessage("天使が絡んでいるらしい事を説明した……")
      ShowMessageFace("grandnoa_fc1",2,0,2,71)
      ShowMessage("【グランドノア女王】")
      ShowMessage("なんと、天使が糸を引いていたとは……")
      ShowMessageFace("grandnoa_fc1",2,0,2,72)
      ShowMessage("【グランドノア女王】")
      ShowMessage("……分かりました。")
      ShowMessage("貴重な報告に感謝します。")
      0()
     EndIf()
     If(1,1001,0,24,2)
      ShowMessageFace("grandnoa_fc1",0,0,2,73)
      ShowMessage("【グランドノア女王】")
      ShowMessage("さて、グランゴルドへの反攻作戦の話ですが……")
      ShowMessage("もう少しばかり、準備と調整に時間を要します。")
      If(0,4,0)
       ShowMessageFace("alice_fc5",0,0,2,74)
       ShowMessage("【アリス】")
       ShowMessage("ならばその間に、ウンディーネの泉に行くのはどうだ？")
       ShowMessage("四大精霊と契約を結ぶのも、目的の一つであったはず。")
       ShowMessageFace("alice_fc5",0,0,2,75)
       ShowMessage("【アリス】")
       ShowMessage("ウンディーネの泉は、エスタから北にあるぞ。")
       ShowMessage("湖をぐるりと迂回する必要があるがな……")
       0()
      EndIf()
      If(0,5,0)
       ShowMessageFace("iriasu_fc4",2,0,2,76)
       ShowMessage("【イリアス】")
       ShowMessage("ならば時間潰しに、ウンディーネの泉に行けばどうです？")
       ShowMessage("気は進みませんが、それも目的の一つなのでしょう？")
       ShowMessageFace("iriasu_fc4",2,0,2,77)
       ShowMessage("【イリアス】")
       ShowMessage("ウンディーネの泉は、エスタから北。")
       ShowMessage("湖をぐるりと迂回する必要がありますが……")
       0()
      EndIf()
      If(1,1054,0,6,2)
       ShowMessageFace("kerberos_fc1",0,0,2,78)
       ShowMessage("【シーザー】")
       ShowMessage("なあ、私からの依頼を忘れていないか？")
       ShowMessage("ミノタウロス失踪事件の解決も、手伝ってくれ。")
       0()
      EndIf()
      If(1,1055,0,3,2)
       ShowMessageFace("durahan_fc1",0,0,2,79)
       ShowMessage("【アーサー】")
       ShowMessage("もし、手が空いているのならば……")
       ShowMessage("ヤマタイの件も、手助けを願いたいのだが。")
       0()
      EndIf()
      PictureClear(5)
      EndEventProcessing()
      0()
     EndIf()
     If(1,1001,0,25,0)
      If(1,1022,0,5,2)
       ShowMessageFace("grandnoa_fc1",2,0,2,80)
       ShowMessage("【グランドノア女王】")
       ShowMessage("さて、グランゴルドへの反攻作戦ですが……")
       ShowMessage("同盟軍の一員であるサン・イリアの準備が整わないようですね。")
       ShowMessageFace("grandnoa_fc1",2,0,2,81)
       ShowMessage("【グランドノア女王】")
       ShowMessage("向こうも、なにやら事情があるようです。")
       ShowMessage("よろしければ、あなた方に手助けをお願いできないでしょうか？")
       If(0,4,0)
        ShowMessageFace("alice_fc5",0,0,2,82)
        ShowMessage("【アリス】")
        ShowMessage("仕方ない、サン・イリアに行ってみるか……")
        0()
       EndIf()
       If(0,5,0)
        ShowMessageFace("iriasu_fc4",2,0,2,83)
        ShowMessage("【イリアス】")
        ShowMessage("仕方ありません、サン・イリアに行きましょうか……")
        0()
       EndIf()
       PictureClear(5)
       EndEventProcessing()
       0()
      EndIf()
      ChangeVariable(1052,1052,0,0,9)
      ChangeVariable(1063,1063,0,0,1)
      ShowMessageFace("grandnoa_fc1",0,0,2,84)
      ShowMessage("【グランドノア女王】")
      ShowMessage("さて、グランゴルドへの反攻作戦の準備も整いました。")
      ShowMessage("以前に言った通り、あなた達にも手助けしてもらいます。")
      ShowMessageFace("grandnoa_fc1",0,0,2,85)
      ShowMessage("【グランドノア女王】")
      ShowMessage("その作戦内容ですが――")
      PictureDisplay(6,"80_grandnoa_st01",0,0,-150,0,100,100,255,0)
      PictureDisplay(5,"80_mefist_st01",0,0,150,0,100,100,255,0)
      ShowMessageFace("mefist_fc1",0,0,2,86)
      ShowMessage("【メフィスト】")
      ShowMessage("作戦の詳細に関しては、私が説明致しましょう。")
      ShowMessage("少し長くなりますので、部屋を移します。")
      If(0,6,0)
       ShowMessageFace("sonia_fc4",0,0,2,87)
       ShowMessage("【ソニア】")
       ShowMessage("無礼なのは、相変わらずね……")
       0()
      Else()
       ShowMessageFace("ruka_fc1",0,0,2,88)
       ShowMessage("【ルカ】")
       ShowMessage("……………………")
       0()
      EndIf()
      221()
      PictureClear(5)
      PictureClear(6)
      ChangeSwitch(31,31,0)
      TeleportPlayer(0,383,16,22,4,0)
      241(bytes(0x04,0x08,0x6f,0x3a,0x0d,0x52,0x50,0x47,0x3a,0x3a,0x42,0x47,0x4d,0x08,0x3a,0x0a,0x40,0x6e,0x61,0x6d,0x65,0x49,0x22,0x16,0x64,0x75,0x6e,0x67,0x65,0x6f,0x6e,0x5f,0x63,0x6f,0x6c,0x6f,0x73,0x73,0x65,0x75,0x6d,0x06,0x3a,0x06,0x45,0x54,0x3a,0x0c,0x40,0x76,0x6f,0x6c,0x75,0x6d,0x65,0x69,0x69,0x3a,0x0b,0x40,0x70,0x69,0x74,0x63,0x68,0x69,0x69))
      222()
      PictureDisplay(6,"80_grandnoa_st01",0,0,-150,0,100,100,0,0)
      PictureDisplay(5,"80_mefist_st01",0,0,150,0,100,100,0,0)
      PictureMove(6,null,0,0,-150,0,100,100,255,0,30,false)
      PictureMove(5,null,0,0,150,0,100,100,255,0,30,true)
      ShowMessageFace("mefist_fc1",0,0,2,89)
      ShowMessage("【メフィスト】")
      ShowMessage("この作戦は、大戦に終止符を打つ壮大なもの……")
      ShowMessage("三大国同盟軍はもちろん、あらゆる勢力を総動員します。")
      If(0,4,0)
       ShowMessageFace("alice_fc5",0,0,2,90)
       ShowMessage("【アリス】")
       ShowMessage("その「あらゆる勢力」とやらに、我々も含まれるわけだな。")
       0()
      EndIf()
      If(0,5,0)
       ShowMessageFace("iriasu_fc4",2,0,2,91)
       ShowMessage("【イリアス】")
       ShowMessage("その「あらゆる勢力」に、我々も含まれるわけですね。")
       0()
      EndIf()
      ShowMessageFace("mefist_fc1",0,0,2,92)
      ShowMessage("【メフィスト】")
      ShowMessage("ええ……そして、あなた達こそが作戦の主軸となるのです。")
      ShowMessage("ゆえに、心して聞いて下さいね。")
      ShowMessageFace("ruka_fc1",0,0,2,93)
      ShowMessage("【ルカ】")
      ShowMessage("僕達が、主軸……！？")
      ShowMessageFace("mefist_fc1",0,0,2,94)
      ShowMessage("【メフィスト】")
      ShowMessage("まずは、我が国、サン・イリア、サバサの三国同盟軍が動きます。")
      ShowMessage("大規模な決戦意図は、当然ながら敵にも伝わるでしょう。")
      ShowMessageFace("mefist_fc1",0,0,2,95)
      ShowMessage("【メフィスト】")
      ShowMessage("前線のゴルド砦から、敵の主力軍が迎撃に現れる――")
      ShowMessage("いえ、釣り出されてしまうというべきですね。")
      If(0,4,0)
       ShowMessageFace("alice_fc5",0,0,2,96)
       ShowMessage("【アリス】")
       ShowMessage("つまり、三国同盟軍は陽動か……")
       ShowMessage("オトリにしては、大盤振る舞いだな。")
       0()
      EndIf()
      If(0,5,0)
       ShowMessageFace("iriasu_fc4",2,0,2,97)
       ShowMessage("【イリアス】")
       ShowMessage("三国同盟軍を、丸ごと陽動に費やすとは……")
       ShowMessage("ずいぶん、大胆な作戦ですね。")
       0()
      EndIf()
      ShowMessageFace("mefist_fc1",0,0,2,98)
      ShowMessage("【メフィスト】")
      ShowMessage("ええ、敵の目は前線に注がれるでしょう。")
      ShowMessage("どう見ても、全戦力を動員し決戦を挑んできたのですから……")
      ShowMessageFace("mefist_fc1",0,0,2,99)
      ShowMessage("【メフィスト】")
      ShowMessage("その隙を突き、あなた方はゴルド砦に潜入。")
      ShowMessage("砦を抜けて、敵の領地へと入り込むのです。")
      If(0,6,0)
       ShowMessageFace("sonia_fc3",2,0,2,100)
       ShowMessage("【ソニア】")
       ShowMessage("私達が、単独で敵地に潜入！？")
       ShowMessage("それ、無茶なんじゃない！？")
       0()
      Else()
       ShowMessageFace("ruka_fc1",0,0,2,101)
       ShowMessage("【ルカ】")
       ShowMessage("僕達が、単独で敵地に潜入だって！？")
       0()
      EndIf()
      ShowMessageFace("grandnoa_fc1",2,0,2,102)
      ShowMessage("【グランドノア女王】")
      ShowMessage("当然ながら、こちらも全力で支援を行います。")
      ShowMessage("敵地にも、我が方の工作員が潜り込んでいますので。")
      ShowMessageFace("mefist_fc1",0,0,2,103)
      ShowMessage("【メフィスト】")
      ShowMessage("ええ、女王陛下のおっしゃる通り……")
      ShowMessage("あなた達を捨て石にするつもりなど、全くありませんよ。")
      ShowMessageFace("mefist_fc1",0,0,2,104)
      ShowMessage("【メフィスト】")
      ShowMessage("あなた達が、ゴルド砦を抜けた後は……")
      ShowMessage("そのまま、首都であるグランゴルドに向かってもらいます。")
      ShowMessageFace("mefist_fc1",0,0,2,105)
      ShowMessage("【メフィスト】")
      ShowMessage("そこまでの道のりも、なかなかに険しいのですが……")
      ShowMessage("まずはゴルド砦を抜けてすぐ近くにある町、ゴッダールへ。")
      ShowMessageFace("mefist_fc1",0,0,2,106)
      ShowMessage("【メフィスト】")
      ShowMessage("しかる後、ゴッダールに潜む我が方の工作員に接触して下さい。")
      ShowMessage("その人物は酒場にいますが、店主に特別な合図を送る事で――")
      ShowMessageFace("ruka_fc1",0,0,2,107)
      ShowMessage("【ルカ】")
      ShowMessage("ちょ、ちょっと待って……")
      ShowMessage("メモっていい？")
      If(0,4,0)
       ShowMessageFace("alice_fc5",2,0,2,108)
       ShowMessage("【アリス】")
       ShowMessage("極秘潜入任務で、メモを取るバカがいるか。")
       ShowMessage("細かい流れは、余がしっかり聞いておいてやる。")
       0()
      EndIf()
      If(0,5,0)
       ShowMessageFace("iriasu_fc4",2,0,2,109)
       ShowMessage("【イリアス】")
       ShowMessage("極秘潜入任務でメモなど、アホですか……")
       ShowMessage("細かい流れは、私が把握しておきますので心配なく。")
       0()
      EndIf()
      ShowMessageFace("",0,0,2,110)
      ShowMessage("メフィストは、作戦の細かな流れを説明した――")
      ShowMessage("工作員と接触しつつ、首都グランゴルドをめざすようだ。")
      If(0,4,0)
       ShowMessageFace("alice_fc5",0,0,2,111)
       ShowMessage("【アリス】")
       ShowMessage("そして、グランゴルドに着いた後だが……")
       ShowMessage("我々は、どうすればいいのだ？")
       0()
      EndIf()
      If(0,5,0)
       ShowMessageFace("iriasu_fc4",2,0,2,112)
       ShowMessage("【イリアス】")
       ShowMessage("そして、グランゴルドに着いた後はどうするのです？")
       ShowMessage("我々だけで、グランゴルド城に攻め込めとでも？")
       0()
      EndIf()
      ShowMessageFace("mefist_fc1",0,0,2,113)
      ShowMessage("【メフィスト】")
      ShowMessage("おそらく、グランゴルド王を惑わしていると思われる……")
      ShowMessage("クィーンアントを討って下さい。")
      ShowMessageFace("grandnoa_fc1",0,0,2,114)
      ShowMessage("【グランドノア女王】")
      ShowMessage("あなた達の任務は、暗殺に非常に近いものです。")
      ShowMessage("普通の戦争ならば、こんな手は使うべきではないでしょう……")
      If(0,4,0)
       ShowMessageFace("alice_fc5",0,0,2,115)
       ShowMessage("【アリス】")
       ShowMessage("当然だな……近代戦において、要人暗殺など下策の下策。")
       ShowMessage("敵の戦意は高まり、戦争が泥沼化するだけだ。")
       0()
      EndIf()
      If(0,5,0)
       ShowMessageFace("iriasu_fc4",2,0,2,116)
       ShowMessage("【イリアス】")
       ShowMessage("当然の話ですね……近代戦において、要人暗殺など悪手の極み。")
       ShowMessage("敵の戦意は高まり、戦争の泥沼化を招きます。")
       0()
      EndIf()
      ShowMessageFace("grandnoa_fc1",0,0,2,117)
      ShowMessage("【グランドノア女王】")
      ShowMessage("しかし今回の大戦は、普通の戦争とは異なります……")
      ShowMessage("魔王が裏で糸を引いているという、特有の事情があるのです。")
      ShowMessageFace("grandnoa_fc1",0,0,2,118)
      ShowMessage("【グランドノア女王】")
      ShowMessage("その糸を断つというのが、この作戦の目的。")
      ShowMessage("作戦の成否は、あなた達の腕にかかっているのですよ。")
      If(0,6,0)
       ShowMessageFace("sonia_fc4",0,0,2,119)
       ShowMessage("【ソニア】")
       ShowMessage("うわぁ、すごいプレッシャー……")
       ShowMessage("私達が失敗したら、グランドノアも大ピンチなのよね……")
       0()
      Else()
       ShowMessageFace("ruka_fc1",0,0,2,120)
       ShowMessage("【ルカ】")
       ShowMessage("それは、すごいプレッシャーだね……")
       0()
      EndIf()
      ShowMessageFace("mefist_fc1",0,0,2,121)
      ShowMessage("【メフィスト】")
      ShowMessage("作戦が失敗した場合、あなた達は我が国に関係ないと突っぱねます。")
      ShowMessage("ただの旅人が勝手にやったテロとなりますので、ご心配なく。")
      If(0,6,0)
       ShowMessageFace("sonia_fc3",2,0,2,122)
       ShowMessage("【ソニア】")
       ShowMessage("えっ！？")
       0()
      Else()
       ShowMessageFace("ruka_fc1",0,0,2,123)
       ShowMessage("【ルカ】")
       ShowMessage("えっ！？")
       0()
      EndIf()
      ShowMessageFace("grandnoa_fc1",0,0,2,124)
      ShowMessage("【グランドノア女王】")
      ShowMessage("しかし、そうなれば……")
      ShowMessage("囮であった三国同盟軍が、力押しの決戦を挑むしかなくなります。")
      ShowMessageFace("grandnoa_fc1",0,0,2,125)
      ShowMessage("【グランドノア女王】")
      ShowMessage("大戦が終わるまで、どれだけの命が失われるか……")
      ShowMessage("もはや、見当もつきません。")
      If(0,4,0)
       ShowMessageFace("alice_fc5",0,0,2,126)
       ShowMessage("【アリス】")
       ShowMessage("我々の存在は奇貨であり、失敗すれば普通に決戦……か。")
       ShowMessage("余も為政者、そのくらいの政治判断は理解している。")
       ShowMessageFace("alice_fc5",2,0,2,127)
       ShowMessage("【アリス】")
       ShowMessage("だが、敵地での支援はしっかり行ってもらう。")
       ShowMessage("早い段階で切り捨てるようなら、我々も命は張れんぞ。")
       0()
      EndIf()
      If(0,5,0)
       ShowMessageFace("iriasu_fc4",2,0,2,128)
       ShowMessage("【イリアス】")
       ShowMessage("我々が失敗すれば、普通に戦争を続ける……という事ですか。")
       ShowMessage("まあ、それくらいの政治判断は織り込み済みでしょうね。")
       ShowMessageFace("iriasu_fc4",7,0,2,129)
       ShowMessage("【イリアス】")
       ShowMessage("ですが、敵地での支援はしっかりやってもらいますよ。")
       ShowMessage("適当なところで切り捨てようなど、断じて許しません。")
       0()
      EndIf()
      ShowMessageFace("mefist_fc1",0,0,2,130)
      ShowMessage("【メフィスト】")
      ShowMessage("ええ、それは必ず……")
      ShowMessage("人員や物資の補給も、作戦の各段階で行う事を約束します。")
      ShowMessageFace("mefist_fc1",0,0,2,131)
      ShowMessage("【メフィスト】")
      ShowMessage("それではまず、ゴルド砦への侵入ですね。")
      ShowMessage("作戦の第一段階にあたり、助っ人を用意しました。")
      ShowMessageFace("mefist_fc1",0,0,2,132)
      ShowMessage("【メフィスト】")
      ShowMessage("リマ村の廃墟にて、その助っ人と合流して下さい。")
      ShowMessage("エスタから道に沿って北西に進めば、リマ村に着くはずです。")
      If(0,6,0)
       ShowMessageFace("sonia_fc2",2,0,2,133)
       ShowMessage("【ソニア】")
       ShowMessage("リマ村って……数年前、ゴルド軍に滅ぼされた村よね。")
       ShowMessage("村人の多くが虐殺されたって話だけど……")
       0()
      Else()
       ShowMessageFace("ruka_fc1",0,0,2,134)
       ShowMessage("【ルカ】")
       ShowMessage("リマ村って……数年前、ゴルド軍に滅ぼされた村だよね。")
       ShowMessage("村人の多くが虐殺されたって話だけど……")
       0()
      EndIf()
      ShowMessageFace("grandnoa_fc1",2,0,2,135)
      ShowMessage("【グランドノア女王】")
      ShowMessage("ええ……その村の光景、目に焼き付けておいて下さい。")
      ShowMessage("魔王に操られたゴルド軍は、あそこまでの蛮行を為すのです。")
      ShowMessageFace("grandnoa_fc1",2,0,2,136)
      ShowMessage("【グランドノア女王】")
      ShowMessage("あの悲劇が繰り返される前に、")
      ShowMessage("グランゴルドを止めねばなりません。")
      ShowMessageFace("grandnoa_fc1",2,0,2,137)
      ShowMessage("【グランドノア女王】")
      ShowMessage("全ては、あなた達の働きにかかっているのです……")
      ShowMessage("それをお忘れなきよう。")
      ShowMessageFace("ruka_fc1",0,0,2,138)
      ShowMessage("【ルカ】")
      ShowMessage("分かりました、お任せを！")
      ShowMessageFace("",0,0,2,139)
      ShowMessage("こうして、作戦の説明は終わった。")
      ShowMessage("まずは、エスタ北西のリマ村で助っ人と合流だ――")
      If(0,4,0)
       ShowMessageFace("alice_fc5",0,0,2,140)
       ShowMessage("【アリス】")
       ShowMessage("ところで、その助っ人とは何者なのだ？")
       ShowMessage("足を引っ張るような程度の者ならば困るぞ……")
       0()
      EndIf()
      If(0,5,0)
       ShowMessageFace("iriasu_fc4",2,0,2,141)
       ShowMessage("【イリアス】")
       ShowMessage("ところで、その助っ人とは何者なのです？")
       ShowMessage("足を引っ張られては困るのですが……")
       0()
      EndIf()
      ShowMessageFace("mefist_fc1",0,0,2,142)
      ShowMessage("【メフィスト】")
      ShowMessage("心配はありません、文句のない猛者ですよ。")
      ShowMessage("それは会ってみれば分かる事です……")
      If(0,6,0)
       ShowMessageFace("sonia_fc2",2,0,2,143)
       ShowMessage("【ソニア】")
       ShowMessage("その言い方……ひょっとして、私達の知ってる人？")
       0()
      EndIf()
      ShowMessageFace("mefist_fc1",0,0,2,144)
      ShowMessage("【メフィスト】")
      ShowMessage("ふふっ……そのはずです。")
      ShowMessageFace("ruka_fc1",0,0,2,145)
      ShowMessage("【ルカ】")
      ShowMessage("分かりました……")
      ShowMessage("それじゃあ、行こう！")
      PictureClear(5)
      PictureClear(6)
      ShowMessageFace("",0,0,2,146)
      ShowMessage("まずはエスタ北西のリマ村に行き、助っ人に会う事。")
      ShowMessage("それが、グランゴルドに対する反攻作戦の狼煙となる。")
      ShowMessageFace("",0,0,2,147)
      ShowMessage("入念に準備し、作戦に赴こう。")
      ShowMessage("僕達の肩には、世界の平和がかかっているのだ――")
      221()
      ChangeSwitch(31,31,1)
      TeleportPlayer(0,382,39,12,2,0)
      222()
      EndEventProcessing()
      0()
     EndIf()
     0()
    EndIf()
    0()
   EndIf()
   If(1,1052,0,9,1)
    If(1,1063,0,1,0)
     PictureDisplay(5,"80_grandnoa_st01",0,0,0,0,100,100,0,0)
     PictureMove(5,null,0,0,0,0,100,100,255,0,30,true)
     ShowMessageFace("grandnoa_fc1",0,0,2,148)
     ShowMessage("【グランドノア女王】")
     ShowMessage("すでに同盟軍は出陣の準備を始めています。")
     ShowMessage("あなた達が協力者に接触する事が、進軍開始の合図。")
     ShowMessageFace("grandnoa_fc1",0,0,2,149)
     ShowMessage("【グランドノア女王】")
     ShowMessage("この作戦、あなた達の働きにかかっています。")
     ShowMessage("必ずや、グランゴルドを操る魔王の企てを破るのです。")
     PictureClear(5)
     EndEventProcessing()
     0()
    EndIf()
    If(1,1063,0,2,1)
     PictureDisplay(5,"80_grandnoa_st01",0,0,0,0,100,100,0,0)
     PictureMove(5,null,0,0,0,0,100,100,255,0,30,true)
     ShowMessageFace("grandnoa_fc1",0,0,2,150)
     ShowMessage("【グランドノア女王】")
     ShowMessage("おや、どうしました？")
     ShowMessage("何か計画に不備でもあったのですか……？")
     ShowMessageFace("grandnoa_fc1",0,0,2,151)
     ShowMessage("【グランドノア女王】")
     ShowMessage("この作戦、あなた達の働きにかかっています。")
     ShowMessage("必ずや、グランゴルドを操る魔王の企てを破るのです。")
     PictureClear(5)
     EndEventProcessing()
     0()
    EndIf()
    0()
   EndIf()
   0()
  EndIf()
  If(1,1001,0,26,0)
   PictureDisplay(5,"80_grandnoa_st01",0,0,0,0,100,100,0,0)
   PictureMove(5,null,0,0,0,0,100,100,255,0,30,true)
   ShowMessageFace("grandnoa_fc1",2,0,2,152)
   ShowMessage("【グランドノア女王】")
   ShowMessage("グランゴルド王はあなた達に依頼したい事があるとか。")
   ShowMessage("なにやら、領内に妖魔の不審な動きがあるそうです。")
   ShowMessageFace("grandnoa_fc1",0,0,2,153)
   ShowMessage("【グランドノア女王】")
   ShowMessage("こちらで何かあれば、メフィストを通じて連絡します。")
   ShowMessage("どうか、世界のため力を尽くして下さいね。")
   PictureClear(5)
   EndEventProcessing()
   0()
  EndIf()
  If(1,1001,0,27,1)
   If(1,1001,0,28,2)
    PictureDisplay(5,"80_grandnoa_st01",0,0,0,0,100,100,0,0)
    PictureMove(5,null,0,0,0,0,100,100,255,0,30,true)
    ShowMessageFace("grandnoa_fc1",2,0,2,154)
    ShowMessage("【グランドノア女王】")
    ShowMessage("魔王の宣戦布告以来、特に大きな動きはありません。")
    ShowMessage("しかし、いつまでも平穏が続くとも思えませんね……")
    ShowMessageFace("grandnoa_fc1",0,0,2,155)
    ShowMessage("【グランドノア女王】")
    ShowMessage("こちらで何かあれば、メフィストを通じて連絡します。")
    ShowMessage("どうか、世界のため力を尽くして下さいね。")
    PictureClear(5)
    EndEventProcessing()
    0()
   EndIf()
   0()
  EndIf()
  If(1,1001,0,29,0)
   PictureDisplay(5,"80_grandnoa_st01",0,0,0,0,100,100,0,0)
   PictureMove(5,null,0,0,0,0,100,100,255,0,30,true)
   ShowMessageFace("grandnoa_fc1",0,0,2,156)
   ShowMessage("【グランドノア女王】")
   ShowMessage("今も、各国の首都が危機に晒されています。")
   ShowMessage("勇者ルカ……救援をお願いしますね。")
   PictureClear(5)
   EndEventProcessing()
   0()
  EndIf()
  If(1,1001,0,30,0)
   If(1,1070,0,1,0)
    PictureDisplay(5,"80_grandnoa_st01",0,0,0,0,100,100,0,0)
    PictureMove(5,null,0,0,0,0,100,100,255,0,30,true)
    ShowMessageFace("grandnoa_fc1",2,0,2,157)
    ShowMessage("【グランドノア女王】")
    ShowMessage("我が国は、エルフと要請の混成軍に攻撃を受けています。")
    ShowMessage("彼女たちの本拠地は、サバサのはるか南西にある妖精の島……")
    ShowMessageFace("grandnoa_fc1",2,0,2,158)
    ShowMessage("【グランドノア女王】")
    ShowMessage("クィーンエルフを討伐すれば、攻撃も止むはず。")
    ShowMessage("勇者ルカ、あなたの働きに期待していますよ。")
    PictureClear(5)
    EndEventProcessing()
    0()
   EndIf()
   If(1,1070,0,2,0)
    ChangeVariable(1070,1070,0,0,3)
    ShowMessageFace("",0,0,2,159)
    ShowMessage("ルカ達は、クィーンエルフとのやり取りを女王に報告した……")
    PictureDisplay(5,"80_grandnoa_st01",0,0,0,0,100,100,0,0)
    PictureMove(5,null,0,0,0,0,100,100,255,0,30,true)
    ShowMessageFace("grandnoa_fc1",2,0,2,160)
    ShowMessage("【グランドノア女王】")
    ShowMessage("そうですか……彼女達は、人間に怒りを抱いていたのですね。")
    ShowMessage("思えば我々は、追われる者に対して無自覚過ぎたのかもしれません。")
    ShowMessageFace("grandnoa_fc1",2,0,2,161)
    ShowMessage("【グランドノア女王】")
    ShowMessage("ともあれ、ここから先は政治で解決すべき問題ですね。")
    ShowMessage("この一件、今後はエルフ達と語り合い解決を図る事とします。")
    ShowMessageFace("grandnoa_fc1",0,0,2,162)
    ShowMessage("【グランドノア女王】")
    ShowMessage("それにしても、素晴らしい活躍でしたね……")
    ShowMessage("勇者ルカ、我が国を救ってくれたお礼としてこれを授けましょう。")
    250(bytes(0x04,0x08,0x6f,0x3a,0x0c,0x52,0x50,0x47,0x3a,0x3a,0x53,0x45,0x08,0x3a,0x0a,0x40,0x6e,0x61,0x6d,0x65,0x49,0x22,0x0a,0x49,0x74,0x65,0x6d,0x31,0x06,0x3a,0x06,0x45,0x54,0x3a,0x0b,0x40,0x70,0x69,0x74,0x63,0x68,0x69,0x69,0x3a,0x0c,0x40,0x76,0x6f,0x6c,0x75,0x6d,0x65,0x69,0x55))
    ChangeInventory_Item(637,0,0,1)
    ChangeSwitch(2311,2311,0)
    If(0,4,0)
     ShowMessageFace("alice_fc5",1,0,2,163)
     ShowMessage("【アリス】")
     ShowMessage("これは、王家に伝わる最上級職への転職アイテムのひとつ……")
     ShowMessage("これで料理人やメイドなど、様々な専門職の最上級職に就けるな。")
     0()
    EndIf()
    If(0,5,0)
     ShowMessageFace("iriasu_fc4",1,0,2,164)
     ShowMessage("【イリアス】")
     ShowMessage("これは、王家に伝わる最上級職への転職アイテムのひとつ……")
     ShowMessage("これで料理人やメイドなど、様々な専門職の最上級職に就けますね。")
     0()
    EndIf()
    ChangeVariable(1079,1079,0,0,1)
    RunCommonEvent(329)
    If(0,2274,0)
     EndEventProcessing()
     0()
    EndIf()
    ShowMessageFace("grandnoa_fc1",0,0,2,165)
    ShowMessage("【グランドノア女王】")
    ShowMessage("他国を脅かす女王も、討伐をお願いします。")
    ShowMessage("魔王軍の力を削がねば、我らに勝機はありません……")
    PictureClear(5)
    EndEventProcessing()
    0()
   EndIf()
   If(1,1070,0,3,1)
    PictureDisplay(5,"80_grandnoa_st01",0,0,0,0,100,100,0,0)
    PictureMove(5,null,0,0,0,0,100,100,255,0,30,true)
    ShowMessageFace("grandnoa_fc1",0,0,2,166)
    ShowMessage("【グランドノア女王】")
    ShowMessage("他国を脅かす女王も、討伐をお願いします。")
    ShowMessage("魔王軍の力を削がねば、我らに勝機はありません……")
    PictureClear(5)
    EndEventProcessing()
    0()
   EndIf()
   0()
  EndIf()
  If(1,1001,0,31,1)
   PictureDisplay(5,"80_grandnoa_st01",0,0,0,0,100,100,0,0)
   PictureMove(5,null,0,0,0,0,100,100,255,0,30,true)
   ShowMessageFace("grandnoa_fc1",1,0,2,167)
   ShowMessage("【グランドノア女王】")
   ShowMessage("魔王の討伐、どうかお願いいたします。")
   ShowMessage("魔王軍の侵攻は、グランドノア全軍をもって対処しますので……")
   PictureClear(5)
   EndEventProcessing()
   0()
  EndIf()
  0()



EVENT   5
 PAGE   1
  // condition: switch 31 is ON
  0()
 PAGE   2
  // condition: variable 1052 >= 8
  If(1,1063,0,0,0)
   If(1,1061,0,0,0)
    PictureDisplay(5,"80_mefist_st01",0,0,0,0,100,100,0,0)
    PictureMove(5,null,0,0,0,0,100,100,255,0,30,true)
    ShowMessageFace("mefist_fc1",0,0,2,1)
    ShowMessage("【メフィスト】")
    ShowMessage("ここから西の森……")
    ShowMessage("その中に、プランセクト村という魔物の集落があります。")
    ShowMessageFace("mefist_fc1",0,0,2,2)
    ShowMessage("【メフィスト】")
    ShowMessage("そこで、どうにもトラブルが発生したようで……")
    ShowMessage("村が二つの勢力に割れ、相争っているのです。")
    ShowMessageFace("mefist_fc1",0,0,2,3)
    ShowMessage("【メフィスト】")
    ShowMessage("そういうわけで、プランセクト村の調停を頼みます。")
    ShowMessage("領内の乱れは、敵国に付け入る隙を与えますので……")
    PictureClear(5)
    EndEventProcessing()
    0()
   EndIf()
   If(1,1061,0,1,1)
    PictureDisplay(5,"80_mefist_st01",0,0,0,0,100,100,0,0)
    PictureMove(5,null,0,0,0,0,100,100,255,0,30,true)
    ShowMessageFace("mefist_fc1",0,0,2,4)
    ShowMessage("【メフィスト】")
    ShowMessage("プランセクト村の内乱も鎮圧できましたか。")
    ShowMessage("流石の手腕ですね……")
    ShowMessageFace("mefist_fc1",0,0,2,5)
    ShowMessage("【メフィスト】")
    ShowMessage("黒のアリスは、世界各地の急進派に働きかけています。")
    ShowMessage("以後も、お気を付け下さいね……")
    PictureClear(5)
    EndEventProcessing()
    0()
   EndIf()
   0()
  EndIf()
  If(1,1063,0,1,0)
   PictureDisplay(5,"80_mefist_st01",0,0,0,0,100,100,0,0)
   PictureMove(5,null,0,0,0,0,100,100,255,0,30,true)
   ShowMessageFace("mefist_fc1",0,0,2,6)
   ShowMessage("【メフィスト】")
   ShowMessage("それではまず、ゴルド砦への侵入ですね。")
   ShowMessage("作戦の第一段階にあたり、助っ人を用意しました。")
   ShowMessageFace("mefist_fc1",0,0,2,7)
   ShowMessage("【メフィスト】")
   ShowMessage("リマ村の廃墟にて、その助っ人と合流して下さい。")
   ShowMessage("エスタから道に沿って北西に進めば、リマ村に着くはずです。")
   PictureClear(5)
   EndEventProcessing()
   0()
  EndIf()
  If(1,1063,0,2,0)
   PictureDisplay(5,"80_mefist_st01",0,0,0,0,100,100,0,0)
   PictureMove(5,null,0,0,0,0,100,100,255,0,30,true)
   ShowMessageFace("mefist_fc1",0,0,2,8)
   ShowMessage("【メフィスト】")
   ShowMessage("それではまず、ゴルド砦への侵入ですね。")
   ShowMessage("作戦の第一段階にあたり、助っ人を用意しました。")
   ShowMessageFace("mefist_fc1",0,0,2,9)
   ShowMessage("【メフィスト】")
   ShowMessage("リマ村の廃墟にて、その助っ人と合流して下さい。")
   ShowMessage("エスタから道に沿って北西に進めば、リマ村に着くはずです。")
   PictureClear(5)
   EndEventProcessing()
   0()
  EndIf()
  If(1,1063,0,3,1)
   PictureDisplay(5,"80_mefist_st01",0,0,0,0,100,100,0,0)
   PictureMove(5,null,0,0,0,0,100,100,255,0,30,true)
   ShowMessageFace("mefist_fc1",0,0,2,10)
   ShowMessage("【メフィスト】")
   ShowMessage("おや、なぜ戻ってきたのです……？")
   ShowMessage("手筈通り、作戦を進めなさい。")
   If(0,6,0)
    ShowMessageFace("sonia_fc1",5,0,2,11)
    ShowMessage("【ソニア】")
    ShowMessage("もう、感じ悪いなぁ……")
    0()
   EndIf()
   PictureClear(5)
   EndEventProcessing()
   0()
  EndIf()
  0()
 PAGE   3
  // condition: variable 1063 >= 9
  0()



EVENT   6
 PAGE   1
  // condition: switch 2268 is ON
  241(bytes(0x04,0x08,0x6f,0x3a,0x0d,0x52,0x50,0x47,0x3a,0x3a,0x42,0x47,0x4d,0x08,0x3a,0x0a,0x40,0x6e,0x61,0x6d,0x65,0x49,0x22,0x0a,0x6b,0x69,0x6b,0x69,0x32,0x06,0x3a,0x06,0x45,0x54,0x3a,0x0c,0x40,0x76,0x6f,0x6c,0x75,0x6d,0x65,0x69,0x69,0x3a,0x0b,0x40,0x70,0x69,0x74,0x63,0x68,0x69,0x69))
  ChangeSelfSwitch("A",0)
  PictureDisplay(5,"80_grandnoa_st01",0,0,0,0,100,100,0,0)
  PictureMove(5,null,0,0,0,0,100,100,255,0,30,true)
  ShowMessageFace("grandnoa_fc1",2,0,2,1)
  ShowMessage("【グランドノア女王】")
  ShowMessage("メフィスト……")
  ShowMessage("あなたの背後には、魔王がいるという話は本当ですか？")
  PictureDisplay(6,"80_grandnoa_st01",0,0,-150,0,100,100,255,0)
  PictureDisplay(5,"80_mefist_st01",0,0,150,0,100,100,255,0)
  ShowMessageFace("mefist_fc1",0,0,2,2)
  ShowMessage("【メフィスト】")
  ShowMessage("……ええ、その通り。")
  ShowMessage("グランドノアの魔導顧問となったのも、魔王様の命令です。")
  ShowMessageFace("grandnoa_fc1",2,0,2,3)
  ShowMessage("【グランドノア女王】")
  ShowMessage("ずっと、私を……")
  ShowMessage("そして、我がグランドノアを謀ってきたと？")
  ShowMessageFace("mefist_fc1",0,0,2,4)
  ShowMessage("【メフィスト】")
  ShowMessage("粉骨砕身、グランドノアのために働いてきた事に、")
  ShowMessage("いっさいの嘘はありません。")
  ShowMessageFace("mefist_fc1",0,0,2,5)
  ShowMessage("【メフィスト】")
  ShowMessage("「グランドノアに助力し、叡智を用いて勝利に導け」――")
  ShowMessage("それこそが、私が魔王様より受けたご命令なのです。")
  If(0,6,0)
   ShowMessageFace("sonia_fc1",5,0,2,6)
   ShowMessage("【ソニア】")
   ShowMessage("つまり、魔王はグランドノアに協力するよう命じたって事？")
   ShowMessage("その命令通り、あんたはグランドノアに尽くしたって……？")
   0()
  Else()
   ShowMessageFace("ruka_fc1",0,0,2,7)
   ShowMessage("【ルカ】")
   ShowMessage("つまり、魔王はグランドノアに協力するよう命じたって事？")
   ShowMessage("その命令通り、お前はグランドノアに尽くしたって……？")
   0()
  EndIf()
  ShowMessageFace("mefist_fc1",0,0,2,8)
  ShowMessage("【メフィスト】")
  ShowMessage("ええ、一切の嘘は申していませんよ。")
  ShowMessage("私はグランドノアに貢献すれど、一切の害は与えていません。")
  ShowMessageFace("grandnoa_fc1",2,0,2,9)
  ShowMessage("【グランドノア女王】")
  ShowMessage("……嘘ではないようですね。")
  ShowMessage("確かに貴方の貢献により、我が国は危機を切り抜けました。")
  ShowMessageFace("grandnoa_fc1",2,0,2,10)
  ShowMessage("【グランドノア女王】")
  ShowMessage("では、別の質問をしましょう。")
  ShowMessage("聞くところによれば、サバサの国を乱したのは淫魔三姉妹……")
  ShowMessageFace("grandnoa_fc1",2,0,2,11)
  ShowMessage("【グランドノア女王】")
  ShowMessage("この三姉妹と、魔王が協力関係にあるとすれば……")
  ShowMessage("サバサの女王の心を乱したのも、魔王の意によるものですね？")
  ShowMessageFace("mefist_fc1",0,0,2,12)
  ShowMessage("【メフィスト】")
  ShowMessage("ええ、その通り……")
  ShowMessage("魔王と三姉妹は、事実上の同盟関係にあります。")
  ShowMessageFace("mefist_fc1",0,0,2,13)
  ShowMessage("【メフィスト】")
  ShowMessage("三姉妹は魔王の部下ではありませんが……")
  ShowMessage("その利害は、完全に一致しているのです。")
  If(0,4,0)
   ShowMessageFace("alice_fc5",3,0,2,14)
   ShowMessage("【アリス】")
   ShowMessage("母上……今の魔王と、三姉妹は同一勢力と見て間違いないか。")
   ShowMessage("サバサとグランドノアをそそのかし、何のつもりなのだ……")
   0()
  EndIf()
  If(0,5,0)
   ShowMessageFace("iriasu_fc4",2,0,2,15)
   ShowMessage("【イリアス】")
   ShowMessage("今の魔王と三姉妹は、同一勢力と見て間違いないですね。")
   ShowMessage("サバサとグランドノアの背後で暗躍するとは、何を企んで……")
   0()
  EndIf()
  If(4,529,0)
   ShowMessageFace("sara_fc1",4,0,2,16)
   ShowMessage("【サラ】")
   ShowMessage("なんて事なの……")
   0()
  EndIf()
  ShowMessageFace("grandnoa_fc1",2,0,2,17)
  ShowMessage("【グランドノア女王】")
  ShowMessage("して、サバサを陥れグランドノアに手を貸した意図は？")
  ShowMessage("魔王は、何を企んでいるのです？")
  ShowMessageFace("mefist_fc1",0,0,2,18)
  ShowMessage("【メフィスト】")
  ShowMessage("……存じません。")
  ShowMessageFace("mefist_fc1",0,0,2,19)
  ShowMessage("【メフィスト】")
  ShowMessage("私が、あなた達の手に落ちる事も想定されていた以上……")
  ShowMessage("多くを知らされていると思いますか？")
  ShowMessageFace("grandnoa_fc1",2,0,2,20)
  ShowMessage("【グランドノア女王】")
  ShowMessage("その言葉、全面的には信用できませんが……いいでしょう。")
  ShowMessage("それでは、最後の質問を。")
  ShowMessageFace("grandnoa_fc1",2,0,2,21)
  ShowMessage("【グランドノア女王】")
  ShowMessage("グランゴルドの背後にも、魔王の手は伸びていますね？")
  ShowMessageFace("mefist_fc1",2,0,2,22)
  ShowMessage("【メフィスト】")
  ShowMessage("……………………")
  ShowMessageFace("mefist_fc1",0,0,2,23)
  ShowMessage("【メフィスト】")
  ShowMessage("……ええ。")
  ShowMessage("あの国は、魔王様の手により制圧されたと聞いています。")
  If(0,4,0)
   ShowMessageFace("alice_fc6",0,0,2,24)
   ShowMessage("【アリス】")
   ShowMessage("なんだと！？")
   ShowMessage("グランゴルドは、すでに母上の……")
   0()
  EndIf()
  If(0,5,0)
   ShowMessageFace("iriasu_fc4",5,0,2,25)
   ShowMessage("【イリアス】")
   ShowMessage("なんという事でしょう！")
   ShowMessage("グランゴルドも、すでに魔王の手に落ちて……")
   0()
  EndIf()
  If(0,6,0)
   ShowMessageFace("sonia_fc1",5,0,2,26)
   ShowMessage("【ソニア】")
   ShowMessage("それって、おかしいじゃない！")
   ShowMessage("グランゴルドもグランドノアも、魔王が裏にいるんでしょ？")
   ShowMessageFace("sonia_fc1",5,0,2,27)
   ShowMessage("【ソニア】")
   ShowMessage("それなのに、両国が戦争するってどういう事？")
   ShowMessage("魔王がわざと、大戦争をやらせてるっていうの！？")
   If(0,4,0)
    ShowMessageFace("alice_fc5",2,0,2,28)
    ShowMessage("【アリス】")
    ShowMessage("答えを聞かせてもらおうか、メフィスト。")
    ShowMessage("両国を潰し合わせるにしても、度が過ぎているぞ。")
    0()
   EndIf()
   If(0,5,0)
    ShowMessageFace("iriasu_fc4",7,0,2,29)
    ShowMessage("【イリアス】")
    ShowMessage("頭の足りない娘が、珍しく鋭い質問をしたのです。")
    ShowMessage("メフィスト、答えてもらいましょうか。")
    0()
   EndIf()
   0()
  Else()
   ShowMessageFace("ruka_fc1",0,0,2,30)
   ShowMessage("【ルカ】")
   ShowMessage("じゃあ、なんでグランドノアとグランゴルドが戦争するんだ？")
   ShowMessage("どっちも魔王が操ってるのに……")
   If(0,4,0)
    ShowMessageFace("alice_fc5",2,0,2,31)
    ShowMessage("【アリス】")
    ShowMessage("答えを聞かせてもらおうか、メフィスト。")
    ShowMessage("両国を潰し合わせるにしても、度が過ぎているぞ。")
    0()
   EndIf()
   If(0,5,0)
    ShowMessageFace("iriasu_fc4",7,0,2,32)
    ShowMessage("【イリアス】")
    ShowMessage("いったい、どういう事なのです。")
    ShowMessage("メフィスト、答えてもらいましょうか。")
    0()
   EndIf()
   0()
  EndIf()
  ShowMessageFace("mefist_fc1",0,0,2,33)
  ShowMessage("【メフィスト】")
  ShowMessage("さて……燕雀たる私に、鴻鵠の志など分かりかねます。")
  ShowMessage("海より深い理由があるのでしょう。")
  If(0,4,0)
   ShowMessageFace("alice_fc5",3,0,2,34)
   ShowMessage("【アリス】")
   ShowMessage("答える気はないか……やれやれ。")
   0()
  EndIf()
  If(0,5,0)
   ShowMessageFace("iriasu_fc4",2,0,2,35)
   ShowMessage("【イリアス】")
   ShowMessage("しゃべる気はないようですね……")
   0()
  EndIf()
  ShowMessageFace("grandnoa_fc1",2,0,2,36)
  ShowMessage("【グランドノア女王】")
  ShowMessage("これ以上は、尋問も無駄でしょうね。")
  ShowMessage("それでは、メフィストの処遇は――")
  If(0,6,0)
   ShowMessageFace("sonia_fc2",2,0,2,37)
   ShowMessage("【ソニア】")
   ShowMessage("ひょっとして、死刑……？")
   ShowMessage("ちょっと後味悪いかも……")
   0()
  EndIf()
  If(4,159,0)
   ShowMessageFace("ironmaiden_fc1",0,0,2,38)
   ShowMessage("【メイデン】")
   ShowMessage("私の出番……？")
   0()
  EndIf()
  241(bytes(0x04,0x08,0x6f,0x3a,0x0d,0x52,0x50,0x47,0x3a,0x3a,0x42,0x47,0x4d,0x08,0x3a,0x0a,0x40,0x6e,0x61,0x6d,0x65,0x49,0x22,0x0c,0x63,0x61,0x73,0x74,0x6c,0x65,0x33,0x06,0x3a,0x06,0x45,0x54,0x3a,0x0c,0x40,0x76,0x6f,0x6c,0x75,0x6d,0x65,0x69,0x69,0x3a,0x0b,0x40,0x70,0x69,0x74,0x63,0x68,0x69,0x69))
  ShowMessageFace("grandnoa_fc1",2,0,2,39)
  ShowMessage("【グランドノア女王】")
  ShowMessage("これまで通り、魔導顧問として遇します。")
  ShowMessage("今後もグランドノアのために貢献するように。")
  ShowMessageFace("mefist_fc1",0,0,2,40)
  ShowMessage("【メフィスト】")
  ShowMessage("了解致しました、陛下。")
  If(0,6,0)
   ShowMessageFace("sonia_fc3",2,0,2,41)
   ShowMessage("【ソニア】")
   ShowMessage("えっ！？　それで済んじゃうの！？")
   0()
  Else()
   ShowMessageFace("ruka_fc1",0,0,2,42)
   ShowMessage("【ルカ】")
   ShowMessage("えっ、それでいいの！？")
   0()
  EndIf()
  ShowMessageFace("mefist_fc1",0,0,2,43)
  ShowMessage("【メフィスト】")
  ShowMessage("まず、第一に……")
  ShowMessage("優れた為政者は、清濁を併せ呑むもの。")
  ShowMessageFace("mefist_fc1",0,0,2,44)
  ShowMessage("【メフィスト】")
  ShowMessage("グランドノアの利益になる人材は、たとえ何者でも使う……")
  ShowMessage("まして今は戦時、選り好みなどしていられません。")
  If(0,6,0)
   ShowMessageFace("sonia_fc2",4,0,2,45)
   ShowMessage("【ソニア】")
   ShowMessage("でも、裏切るかもしれないでしょ……！？")
   0()
  Else()
   ShowMessageFace("ruka_fc1",0,0,2,46)
   ShowMessage("【ルカ】")
   ShowMessage("えっ、それでいいの！？")
   0()
  EndIf()
  ShowMessageFace("mefist_fc1",0,0,2,47)
  ShowMessage("【メフィスト】")
  ShowMessage("第二に……友人は近くに、敵はもっと近くに置くもの。")
  ShowMessage("裏のある者だからこそ、近くで監視すべきなのです。")
  If(0,6,0)
   ShowMessageFace("mefist_fc1",0,0,2,48)
   ShowMessage("【メフィスト】")
   ShowMessage("私を通じ、その裏にいる者の動きを探る事もできるはず……")
   ShowMessage("勉強になりましたか、僧侶のお嬢さん？")
   ShowMessageFace("sonia_fc1",5,0,2,49)
   ShowMessage("【ソニア】")
   ShowMessage("なんか腹立つ……")
   0()
  Else()
   ShowMessageFace("mefist_fc1",0,0,2,50)
   ShowMessage("【メフィスト】")
   ShowMessage("私を通じ、その裏にいる者の動きを探る事もできるはず……")
   ShowMessage("勉強になりましたか、勇者君？")
   ShowMessageFace("ruka_fc1",0,0,2,51)
   ShowMessage("【ルカ】")
   ShowMessage("うぐぐ……")
   0()
  EndIf()
  355("gain_medal(36)")
  ShowMessageFace("mefist_fc1",0,0,2,52)
  ShowMessage("【メフィスト】")
  ShowMessage("それでは……")
  PictureClear(5)
  PictureClear(6)
  Wait(60)
  250(bytes(0x04,0x08,0x6f,0x3a,0x0c,0x52,0x50,0x47,0x3a,0x3a,0x53,0x45,0x08,0x3a,0x0a,0x40,0x6e,0x61,0x6d,0x65,0x49,0x22,0x0d,0x6d,0x6f,0x6e,0x5f,0x77,0x61,0x72,0x70,0x06,0x3a,0x06,0x45,0x54,0x3a,0x0b,0x40,0x70,0x69,0x74,0x63,0x68,0x69,0x69,0x3a,0x0c,0x40,0x76,0x6f,0x6c,0x75,0x6d,0x65,0x69,0x55))
  ChangeVariable(1052,1052,0,0,8)
  ChangeVariable(1062,1062,0,0,1)
  ChangeSwitch(100,100,1)
  ShowMessageFace("mefist_fc1",0,0,2,53)
  ShowMessage("【メフィスト】")
  ShowMessage("我が主、魔王様の名誉にかけて誓いましょう。")
  ShowMessage("今後も粉骨砕身、このグランドノアのために尽くす事を。")
  PictureDisplay(5,"80_grandnoa_st01",0,0,0,0,100,100,0,0)
  PictureMove(5,null,0,0,0,0,100,100,255,0,30,true)
  ShowMessageFace("grandnoa_fc1",0,0,2,54)
  ShowMessage("【グランドノア女王】")
  ShowMessage("そういうわけで、疑念の確証は取れました。")
  ShowMessage("グランゴルドにも、魔王の手は伸びていたのです。")
  ShowMessageFace("grandnoa_fc1",0,0,2,55)
  ShowMessage("【グランドノア女王】")
  ShowMessage("サバサのサラ女王と同じように……")
  ShowMessage("グランゴルドの王も、心を乱されているのかもしれません。")
  If(4,529,0)
   ShowMessageFace("sara_fc1",4,0,2,56)
   ShowMessage("【サラ】")
   ShowMessage("その可能性は、高いわね……")
   0()
  EndIf()
  ShowMessageFace("grandnoa_fc1",0,0,2,57)
  ShowMessage("【グランドノア女王】")
  ShowMessage("そして、こたびの大戦も魔王の企てによるもの。")
  ShowMessage("それが明らかになった以上、正面から事を構えるのは下策。")
  ShowMessageFace("grandnoa_fc1",0,0,2,58)
  ShowMessage("【グランドノア女王】")
  ShowMessage("勇者ルカ……今後とも、協力をお願いできますでしょうか？")
  ShowChoices(strings("もちろん！","いやだ！"),0)
  IfPlayerPicksChoice(0,null)
   ShowMessageFace("ruka_fc1",0,0,2,59)
   ShowMessage("【ルカ】")
   ShowMessage("はい、もちろんです！")
   0()
  IfPlayerPicksChoice(1,null)
   ShowMessageFace("ruka_fc1",0,0,2,60)
   ShowMessage("【ルカ】")
   ShowMessage("いやです！")
   If(0,4,0)
    ShowMessageFace("alice_fc5",3,0,2,61)
    ShowMessage("【アリス】")
    ShowMessage("拒否するな、ドアホめ……")
    ShowMessage("魔王の陰謀、放置できるわけがないだろう。")
    ShowMessageFace("alice_fc5",2,0,2,62)
    ShowMessage("【アリス】")
    ShowMessage("そういうわけで、協力しよう。")
    ShowMessage("我々の旅の目的も、おそらく関わってくるはずだ。")
    0()
   EndIf()
   If(0,5,0)
    ShowMessageFace("iriasu_fc4",2,0,2,63)
    ShowMessage("【イリアス】")
    ShowMessage("それでも勇者ですか……")
    ShowMessage("魔王の陰謀、おそらく我々の旅に深く関わっているはず。")
    ShowMessageFace("iriasu_fc4",0,0,2,64)
    ShowMessage("【イリアス】")
    ShowMessage("そういうわけで、我々も協力しましょう。")
    ShowMessage("魔王の企てを排除し、正義と秩序を取り戻すのです。")
    0()
   EndIf()
   0()
  404()
  ShowMessageFace("grandnoa_fc1",0,0,2,65)
  ShowMessage("【グランドノア女王】")
  ShowMessage("感謝します、勇者ルカ……")
  ShowMessage("共に力を合わせ、魔王の陰謀を打ち破りましょう。")
  If(0,2149,0)
   ShowMessageFace("bonny_fc1",1,0,2,66)
   ShowMessage("【ボニー】")
   ShowMessage("おさかな海賊団も一緒だ！")
   ShowMessageFace("ashel_fc1",1,0,2,67)
   ShowMessage("【アシェル】")
   ShowMessage("こりゃ、ますます名を上げるチャンスだね！")
   0()
  EndIf()
  If(0,2148,0)
   ShowMessageFace("umiusi_k_fc1",0,0,2,68)
   ShowMessage("【ステイシー】")
   ShowMessage("もちろん、海軍も支援しますよ！")
   ShowMessageFace("tatunoko_k_fc1",0,0,2,69)
   ShowMessage("【たつこ】")
   ShowMessage("一緒にがんばるのです！")
   0()
  EndIf()
  ShowMessageFace("grandnoa_fc1",0,0,2,70)
  ShowMessage("【グランドノア女王】")
  ShowMessage("では……これより、私は重臣達と協議を行います。")
  ShowMessage("明らかになった事情を踏まえ、大幅に戦略を練り直さなければ。")
  ShowMessageFace("grandnoa_fc1",0,0,2,71)
  ShowMessage("【グランドノア女王】")
  ShowMessage("あなた達は、エスタへ調査に行ってもらえないでしょうか？")
  ShowMessage("以前の約束通り、調査団参加の手続きは済ませておきました。")
  If(0,4,0)
   ShowMessageFace("alice_fc5",0,0,2,72)
   ShowMessage("【アリス】")
   ShowMessage("うむ、それではエスタへ向かうとしよう。")
   ShowMessage("西への道を立て札の指示に沿って進めば、迷う事はあるまい。")
   0()
  EndIf()
  If(0,5,0)
   ShowMessageFace("iriasu_fc4",0,0,2,73)
   ShowMessage("【イリアス】")
   ShowMessage("それではエスタへ向かうとしましょう。")
   ShowMessage("西への道を進み、立て札の指示に従えば辿り着くでしょう。")
   0()
  EndIf()
  ShowMessageFace("grandnoa_fc1",0,0,2,74)
  ShowMessage("【グランドノア女王】")
  ShowMessage("貴方達が帰還した頃には、こちらの軍議も済んでいるはず。")
  ShowMessage("戦略を大幅に練り直し、貴方達の手も借りる事になるでしょう。")
  ShowMessageFace("grandnoa_fc1",0,0,2,75)
  ShowMessage("【グランドノア女王】")
  ShowMessage("それでは、頼みましたよ……")
  ShowMessage("調査の件、朗報を期待しています。")
  ShowMessageFace("ruka_fc1",0,0,2,76)
  ShowMessage("【ルカ】")
  ShowMessage("はい、任せて下さい！")
  If(1,1061,0,0,0)
   PictureDisplay(5,"80_mefist_st01",0,0,0,0,100,100,0,0)
   PictureMove(5,null,0,0,0,0,100,100,255,0,30,true)
   ShowMessageFace("mefist_fc1",0,0,2,77)
   ShowMessage("【メフィスト】")
   ShowMessage("勇者ルカ……")
   ShowMessage("私からもひとつ、頼みたい事があるのですが。")
   If(0,6,0)
    ShowMessageFace("sonia_fc3",2,0,2,78)
    ShowMessage("【ソニア】")
    ShowMessage("なに、この人！　ずうずうしい！")
    0()
   Else()
    ShowMessageFace("ruka_fc1",0,0,2,79)
    ShowMessage("【ルカ】")
    ShowMessage("えっ……？")
    0()
   EndIf()
   ShowMessageFace("mefist_fc1",0,0,2,80)
   ShowMessage("【メフィスト】")
   ShowMessage("まあ、そう言わず……")
   ShowMessage("あなた達の目的とも、利害が一致する話ですよ。")
   ShowMessageFace("mefist_fc1",0,0,2,81)
   ShowMessage("【メフィスト】")
   ShowMessage("ここから西の森……")
   ShowMessage("その中に、プランセクト村という魔物の集落があります。")
   ShowMessageFace("mefist_fc1",0,0,2,82)
   ShowMessage("【メフィスト】")
   ShowMessage("そこで、どうにもトラブルが発生したようで……")
   ShowMessage("村が二つの勢力に割れ、相争っているのです。")
   If(0,4,0)
    ShowMessageFace("alice_fc5",0,0,2,83)
    ShowMessage("【アリス】")
    ShowMessage("昆虫族と植物族の争いだろう？")
    ShowMessage("聞いた話では、アリス17世が強引に調停したとの事だが……")
    0()
   EndIf()
   If(0,5,0)
    ShowMessageFace("iriasu_fc4",2,0,2,84)
    ShowMessage("【イリアス】")
    ShowMessage("昆虫族と植物族の争いでしょう？")
    ShowMessage("確か、アリス17世が強引に調停したとの話ですが……")
    0()
   EndIf()
   ShowMessageFace("mefist_fc1",0,0,2,85)
   ShowMessage("【メフィスト】")
   ShowMessage("それが、よからぬ者達のせいで再燃してしまったのです。")
   ShowMessage("詳しい事情は、かの村に行けば分かりますよ。")
   ShowMessageFace("mefist_fc1",0,0,2,86)
   ShowMessage("【メフィスト】")
   ShowMessage("そういうわけで、プランセクト村の調停を頼みます。")
   ShowMessage("領内の乱れは、敵国に付け入る隙を与えますので……")
   If(0,6,0)
    ShowMessageFace("sonia_fc2",4,0,2,87)
    ShowMessage("【ソニア】")
    ShowMessage("どのツラ下げて、そんな事を！")
    0()
   EndIf()
   PictureClear(5)
   ShowMessageFace("",0,0,2,88)
   ShowMessage("とは言え、頼まれた以上は放置もできない。")
   ShowMessage("西の森にあるプランセクト村に、足を運んでみるとするか――")
   If(1,1056,0,0,0)
    ChangeVariable(1056,1056,0,0,1)
    0()
   EndIf()
   0()
  EndIf()
  PictureClear(5)
  EndEventProcessing()
  0()
 PAGE   2
  // condition: self-switch A is ON
  0()



EVENT   7
 PAGE   1
  // condition: switch 31 is ON
  0()



EVENT   8
 PAGE   1
  // condition: switch 31 is ON
  0()



EVENT   9
 PAGE   1
  ShowMessageFace("",0,0,2,1)
  ShowMessage("【衛兵】")
  ShowMessage("謁見の間になります。")
  0()



EVENT   10
 PAGE   1
  ShowMessageFace("",0,0,2,1)
  ShowMessage("【衛兵】")
  ShowMessage("女王陛下の御身をお守りするのが、我々近衛兵の務めです。")
  0()



EVENT   11
 PAGE   1
  ShowMessageFace("",0,0,2,1)
  ShowMessage("【メイド】")
  ShowMessage("こちらは陛下のお部屋ですが、あまり使っておられないようで。")
  ShowMessage("普段、あのメダル城に……いえいえ、何でもございません。")
  0()



EVENT   12
 PAGE   1
  ShowMessageFace("",0,0,2,1)
  ShowMessage("【衛兵】")
  ShowMessage("こちらは会議室となります。")
  0()



EVENT   13
 PAGE   1
  ShowMessageFace("",0,0,2,1)
  ShowMessage("【衛兵】")
  ShowMessage("女王陛下のお部屋です。")
  ShowMessage("みだりに立ち入らないようお願いします。")
  0()



EVENT   14
 PAGE   1
  ShowMessageFace("",0,0,2,1)
  ShowMessage("【騎士】")
  ShowMessage("この命、女王陛下に捧げております。")
  0()



EVENT   15
 PAGE   1
  ShowMessageFace("",0,0,2,1)
  ShowMessage("【衛兵】")
  ShowMessage("女王陛下を狙う賊は、我らが討ち果たす所存。")
  0()

EVENT   16
 PAGE   1
  ShowMessageFace("",0,0,2,1)
  ShowMessage("【騎士】")
  ShowMessage("女王陛下に絶対の忠誠を！")
  0()



EVENT   17
 PAGE   1
  ShowMessageFace("",0,0,2,1)
  ShowMessage("【衛兵】")
  ShowMessage("戦場で斃れた同胞達のためにも……")
  ShowMessage("陛下の身は、我らが守り抜きます。")
  0()


