﻿
DisplayName "混沌の回廊"



EVENT   1
 PAGE   1
  250(bytes(0x04,0x08,0x6f,0x3a,0x0c,0x52,0x50,0x47,0x3a,0x3a,0x53,0x45,0x08,0x3a,0x0a,0x40,0x6e,0x61,0x6d,0x65,0x49,0x22,0x09,0x4d,0x6f,0x76,0x65,0x06,0x3a,0x06,0x45,0x54,0x3a,0x0c,0x40,0x76,0x6f,0x6c,0x75,0x6d,0x65,0x69,0x55,0x3a,0x0b,0x40,0x70,0x69,0x74,0x63,0x68,0x69,0x69))
  TeleportPlayer(0,443,61,48,0,0)
  0()



EVENT   2
 PAGE   1
  ShowChoices(strings("合成","無の製品"),0)
  IfPlayerPicksChoice(0,null)
   355("call_synthesize(26)")
   0()
  IfPlayerPicksChoice(1,null)
   If(8,159)
    Shop(1,38,0,0,false)
    605(1,117,0,0)
    605(1,171,0,0)
    605(1,237,0,0)
    605(1,262,0,0)
    605(1,284,0,0)
    605(1,327,0,0)
    605(1,358,0,0)
    605(1,396,0,0)
    605(1,436,0,0)
    605(1,468,0,0)
    605(1,503,0,0)
    605(1,544,0,0)
    605(1,584,0,0)
    605(1,615,0,0)
    605(1,653,0,0)
    605(1,693,0,0)
    605(1,720,0,0)
    605(1,750,0,0)
    605(1,771,0,0)
    605(1,793,0,0)
    605(1,818,0,0)
    605(1,840,0,0)
    605(1,865,0,0)
    605(2,50,0,0)
    605(2,99,0,0)
    605(2,120,0,0)
    605(2,145,0,0)
    605(2,229,0,0)
    605(2,257,0,0)
    605(2,324,0,0)
    0()
   Else()
    ShowMessageFace("",0,0,2,1)
    ShowMessage("無の欠片を持ってないと、無の製品は作れないよ。")
    0()
   EndIf()
   0()
  404()
  0()



EVENT   3
 PAGE   1
  ShowChoices(strings("合成","無の製品"),0)
  IfPlayerPicksChoice(0,null)
   355("call_synthesize(25)")
   0()
  IfPlayerPicksChoice(1,null)
   If(8,159)
    Shop(1,38,0,0,false)
    605(1,117,0,0)
    605(1,171,0,0)
    605(1,237,0,0)
    605(1,262,0,0)
    605(1,284,0,0)
    605(1,327,0,0)
    605(1,358,0,0)
    605(1,396,0,0)
    605(1,436,0,0)
    605(1,468,0,0)
    605(1,503,0,0)
    605(1,544,0,0)
    605(1,584,0,0)
    605(1,615,0,0)
    605(1,653,0,0)
    605(1,693,0,0)
    605(1,720,0,0)
    605(1,750,0,0)
    605(1,771,0,0)
    605(1,793,0,0)
    605(1,818,0,0)
    605(1,840,0,0)
    605(1,865,0,0)
    605(2,50,0,0)
    605(2,99,0,0)
    605(2,120,0,0)
    605(2,145,0,0)
    605(2,229,0,0)
    605(2,257,0,0)
    605(2,324,0,0)
    0()
   Else()
    ShowMessageFace("",0,0,2,1)
    ShowMessage("無の欠片を持ってないと、無の製品は作れないよ。")
    0()
   EndIf()
   0()
  404()
  0()



EVENT   4
 PAGE   1
  ChangeInventoryWeapon(122,0,0,1,false)
  ChangeInventoryArmor(102,0,0,1,false)
  ChangeInventoryArmor(232,0,0,1,false)
  ChangeInventoryArmor(327,0,0,1,false)
  ChangeInventoryWeapon(123,0,0,1,false)
  ChangeInventoryWeapon(620,0,0,1,false)
  ChangeInventoryWeapon(697,0,0,1,false)
  ChangeInventoryWeapon(917,0,0,1,false)
  ChangeInventoryWeapon(44,0,0,1,false)
  ChangeInventoryWeapon(85,0,0,1,false)
  ChangeInventoryWeapon(439,0,0,1,false)
  0()



EVENT   5
 PAGE   1
  ChangeSwitch(100,100,1)
  250(bytes(0x04,0x08,0x6f,0x3a,0x0c,0x52,0x50,0x47,0x3a,0x3a,0x53,0x45,0x08,0x3a,0x0a,0x40,0x6e,0x61,0x6d,0x65,0x49,0x22,0x0b,0x4d,0x61,0x67,0x69,0x63,0x32,0x06,0x3a,0x06,0x45,0x54,0x3a,0x0c,0x40,0x76,0x6f,0x6c,0x75,0x6d,0x65,0x69,0x55,0x3a,0x0b,0x40,0x70,0x69,0x74,0x63,0x68,0x69,0x69))
  221()
  TeleportPlayer(0,2,169,215,2,0)
  355("forced_get_on_airship")
  222()
  0()



EVENT   6
 PAGE   1
  250(bytes(0x04,0x08,0x6f,0x3a,0x0c,0x52,0x50,0x47,0x3a,0x3a,0x53,0x45,0x08,0x3a,0x0a,0x40,0x6e,0x61,0x6d,0x65,0x49,0x22,0x0a,0x43,0x68,0x65,0x73,0x74,0x06,0x3a,0x06,0x45,0x54,0x3a,0x0c,0x40,0x76,0x6f,0x6c,0x75,0x6d,0x65,0x69,0x55,0x3a,0x0b,0x40,0x70,0x69,0x74,0x63,0x68,0x69,0x69))
  205(0,bytes(0x04,0x08,0x6f,0x3a,0x13,0x52,0x50,0x47,0x3a,0x3a,0x4d,0x6f,0x76,0x65,0x52,0x6f,0x75,0x74,0x65,0x09,0x3a,0x0c,0x40,0x72,0x65,0x70,0x65,0x61,0x74,0x46,0x3a,0x0f,0x40,0x73,0x6b,0x69,0x70,0x70,0x61,0x62,0x6c,0x65,0x46,0x3a,0x0a,0x40,0x77,0x61,0x69,0x74,0x54,0x3a,0x0a,0x40,0x6c,0x69,0x73,0x74,0x5b,0x0b,0x6f,0x3a,0x15,0x52,0x50,0x47,0x3a,0x3a,0x4d,0x6f,0x76,0x65,0x43,0x6f,0x6d,0x6d,0x61,0x6e,0x64,0x07,0x3a,0x0a,0x40,0x63,0x6f,0x64,0x65,0x69,0x29,0x3a,0x10,0x40,0x70,0x61,0x72,0x61,0x6d,0x65,0x74,0x65,0x72,0x73,0x5b,0x00,0x6f,0x3b,0x0a,0x07,0x3b,0x0b,0x69,0x16,0x3b,0x0c,0x5b,0x00,0x6f,0x3b,0x0a,0x07,0x3b,0x0b,0x69,0x14,0x3b,0x0c,0x5b,0x06,0x69,0x08,0x6f,0x3b,0x0a,0x07,0x3b,0x0b,0x69,0x17,0x3b,0x0c,0x5b,0x00,0x6f,0x3b,0x0a,0x07,0x3b,0x0b,0x69,0x14,0x3b,0x0c,0x5b,0x06,0x69,0x08,0x6f,0x3b,0x0a,0x07,0x3b,0x0b,0x69,0x00,0x3b,0x0c,0x5b,0x00))
  ChangeSelfSwitch("A",0)
  ChangeInventory_Item(62,0,0,1)
  0()
 PAGE   2
  // condition: self-switch A is ON
  0()
