﻿


EVENT   1
 PAGE   1
  0()



EVENT   2
 PAGE   1
  0()



EVENT   3
 PAGE   1
  0()



EVENT   4
 PAGE   1
  0()



EVENT   5
 PAGE   1
  0()



EVENT   6
 PAGE   1
  0()



EVENT   7
 PAGE   1
  0()



EVENT   8
 PAGE   1
  0()



EVENT   9
 PAGE   1
  0()



EVENT   10
 PAGE   1
  0()



EVENT   11
 PAGE   1
  0()



EVENT   12
 PAGE   1
  0()



EVENT   13
 PAGE   1
  0()



EVENT   14
 PAGE   1
  0()



EVENT   15
 PAGE   1
  0()



EVENT   16
 PAGE   1
  0()



EVENT   17
 PAGE   1
  0()



EVENT   18
 PAGE   1
  0()



EVENT   19
 PAGE   1
  0()



EVENT   20
 PAGE   1
  0()



EVENT   21
 PAGE   1
  // condition: switch 661 is ON
  241(bytes(0x04,0x08,0x6f,0x3a,0x0d,0x52,0x50,0x47,0x3a,0x3a,0x42,0x47,0x4d,0x08,0x3a,0x0a,0x40,0x6e,0x61,0x6d,0x65,0x49,0x22,0x10,0x73,0x63,0x65,0x6e,0x65,0x5f,0x63,0x6f,0x6d,0x69,0x32,0x06,0x3a,0x06,0x45,0x54,0x3a,0x0c,0x40,0x76,0x6f,0x6c,0x75,0x6d,0x65,0x69,0x69,0x3a,0x0b,0x40,0x70,0x69,0x74,0x63,0x68,0x69,0x69))
  ShowMessageFace("poseidones_fc1",1,0,2,1)
  ShowMessage("【ポセイドネス】")
  ShowMessage("しかしお前も、ずいぶん面倒事に巻き込まれたものだな。")
  ShowMessage("こうして酒を酌み交わすのも久々か……")
  ShowMessageFace("kraken_fc1",1,0,2,2)
  ShowMessage("【クラーケン】")
  ShowMessage("まあ、終わった事です。")
  ShowMessage("今はすっかり、この通り……あっ、触手が焼けましたよ。")
  ShowMessageFace("poseidones_fc1",1,0,2,3)
  ShowMessage("【ポセイドネス】")
  ShowMessage("うむ、お前の触手は酒のつまみにちょうど良いな。")
  ShowMessage("せっかくの機会だ、私のハサミも食ってしまおう……")
  ShowMessageFace("kraken_fc1",1,0,2,4)
  ShowMessage("【クラーケン】")
  ShowMessage("これは……身が多くて……")
  ShowMessageFace("poseidones_fc1",1,0,2,5)
  ShowMessage("【ポセイドネス】")
  ShowMessage("美味いだろう……？")
  ShowMessageFace("kraken_fc1",1,0,2,6)
  ShowMessage("【クラーケン】")
  ShowMessage("むしゃむしゃ……")
  ShowMessageFace("poseidones_fc1",1,0,2,7)
  ShowMessage("【ポセイドネス】")
  ShowMessage("もぐもぐ……")
  ShowMessageFace("kraken_fc1",1,0,2,8)
  ShowMessage("【クラーケン】")
  ShowMessage("カニを食べている時って、無口になりますよね……")
  ShowMessageFace("poseidones_fc1",1,0,2,9)
  ShowMessage("【ポセイドネス】")
  ShowMessage("うむ、実に不思議だな……")
  ShowMessageFace("",0,0,2,10)
  ShowMessage("【客Ａ】")
  ShowMessage("自分の体を平気で食ってる方が不思議だよ……")
  ShowMessageFace("",0,0,2,11)
  ShowMessage("【客Ｂ】")
  ShowMessage("なんだか腹が減ってきたな……")
  ShowMessageFace("",0,0,2,12)
  ShowMessage("ステージは微妙な雰囲気だ……")
  Wait(30)
  221()
  242(1)
  Wait(60)
  211(1)
  281(1)
  TeleportPlayer(0,624,63,27,6,2)
  ChangeSwitch(2119,2119,0)
  222()
  ShowMessageFace("",0,0,2,13)
  ShowMessage("【支配人】")
  ShowMessage("やっぱり、おつまみはイカだよね。")
  ShowMessageFace("kraken_fc1",2,0,2,14)
  ShowMessage("【クラーケン】")
  ShowMessage("私を愚弄しているのですか！！")
  ShowMessageFace("",0,0,2,15)
  ShowMessage("【支配人】")
  ShowMessage("えっ……？　ここで怒られるの……？")
  If(2,"A",1)
   ChangeSelfSwitch("A",0)
   250(bytes(0x04,0x08,0x6f,0x3a,0x0c,0x52,0x50,0x47,0x3a,0x3a,0x53,0x45,0x08,0x3a,0x0a,0x40,0x6e,0x61,0x6d,0x65,0x49,0x22,0x0a,0x49,0x74,0x65,0x6d,0x31,0x06,0x3a,0x06,0x45,0x54,0x3a,0x0b,0x40,0x70,0x69,0x74,0x63,0x68,0x69,0x69,0x3a,0x0c,0x40,0x76,0x6f,0x6c,0x75,0x6d,0x65,0x69,0x55))
   ChangeInventory_Item(431,0,0,3)
   ChangeInventory_Item(433,0,0,10)
   0()
  EndIf()
  ChangeSwitch(2119,2119,1)
  EndEventProcessing()
  0()



EVENT   22
 PAGE   1
  // condition: switch 662 is ON
  241(bytes(0x04,0x08,0x6f,0x3a,0x0d,0x52,0x50,0x47,0x3a,0x3a,0x42,0x47,0x4d,0x08,0x3a,0x0a,0x40,0x6e,0x61,0x6d,0x65,0x49,0x22,0x10,0x73,0x63,0x65,0x6e,0x65,0x5f,0x63,0x6f,0x6d,0x69,0x32,0x06,0x3a,0x06,0x45,0x54,0x3a,0x0c,0x40,0x76,0x6f,0x6c,0x75,0x6d,0x65,0x69,0x69,0x3a,0x0b,0x40,0x70,0x69,0x74,0x63,0x68,0x69,0x69))
  ShowMessageFace("eva_fc1",0,0,2,1)
  ShowMessage("【エヴァ】")
  ShowMessage("ステージってなんだか、クセになるわよね。")
  ShowMessage("ああ、愚民達を従えている気分……♪")
  205(34,bytes(0x04,0x08,0x6f,0x3a,0x13,0x52,0x50,0x47,0x3a,0x3a,0x4d,0x6f,0x76,0x65,0x52,0x6f,0x75,0x74,0x65,0x09,0x3a,0x0c,0x40,0x72,0x65,0x70,0x65,0x61,0x74,0x46,0x3a,0x0f,0x40,0x73,0x6b,0x69,0x70,0x70,0x61,0x62,0x6c,0x65,0x46,0x3a,0x0a,0x40,0x77,0x61,0x69,0x74,0x54,0x3a,0x0a,0x40,0x6c,0x69,0x73,0x74,0x5b,0x07,0x6f,0x3a,0x15,0x52,0x50,0x47,0x3a,0x3a,0x4d,0x6f,0x76,0x65,0x43,0x6f,0x6d,0x6d,0x61,0x6e,0x64,0x07,0x3a,0x0a,0x40,0x63,0x6f,0x64,0x65,0x69,0x16,0x3a,0x10,0x40,0x70,0x61,0x72,0x61,0x6d,0x65,0x74,0x65,0x72,0x73,0x5b,0x00,0x6f,0x3b,0x0a,0x07,0x3b,0x0b,0x69,0x00,0x3b,0x0c,0x5b,0x00))
  ShowMessageFace("succubus_fc1",3,0,2,2)
  ShowMessage("【サキュバス】")
  ShowMessage("エヴァ……いつになったら、あなたは更正するのです？")
  ShowMessage("あれだけイモを食べさせたのに、まだ心根が歪んでいるなんて……")
  205(33,bytes(0x04,0x08,0x6f,0x3a,0x13,0x52,0x50,0x47,0x3a,0x3a,0x4d,0x6f,0x76,0x65,0x52,0x6f,0x75,0x74,0x65,0x09,0x3a,0x0c,0x40,0x72,0x65,0x70,0x65,0x61,0x74,0x46,0x3a,0x0f,0x40,0x73,0x6b,0x69,0x70,0x70,0x61,0x62,0x6c,0x65,0x46,0x3a,0x0a,0x40,0x77,0x61,0x69,0x74,0x54,0x3a,0x0a,0x40,0x6c,0x69,0x73,0x74,0x5b,0x07,0x6f,0x3a,0x15,0x52,0x50,0x47,0x3a,0x3a,0x4d,0x6f,0x76,0x65,0x43,0x6f,0x6d,0x6d,0x61,0x6e,0x64,0x07,0x3a,0x0a,0x40,0x63,0x6f,0x64,0x65,0x69,0x17,0x3a,0x10,0x40,0x70,0x61,0x72,0x61,0x6d,0x65,0x74,0x65,0x72,0x73,0x5b,0x00,0x6f,0x3b,0x0a,0x07,0x3b,0x0b,0x69,0x00,0x3b,0x0c,0x5b,0x00))
  ShowMessageFace("eva_fc1",2,0,2,3)
  ShowMessage("【エヴァ】")
  ShowMessage("大量のイモを強引に食べさせられたら、ますます歪むわよ！")
  ShowMessageFace("succubus_fc1",3,0,2,4)
  ShowMessage("【サキュバス】")
  ShowMessage("そしてあなたは、畑や家屋に火を付けて逃走……")
  ShowMessage("あの徹底ぶりは、放火というよりも焼き討ちというべき所行でした。")
  ShowMessageFace("eva_fc1",2,0,2,5)
  ShowMessage("【エヴァ】")
  ShowMessage("すぐ捕まえて、畑に埋めたくせに……")
  ShowMessageFace("succubus_fc1",3,0,2,6)
  ShowMessage("【サキュバス】")
  ShowMessage("その報復に、私の家を爆破したではないですか……")
  ShowMessageFace("eva_fc1",0,0,2,7)
  ShowMessage("【エヴァ】")
  ShowMessage("あれは、ちょっとしたツンデレよ。")
  ShowMessageFace("succubus_fc1",3,0,2,8)
  ShowMessage("【サキュバス】")
  ShowMessage("あれはツンデレではありません、テロです。")
  ShowMessageFace("",0,0,2,9)
  ShowMessage("【客Ａ】")
  ShowMessage("どっちもどっちだな……")
  ShowMessageFace("",0,0,2,10)
  ShowMessage("【客Ｂ】")
  ShowMessage("それはともかく、サキュバスの村に行きたいな……")
  ShowMessageFace("",0,0,2,11)
  ShowMessage("ステージは微妙な雰囲気だ……")
  Wait(30)
  221()
  242(1)
  Wait(60)
  211(1)
  281(1)
  TeleportPlayer(0,624,63,27,6,2)
  ChangeSwitch(2119,2119,0)
  222()
  ShowMessageFace("",0,0,2,12)
  ShowMessage("【支配人】")
  ShowMessage("サキュバスの村って、移民大歓迎なんですよね？")
  ShowMessage("私も行こうかな……")
  If(2,"A",1)
   ChangeSelfSwitch("A",0)
   250(bytes(0x04,0x08,0x6f,0x3a,0x0c,0x52,0x50,0x47,0x3a,0x3a,0x53,0x45,0x08,0x3a,0x0a,0x40,0x6e,0x61,0x6d,0x65,0x49,0x22,0x0a,0x49,0x74,0x65,0x6d,0x31,0x06,0x3a,0x06,0x45,0x54,0x3a,0x0b,0x40,0x70,0x69,0x74,0x63,0x68,0x69,0x69,0x3a,0x0c,0x40,0x76,0x6f,0x6c,0x75,0x6d,0x65,0x69,0x55))
   ChangeInventory_Item(319,0,0,10)
   ChangeInventory_Item(413,0,0,10)
   0()
  EndIf()
  ChangeSwitch(2119,2119,1)
  EndEventProcessing()
  0()



EVENT   23
 PAGE   1
  // condition: switch 663 is ON
  241(bytes(0x04,0x08,0x6f,0x3a,0x0d,0x52,0x50,0x47,0x3a,0x3a,0x42,0x47,0x4d,0x08,0x3a,0x0a,0x40,0x6e,0x61,0x6d,0x65,0x49,0x22,0x0b,0x73,0x74,0x61,0x67,0x65,0x31,0x06,0x3a,0x06,0x45,0x54,0x3a,0x0c,0x40,0x76,0x6f,0x6c,0x75,0x6d,0x65,0x69,0x69,0x3a,0x0b,0x40,0x70,0x69,0x74,0x63,0x68,0x69,0x69))
  ShowMessageFace("renccubus_fc1",1,0,2,1)
  ShowMessage("【ニーナ】")
  ShowMessage("えっと……私達、「姉妹ふれあい牧場」から来ました。")
  ShowMessageFace("minccubus_fc1",2,0,2,2)
  ShowMessage("【セーラ】")
  ShowMessage("えへへっ、いつでも家畜受け入れ中だよ～♪")
  ShowMessageFace("d_succubus_fc1",0,0,2,3)
  ShowMessage("【ナターシャ】")
  ShowMessage("私も、お手伝いをしています。")
  ShowMessage("愉しい職場なので、ぜひどうぞ。")
  ShowMessageFace("minccubus_fc1",2,0,2,4)
  ShowMessage("【セーラ】")
  ShowMessage("それじゃあ、乳搾りアトラクションやろっか。")
  ShowMessage("そこのお客さん、ステージに上がってきて♪")
  205(7,bytes(0x04,0x08,0x6f,0x3a,0x13,0x52,0x50,0x47,0x3a,0x3a,0x4d,0x6f,0x76,0x65,0x52,0x6f,0x75,0x74,0x65,0x09,0x3a,0x0c,0x40,0x72,0x65,0x70,0x65,0x61,0x74,0x46,0x3a,0x0f,0x40,0x73,0x6b,0x69,0x70,0x70,0x61,0x62,0x6c,0x65,0x46,0x3a,0x0a,0x40,0x77,0x61,0x69,0x74,0x54,0x3a,0x0a,0x40,0x6c,0x69,0x73,0x74,0x5b,0x07,0x6f,0x3a,0x15,0x52,0x50,0x47,0x3a,0x3a,0x4d,0x6f,0x76,0x65,0x43,0x6f,0x6d,0x6d,0x61,0x6e,0x64,0x07,0x3a,0x0a,0x40,0x63,0x6f,0x64,0x65,0x69,0x13,0x3a,0x10,0x40,0x70,0x61,0x72,0x61,0x6d,0x65,0x74,0x65,0x72,0x73,0x5b,0x07,0x69,0x00,0x69,0xf9,0x6f,0x3b,0x0a,0x07,0x3b,0x0b,0x69,0x00,0x3b,0x0c,0x5b,0x00))
  ShowMessageFace("",0,0,2,5)
  ShowMessage("【客Ａ】")
  ShowMessage("牧場によくある、乳搾り体験ってやつだな。")
  ShowMessage("でも、牛はどこにいるんだ……？")
  205(36,bytes(0x04,0x08,0x6f,0x3a,0x13,0x52,0x50,0x47,0x3a,0x3a,0x4d,0x6f,0x76,0x65,0x52,0x6f,0x75,0x74,0x65,0x09,0x3a,0x0c,0x40,0x72,0x65,0x70,0x65,0x61,0x74,0x46,0x3a,0x0f,0x40,0x73,0x6b,0x69,0x70,0x70,0x61,0x62,0x6c,0x65,0x46,0x3a,0x0a,0x40,0x77,0x61,0x69,0x74,0x54,0x3a,0x0a,0x40,0x6c,0x69,0x73,0x74,0x5b,0x07,0x6f,0x3a,0x15,0x52,0x50,0x47,0x3a,0x3a,0x4d,0x6f,0x76,0x65,0x43,0x6f,0x6d,0x6d,0x61,0x6e,0x64,0x07,0x3a,0x0a,0x40,0x63,0x6f,0x64,0x65,0x69,0x06,0x3a,0x10,0x40,0x70,0x61,0x72,0x61,0x6d,0x65,0x74,0x65,0x72,0x73,0x5b,0x00,0x6f,0x3b,0x0a,0x07,0x3b,0x0b,0x69,0x00,0x3b,0x0c,0x5b,0x00))
  ShowMessageFace("",0,0,2,6)
  ShowMessage("【客Ａ】")
  ShowMessage("……あっ！")
  ShowMessageFace("",0,0,2,7)
  ShowMessage("【客Ａ】")
  ShowMessage("あひぃぃぃぃぃ……！！")
  RunCommonEvent(104)
  RunCommonEvent(105)
  Wait(60)
  ShowMessageFace("renccubus_fc1",2,0,2,8)
  ShowMessage("【ニーナ】")
  ShowMessage("それでは、次はそこのお客さん。")
  ShowMessage("ステージに上がってきて下さい♪")
  205(6,bytes(0x04,0x08,0x6f,0x3a,0x13,0x52,0x50,0x47,0x3a,0x3a,0x4d,0x6f,0x76,0x65,0x52,0x6f,0x75,0x74,0x65,0x09,0x3a,0x0c,0x40,0x72,0x65,0x70,0x65,0x61,0x74,0x46,0x3a,0x0f,0x40,0x73,0x6b,0x69,0x70,0x70,0x61,0x62,0x6c,0x65,0x46,0x3a,0x0a,0x40,0x77,0x61,0x69,0x74,0x54,0x3a,0x0a,0x40,0x6c,0x69,0x73,0x74,0x5b,0x07,0x6f,0x3a,0x15,0x52,0x50,0x47,0x3a,0x3a,0x4d,0x6f,0x76,0x65,0x43,0x6f,0x6d,0x6d,0x61,0x6e,0x64,0x07,0x3a,0x0a,0x40,0x63,0x6f,0x64,0x65,0x69,0x13,0x3a,0x10,0x40,0x70,0x61,0x72,0x61,0x6d,0x65,0x74,0x65,0x72,0x73,0x5b,0x07,0x69,0x00,0x69,0xf9,0x6f,0x3b,0x0a,0x07,0x3b,0x0b,0x69,0x00,0x3b,0x0c,0x5b,0x00))
  205(37,bytes(0x04,0x08,0x6f,0x3a,0x13,0x52,0x50,0x47,0x3a,0x3a,0x4d,0x6f,0x76,0x65,0x52,0x6f,0x75,0x74,0x65,0x09,0x3a,0x0c,0x40,0x72,0x65,0x70,0x65,0x61,0x74,0x46,0x3a,0x0f,0x40,0x73,0x6b,0x69,0x70,0x70,0x61,0x62,0x6c,0x65,0x46,0x3a,0x0a,0x40,0x77,0x61,0x69,0x74,0x54,0x3a,0x0a,0x40,0x6c,0x69,0x73,0x74,0x5b,0x07,0x6f,0x3a,0x15,0x52,0x50,0x47,0x3a,0x3a,0x4d,0x6f,0x76,0x65,0x43,0x6f,0x6d,0x6d,0x61,0x6e,0x64,0x07,0x3a,0x0a,0x40,0x63,0x6f,0x64,0x65,0x69,0x06,0x3a,0x10,0x40,0x70,0x61,0x72,0x61,0x6d,0x65,0x74,0x65,0x72,0x73,0x5b,0x00,0x6f,0x3b,0x0a,0x07,0x3b,0x0b,0x69,0x00,0x3b,0x0c,0x5b,0x00))
  ShowMessageFace("",0,0,2,9)
  ShowMessage("【客Ｂ】")
  ShowMessage("らめぇぇぇぇぇぇ～～！！")
  RunCommonEvent(104)
  RunCommonEvent(105)
  Wait(60)
  ShowMessageFace("d_succubus_fc1",0,0,2,10)
  ShowMessage("【ナターシャ】")
  ShowMessage("そこのお客さん、ステージにどうぞ……")
  205(1,bytes(0x04,0x08,0x6f,0x3a,0x13,0x52,0x50,0x47,0x3a,0x3a,0x4d,0x6f,0x76,0x65,0x52,0x6f,0x75,0x74,0x65,0x09,0x3a,0x0c,0x40,0x72,0x65,0x70,0x65,0x61,0x74,0x46,0x3a,0x0f,0x40,0x73,0x6b,0x69,0x70,0x70,0x61,0x62,0x6c,0x65,0x46,0x3a,0x0a,0x40,0x77,0x61,0x69,0x74,0x54,0x3a,0x0a,0x40,0x6c,0x69,0x73,0x74,0x5b,0x07,0x6f,0x3a,0x15,0x52,0x50,0x47,0x3a,0x3a,0x4d,0x6f,0x76,0x65,0x43,0x6f,0x6d,0x6d,0x61,0x6e,0x64,0x07,0x3a,0x0a,0x40,0x63,0x6f,0x64,0x65,0x69,0x13,0x3a,0x10,0x40,0x70,0x61,0x72,0x61,0x6d,0x65,0x74,0x65,0x72,0x73,0x5b,0x07,0x69,0x00,0x69,0xf9,0x6f,0x3b,0x0a,0x07,0x3b,0x0b,0x69,0x00,0x3b,0x0c,0x5b,0x00))
  205(35,bytes(0x04,0x08,0x6f,0x3a,0x13,0x52,0x50,0x47,0x3a,0x3a,0x4d,0x6f,0x76,0x65,0x52,0x6f,0x75,0x74,0x65,0x09,0x3a,0x0c,0x40,0x72,0x65,0x70,0x65,0x61,0x74,0x46,0x3a,0x0f,0x40,0x73,0x6b,0x69,0x70,0x70,0x61,0x62,0x6c,0x65,0x46,0x3a,0x0a,0x40,0x77,0x61,0x69,0x74,0x54,0x3a,0x0a,0x40,0x6c,0x69,0x73,0x74,0x5b,0x07,0x6f,0x3a,0x15,0x52,0x50,0x47,0x3a,0x3a,0x4d,0x6f,0x76,0x65,0x43,0x6f,0x6d,0x6d,0x61,0x6e,0x64,0x07,0x3a,0x0a,0x40,0x63,0x6f,0x64,0x65,0x69,0x06,0x3a,0x10,0x40,0x70,0x61,0x72,0x61,0x6d,0x65,0x74,0x65,0x72,0x73,0x5b,0x00,0x6f,0x3b,0x0a,0x07,0x3b,0x0b,0x69,0x00,0x3b,0x0c,0x5b,0x00))
  ShowMessageFace("",0,0,2,11)
  ShowMessage("【客Ｃ】")
  ShowMessage("イっちゃうぅぅぅ～～！！")
  RunCommonEvent(104)
  RunCommonEvent(105)
  Wait(60)
  ShowMessageFace("renccubus_fc1",1,0,2,12)
  ShowMessage("【ニーナ】")
  ShowMessage("そういうわけで……")
  ShowMessage("サキュバスの村にお越しの際は、「姉妹ふれあい牧場」にぜひどうぞ♪")
  ShowMessageFace("minccubus_fc1",2,0,2,13)
  ShowMessage("【セーラ】")
  ShowMessage("待ってるよ～♪")
  ShowMessageFace("",0,0,2,14)
  ShowMessage("ステージは静まり返っている……")
  Wait(30)
  221()
  242(1)
  Wait(60)
  211(1)
  281(1)
  TeleportPlayer(0,624,63,27,6,2)
  ChangeSwitch(2119,2119,0)
  222()
  ShowMessageFace("",0,0,2,15)
  ShowMessage("【支配人】")
  ShowMessage("ステージがミルクまみれだよ。")
  ShowMessage("ちゃんと掃除していってね……")
  If(2,"A",1)
   ChangeSelfSwitch("A",0)
   250(bytes(0x04,0x08,0x6f,0x3a,0x0c,0x52,0x50,0x47,0x3a,0x3a,0x53,0x45,0x08,0x3a,0x0a,0x40,0x6e,0x61,0x6d,0x65,0x49,0x22,0x0a,0x49,0x74,0x65,0x6d,0x31,0x06,0x3a,0x06,0x45,0x54,0x3a,0x0b,0x40,0x70,0x69,0x74,0x63,0x68,0x69,0x69,0x3a,0x0c,0x40,0x76,0x6f,0x6c,0x75,0x6d,0x65,0x69,0x55))
   ChangeInventoryArmor(1482,0,0,1,false)
   0()
  EndIf()
  ChangeSwitch(2119,2119,1)
  EndEventProcessing()
  0()



EVENT   24
 PAGE   1
  // condition: switch 664 is ON
  241(bytes(0x04,0x08,0x6f,0x3a,0x0d,0x52,0x50,0x47,0x3a,0x3a,0x42,0x47,0x4d,0x08,0x3a,0x0a,0x40,0x6e,0x61,0x6d,0x65,0x49,0x22,0x09,0x73,0x61,0x6b,0x69,0x06,0x3a,0x06,0x45,0x54,0x3a,0x0c,0x40,0x76,0x6f,0x6c,0x75,0x6d,0x65,0x69,0x69,0x3a,0x0b,0x40,0x70,0x69,0x74,0x63,0x68,0x69,0x69))
  ShowMessageFace("emily_fc1",1,0,2,1)
  ShowMessage("【エミリ】")
  ShowMessage("抱きしめてあげる♪　指を絡めて心のスミまで♪")
  ShowMessage("抱きしめてあげる♪　唇重ねて問答無用よ♪")
  ShowMessageFace("",0,0,2,2)
  ShowMessage("【客Ａ】")
  ShowMessage("うぉー！　エミリちゃーん！")
  ShowMessageFace("",0,0,2,3)
  ShowMessage("【客Ｂ】")
  ShowMessage("触手かわいいー！")
  ShowMessageFace("cassandra_fc1",5,0,2,4)
  ShowMessage("【カサンドラ】")
  ShowMessage("連れて行ってあげる♪　空の彼方♪")
  ShowMessage("連れて行ってあげる♪　夢の深淵♪")
  ShowMessageFace("",0,0,2,5)
  ShowMessage("【客Ｃ】")
  ShowMessage("ぬぉー！　カサンドラお姉さーん！")
  ShowMessageFace("",0,0,2,6)
  ShowMessage("【客Ｄ】")
  ShowMessage("にゅるにゅる最高ー！")
  ShowMessageFace("maidscyulla_fc1",1,0,2,7)
  ShowMessage("【ラン】")
  ShowMessage("（お二人とも、がんばって下さいませ……）")
  ShowMessageFace("",0,0,2,8)
  ShowMessage("【客Ｅ】")
  ShowMessage("うおー！　ランさーん！！")
  ShowMessageFace("maidscyulla_fc1",3,0,2,9)
  ShowMessage("【ラン】")
  ShowMessage("……なぜ私までが！？")
  ShowMessageFace("saki_fc1",0,0,2,10)
  ShowMessage("【サキ】")
  ShowMessage("みんなで、ユニット組んでみたいよね……♪")
  ShowMessageFace("",0,0,2,11)
  ShowMessage("ステージは大盛況だ！")
  Wait(30)
  221()
  242(1)
  Wait(60)
  211(1)
  281(1)
  TeleportPlayer(0,624,63,27,6,2)
  ChangeSwitch(2119,2119,0)
  222()
  ShowMessageFace("",0,0,2,12)
  ShowMessage("【支配人】")
  ShowMessage("サキちゃんに続く、新アイドルになればいいね。")
  If(2,"A",1)
   ChangeSelfSwitch("A",0)
   250(bytes(0x04,0x08,0x6f,0x3a,0x0c,0x52,0x50,0x47,0x3a,0x3a,0x53,0x45,0x08,0x3a,0x0a,0x40,0x6e,0x61,0x6d,0x65,0x49,0x22,0x0a,0x49,0x74,0x65,0x6d,0x31,0x06,0x3a,0x06,0x45,0x54,0x3a,0x0b,0x40,0x70,0x69,0x74,0x63,0x68,0x69,0x69,0x3a,0x0c,0x40,0x76,0x6f,0x6c,0x75,0x6d,0x65,0x69,0x55))
   ChangeInventoryArmor(1406,0,0,1,false)
   0()
  EndIf()
  ChangeSwitch(2119,2119,1)
  EndEventProcessing()
  0()



EVENT   25
 PAGE   1
  // condition: switch 665 is ON
  241(bytes(0x04,0x08,0x6f,0x3a,0x0d,0x52,0x50,0x47,0x3a,0x3a,0x42,0x47,0x4d,0x08,0x3a,0x0a,0x40,0x6e,0x61,0x6d,0x65,0x49,0x22,0x10,0x73,0x63,0x65,0x6e,0x65,0x5f,0x63,0x6f,0x6d,0x69,0x32,0x06,0x3a,0x06,0x45,0x54,0x3a,0x0c,0x40,0x76,0x6f,0x6c,0x75,0x6d,0x65,0x69,0x69,0x3a,0x0b,0x40,0x70,0x69,0x74,0x63,0x68,0x69,0x69))
  ShowMessageFace("queenelf_fc1",0,0,2,1)
  ShowMessage("【フレイヤ】")
  ShowMessage("「エルフは淫乱」などという中傷が、なぜ流れているのか……")
  ShowMessage("サン、調査は進んでいますか？")
  205(41,bytes(0x04,0x08,0x6f,0x3a,0x13,0x52,0x50,0x47,0x3a,0x3a,0x4d,0x6f,0x76,0x65,0x52,0x6f,0x75,0x74,0x65,0x09,0x3a,0x0c,0x40,0x72,0x65,0x70,0x65,0x61,0x74,0x46,0x3a,0x0f,0x40,0x73,0x6b,0x69,0x70,0x70,0x61,0x62,0x6c,0x65,0x46,0x3a,0x0a,0x40,0x77,0x61,0x69,0x74,0x46,0x3a,0x0a,0x40,0x6c,0x69,0x73,0x74,0x5b,0x07,0x6f,0x3a,0x15,0x52,0x50,0x47,0x3a,0x3a,0x4d,0x6f,0x76,0x65,0x43,0x6f,0x6d,0x6d,0x61,0x6e,0x64,0x07,0x3a,0x0a,0x40,0x63,0x6f,0x64,0x65,0x69,0x17,0x3a,0x10,0x40,0x70,0x61,0x72,0x61,0x6d,0x65,0x74,0x65,0x72,0x73,0x5b,0x00,0x6f,0x3b,0x0a,0x07,0x3b,0x0b,0x69,0x00,0x3b,0x0c,0x5b,0x00))
  205(42,bytes(0x04,0x08,0x6f,0x3a,0x13,0x52,0x50,0x47,0x3a,0x3a,0x4d,0x6f,0x76,0x65,0x52,0x6f,0x75,0x74,0x65,0x09,0x3a,0x0c,0x40,0x72,0x65,0x70,0x65,0x61,0x74,0x46,0x3a,0x0f,0x40,0x73,0x6b,0x69,0x70,0x70,0x61,0x62,0x6c,0x65,0x46,0x3a,0x0a,0x40,0x77,0x61,0x69,0x74,0x54,0x3a,0x0a,0x40,0x6c,0x69,0x73,0x74,0x5b,0x07,0x6f,0x3a,0x15,0x52,0x50,0x47,0x3a,0x3a,0x4d,0x6f,0x76,0x65,0x43,0x6f,0x6d,0x6d,0x61,0x6e,0x64,0x07,0x3a,0x0a,0x40,0x63,0x6f,0x64,0x65,0x69,0x16,0x3a,0x10,0x40,0x70,0x61,0x72,0x61,0x6d,0x65,0x74,0x65,0x72,0x73,0x5b,0x00,0x6f,0x3b,0x0a,0x07,0x3b,0x0b,0x69,0x00,0x3b,0x0c,0x5b,0x00))
  ShowMessageFace("amazoneself_fc1",0,0,2,2)
  ShowMessage("【サン】")
  ShowMessage("客席にいた人間の一人を尋問しましたが……")
  ShowMessage("噂の出所に関して、まったく吐きませんね。")
  ShowMessageFace("queenelf_fc1",0,0,2,3)
  ShowMessage("【フレイヤ】")
  ShowMessage("そうですか……その男に罰を与えなさい。")
  ShowMessage("音を上げるまで、犯してやるのです。")
  205(42,bytes(0x04,0x08,0x6f,0x3a,0x13,0x52,0x50,0x47,0x3a,0x3a,0x4d,0x6f,0x76,0x65,0x52,0x6f,0x75,0x74,0x65,0x09,0x3a,0x0c,0x40,0x72,0x65,0x70,0x65,0x61,0x74,0x46,0x3a,0x0f,0x40,0x73,0x6b,0x69,0x70,0x70,0x61,0x62,0x6c,0x65,0x46,0x3a,0x0a,0x40,0x77,0x61,0x69,0x74,0x54,0x3a,0x0a,0x40,0x6c,0x69,0x73,0x74,0x5b,0x07,0x6f,0x3a,0x15,0x52,0x50,0x47,0x3a,0x3a,0x4d,0x6f,0x76,0x65,0x43,0x6f,0x6d,0x6d,0x61,0x6e,0x64,0x07,0x3a,0x0a,0x40,0x63,0x6f,0x64,0x65,0x69,0x17,0x3a,0x10,0x40,0x70,0x61,0x72,0x61,0x6d,0x65,0x74,0x65,0x72,0x73,0x5b,0x00,0x6f,0x3b,0x0a,0x07,0x3b,0x0b,0x69,0x00,0x3b,0x0c,0x5b,0x00))
  ShowMessageFace("amazoneself_fc1",1,0,2,4)
  ShowMessage("【サン】")
  ShowMessage("了解！　ほら、いくよ！")
  ShowMessageFace("",0,0,2,5)
  ShowMessage("【客Ａ】")
  ShowMessage("ひぁぁぁぁぁ……！！")
  205(41,bytes(0x04,0x08,0x6f,0x3a,0x13,0x52,0x50,0x47,0x3a,0x3a,0x4d,0x6f,0x76,0x65,0x52,0x6f,0x75,0x74,0x65,0x09,0x3a,0x0c,0x40,0x72,0x65,0x70,0x65,0x61,0x74,0x46,0x3a,0x0f,0x40,0x73,0x6b,0x69,0x70,0x70,0x61,0x62,0x6c,0x65,0x46,0x3a,0x0a,0x40,0x77,0x61,0x69,0x74,0x46,0x3a,0x0a,0x40,0x6c,0x69,0x73,0x74,0x5b,0x07,0x6f,0x3a,0x15,0x52,0x50,0x47,0x3a,0x3a,0x4d,0x6f,0x76,0x65,0x43,0x6f,0x6d,0x6d,0x61,0x6e,0x64,0x07,0x3a,0x0a,0x40,0x63,0x6f,0x64,0x65,0x69,0x16,0x3a,0x10,0x40,0x70,0x61,0x72,0x61,0x6d,0x65,0x74,0x65,0x72,0x73,0x5b,0x00,0x6f,0x3b,0x0a,0x07,0x3b,0x0b,0x69,0x00,0x3b,0x0c,0x5b,0x00))
  ShowMessageFace("queenelf_fc1",0,0,2,6)
  ShowMessage("【フレイヤ】")
  ShowMessage("クローディア、そちらはどうです？")
  ShowMessage("噂の出所は分かりましたか？")
  205(43,bytes(0x04,0x08,0x6f,0x3a,0x13,0x52,0x50,0x47,0x3a,0x3a,0x4d,0x6f,0x76,0x65,0x52,0x6f,0x75,0x74,0x65,0x09,0x3a,0x0c,0x40,0x72,0x65,0x70,0x65,0x61,0x74,0x46,0x3a,0x0f,0x40,0x73,0x6b,0x69,0x70,0x70,0x61,0x62,0x6c,0x65,0x46,0x3a,0x0a,0x40,0x77,0x61,0x69,0x74,0x54,0x3a,0x0a,0x40,0x6c,0x69,0x73,0x74,0x5b,0x07,0x6f,0x3a,0x15,0x52,0x50,0x47,0x3a,0x3a,0x4d,0x6f,0x76,0x65,0x43,0x6f,0x6d,0x6d,0x61,0x6e,0x64,0x07,0x3a,0x0a,0x40,0x63,0x6f,0x64,0x65,0x69,0x17,0x3a,0x10,0x40,0x70,0x61,0x72,0x61,0x6d,0x65,0x74,0x65,0x72,0x73,0x5b,0x00,0x6f,0x3b,0x0a,0x07,0x3b,0x0b,0x69,0x00,0x3b,0x0c,0x5b,0x00))
  ShowMessageFace("elf_fc1",0,0,2,7)
  ShowMessage("【クローディア】")
  ShowMessage("客席の一人を尋問したところ……")
  ShowMessage("魔物図鑑の著者が怪しいのではないか、という説を聞きました。")
  ShowMessageFace("queenelf_fc1",0,0,2,8)
  ShowMessage("【フレイヤ】")
  ShowMessage("そうですか……その男に褒美を与えなさい。")
  ShowMessage("甘い快楽を与え、協力をねぎらってやるのです。")
  205(43,bytes(0x04,0x08,0x6f,0x3a,0x13,0x52,0x50,0x47,0x3a,0x3a,0x4d,0x6f,0x76,0x65,0x52,0x6f,0x75,0x74,0x65,0x09,0x3a,0x0c,0x40,0x72,0x65,0x70,0x65,0x61,0x74,0x46,0x3a,0x0f,0x40,0x73,0x6b,0x69,0x70,0x70,0x61,0x62,0x6c,0x65,0x46,0x3a,0x0a,0x40,0x77,0x61,0x69,0x74,0x54,0x3a,0x0a,0x40,0x6c,0x69,0x73,0x74,0x5b,0x07,0x6f,0x3a,0x15,0x52,0x50,0x47,0x3a,0x3a,0x4d,0x6f,0x76,0x65,0x43,0x6f,0x6d,0x6d,0x61,0x6e,0x64,0x07,0x3a,0x0a,0x40,0x63,0x6f,0x64,0x65,0x69,0x16,0x3a,0x10,0x40,0x70,0x61,0x72,0x61,0x6d,0x65,0x74,0x65,0x72,0x73,0x5b,0x00,0x6f,0x3b,0x0a,0x07,0x3b,0x0b,0x69,0x00,0x3b,0x0c,0x5b,0x00))
  ShowMessageFace("elf_fc1",1,0,2,9)
  ShowMessage("【クローディア】")
  ShowMessage("そういうわけで、たっぷり犯してあげるわ……♪")
  ShowMessageFace("",0,0,2,10)
  ShowMessage("【客Ｂ】")
  ShowMessage("ふぁぁぁぁぁぁ～～！！")
  205(41,bytes(0x04,0x08,0x6f,0x3a,0x13,0x52,0x50,0x47,0x3a,0x3a,0x4d,0x6f,0x76,0x65,0x52,0x6f,0x75,0x74,0x65,0x09,0x3a,0x0c,0x40,0x72,0x65,0x70,0x65,0x61,0x74,0x46,0x3a,0x0f,0x40,0x73,0x6b,0x69,0x70,0x70,0x61,0x62,0x6c,0x65,0x46,0x3a,0x0a,0x40,0x77,0x61,0x69,0x74,0x46,0x3a,0x0a,0x40,0x6c,0x69,0x73,0x74,0x5b,0x07,0x6f,0x3a,0x15,0x52,0x50,0x47,0x3a,0x3a,0x4d,0x6f,0x76,0x65,0x43,0x6f,0x6d,0x6d,0x61,0x6e,0x64,0x07,0x3a,0x0a,0x40,0x63,0x6f,0x64,0x65,0x69,0x15,0x3a,0x10,0x40,0x70,0x61,0x72,0x61,0x6d,0x65,0x74,0x65,0x72,0x73,0x5b,0x00,0x6f,0x3b,0x0a,0x07,0x3b,0x0b,0x69,0x00,0x3b,0x0c,0x5b,0x00))
  ShowMessageFace("queenelf_fc1",0,0,2,11)
  ShowMessage("【フレイヤ】")
  ShowMessage("いったいなぜ……")
  ShowMessage("誰の陰謀で、「エルフは淫乱」などという風評が……")
  ShowMessageFace("",0,0,2,12)
  ShowMessage("【客Ｃ】")
  ShowMessage("（やっぱりエルフは淫乱だぜ……）")
  ShowMessageFace("",0,0,2,13)
  ShowMessage("ステージは静まり返っている……")
  Wait(30)
  221()
  242(1)
  Wait(60)
  211(1)
  281(1)
  TeleportPlayer(0,624,63,27,6,2)
  ChangeSwitch(2119,2119,0)
  222()
  ShowMessageFace("",0,0,2,14)
  ShowMessage("【支配人】")
  ShowMessage("（やっぱりエルフは淫乱だな……）")
  If(2,"A",1)
   ChangeSelfSwitch("A",0)
   250(bytes(0x04,0x08,0x6f,0x3a,0x0c,0x52,0x50,0x47,0x3a,0x3a,0x53,0x45,0x08,0x3a,0x0a,0x40,0x6e,0x61,0x6d,0x65,0x49,0x22,0x0a,0x49,0x74,0x65,0x6d,0x31,0x06,0x3a,0x06,0x45,0x54,0x3a,0x0b,0x40,0x70,0x69,0x74,0x63,0x68,0x69,0x69,0x3a,0x0c,0x40,0x76,0x6f,0x6c,0x75,0x6d,0x65,0x69,0x55))
   ChangeInventory_Item(21,0,0,10)
   ChangeInventory_Item(33,0,0,3)
   0()
  EndIf()
  ChangeSwitch(2119,2119,1)
  EndEventProcessing()
  0()



EVENT   26
 PAGE   1
  // condition: switch 666 is ON
  241(bytes(0x04,0x08,0x6f,0x3a,0x0d,0x52,0x50,0x47,0x3a,0x3a,0x42,0x47,0x4d,0x08,0x3a,0x0a,0x40,0x6e,0x61,0x6d,0x65,0x49,0x22,0x0b,0x73,0x74,0x61,0x67,0x65,0x34,0x06,0x3a,0x06,0x45,0x54,0x3a,0x0c,0x40,0x76,0x6f,0x6c,0x75,0x6d,0x65,0x69,0x69,0x3a,0x0b,0x40,0x70,0x69,0x74,0x63,0x68,0x69,0x69))
  ShowMessageFace("queenfairy_fc1",0,0,2,1)
  ShowMessage("【エアリー】")
  ShowMessage("おや、綺麗な花ですね……")
  205(44,bytes(0x04,0x08,0x6f,0x3a,0x13,0x52,0x50,0x47,0x3a,0x3a,0x4d,0x6f,0x76,0x65,0x52,0x6f,0x75,0x74,0x65,0x09,0x3a,0x0c,0x40,0x72,0x65,0x70,0x65,0x61,0x74,0x46,0x3a,0x0f,0x40,0x73,0x6b,0x69,0x70,0x70,0x61,0x62,0x6c,0x65,0x46,0x3a,0x0a,0x40,0x77,0x61,0x69,0x74,0x54,0x3a,0x0a,0x40,0x6c,0x69,0x73,0x74,0x5b,0x09,0x6f,0x3a,0x15,0x52,0x50,0x47,0x3a,0x3a,0x4d,0x6f,0x76,0x65,0x43,0x6f,0x6d,0x6d,0x61,0x6e,0x64,0x07,0x3a,0x0a,0x40,0x63,0x6f,0x64,0x65,0x69,0x06,0x3a,0x10,0x40,0x70,0x61,0x72,0x61,0x6d,0x65,0x74,0x65,0x72,0x73,0x5b,0x00,0x6f,0x3b,0x0a,0x07,0x3b,0x0b,0x69,0x06,0x3b,0x0c,0x5b,0x00,0x6f,0x3b,0x0a,0x07,0x3b,0x0b,0x69,0x06,0x3b,0x0c,0x5b,0x00,0x6f,0x3b,0x0a,0x07,0x3b,0x0b,0x69,0x00,0x3b,0x0c,0x5b,0x00))
  ShowMessageFace("fairys_fc1",3,0,2,2)
  ShowMessage("【フェアリーズ】")
  ShowMessage("おとしあな～♪")
  ChangeSwitch(31,31,0)
  205(44,bytes(0x04,0x08,0x6f,0x3a,0x13,0x52,0x50,0x47,0x3a,0x3a,0x4d,0x6f,0x76,0x65,0x52,0x6f,0x75,0x74,0x65,0x09,0x3a,0x0c,0x40,0x72,0x65,0x70,0x65,0x61,0x74,0x46,0x3a,0x0f,0x40,0x73,0x6b,0x69,0x70,0x70,0x61,0x62,0x6c,0x65,0x46,0x3a,0x0a,0x40,0x77,0x61,0x69,0x74,0x46,0x3a,0x0a,0x40,0x6c,0x69,0x73,0x74,0x5b,0x07,0x6f,0x3a,0x15,0x52,0x50,0x47,0x3a,0x3a,0x4d,0x6f,0x76,0x65,0x43,0x6f,0x6d,0x6d,0x61,0x6e,0x64,0x07,0x3a,0x0a,0x40,0x63,0x6f,0x64,0x65,0x69,0x13,0x3a,0x10,0x40,0x70,0x61,0x72,0x61,0x6d,0x65,0x74,0x65,0x72,0x73,0x5b,0x07,0x69,0x00,0x69,0xf9,0x6f,0x3b,0x0a,0x07,0x3b,0x0b,0x69,0x00,0x3b,0x0c,0x5b,0x00))
  ShowMessageFace("queenfairy_fc1",0,0,2,3)
  ShowMessage("【エアリー】")
  ShowMessage("……甘い！")
  ShowMessageFace("trickfairy_fc1",2,0,2,4)
  ShowMessage("【シシリー】")
  ShowMessage("か、かわした――！")
  250(bytes(0x04,0x08,0x6f,0x3a,0x0c,0x52,0x50,0x47,0x3a,0x3a,0x53,0x45,0x08,0x3a,0x0a,0x40,0x6e,0x61,0x6d,0x65,0x49,0x22,0x0e,0x6d,0x6f,0x6e,0x5f,0x66,0x61,0x6c,0x6c,0x31,0x06,0x3a,0x06,0x45,0x54,0x3a,0x0b,0x40,0x70,0x69,0x74,0x63,0x68,0x69,0x69,0x3a,0x0c,0x40,0x76,0x6f,0x6c,0x75,0x6d,0x65,0x69,0x69))
  ChangeSwitch(32,32,0)
  ShowMessageFace("fairys_fc1",2,0,2,5)
  ShowMessage("【フェアリー】")
  ShowMessage("うわー！")
  ShowMessageFace("queenfairy_fc1",0,0,2,6)
  ShowMessage("【エアリー】")
  ShowMessage("おとしあな～♪")
  Wait(60)
  ShowMessageFace("",0,0,2,7)
  ShowMessage("【客Ａ】")
  ShowMessage("流石は妖精の女王だ……")
  ShowMessageFace("",0,0,2,8)
  ShowMessage("ステージはそれなりに盛り上がっている！")
  Wait(30)
  221()
  242(1)
  Wait(60)
  211(1)
  281(1)
  TeleportPlayer(0,624,63,27,6,2)
  ChangeSwitch(2119,2119,0)
  ChangeSwitch(31,31,1)
  ChangeSwitch(32,32,1)
  222()
  ShowMessageFace(binary"",0,0,2,9)
  ShowMessage("【支配人】")
  ShowMessage("ステージが落とし穴だらけだよ……")
  If(2,"A",1)
   ChangeSelfSwitch("A",0)
   250(bytes(0x04,0x08,0x6f,0x3a,0x0c,0x52,0x50,0x47,0x3a,0x3a,0x53,0x45,0x08,0x3a,0x0a,0x40,0x6e,0x61,0x6d,0x65,0x49,0x22,0x0a,0x49,0x74,0x65,0x6d,0x31,0x06,0x3a,0x06,0x45,0x54,0x3a,0x0b,0x40,0x70,0x69,0x74,0x63,0x68,0x69,0x69,0x3a,0x0c,0x40,0x76,0x6f,0x6c,0x75,0x6d,0x65,0x69,0x55))
   ChangeInventoryArmor(1538,0,0,1,false)
   0()
  EndIf()
  ChangeSwitch(2119,2119,1)
  EndEventProcessing()
  0()



EVENT   27
 PAGE   1
  // condition: switch 667 is ON
  241(bytes(0x04,0x08,0x6f,0x3a,0x0d,0x52,0x50,0x47,0x3a,0x3a,0x42,0x47,0x4d,0x08,0x3a,0x0a,0x40,0x6e,0x61,0x6d,0x65,0x49,0x22,0x09,0x73,0x61,0x6b,0x69,0x06,0x3a,0x06,0x45,0x54,0x3a,0x0c,0x40,0x76,0x6f,0x6c,0x75,0x6d,0x65,0x69,0x69,0x3a,0x0b,0x40,0x70,0x69,0x74,0x63,0x68,0x69,0x69))
  212(-1,38,false)
  ShowMessageFace("queenalraune_fc1",4,0,2,1)
  ShowMessage("【アルルーナ】")
  ShowMessage("抱きしめてあげる♪　指を絡めて心のスミまで♪")
  ShowMessageFace("",0,0,2,2)
  ShowMessage("【客Ａ】")
  ShowMessage("アルルーナさまぁぁぁぁ！！")
  ShowMessageFace("",0,0,2,3)
  ShowMessage("【客Ｂ】")
  ShowMessage("はぅぅぅ……頭がとろけるぅ……")
  212(-1,38,false)
  ShowMessageFace("queenalraune_fc1",4,0,2,4)
  ShowMessage("【アルルーナ】")
  ShowMessage("抱きしめてあげる♪　唇重ねて問答無用よ♪")
  ShowMessageFace("alraune_fc1",2,0,2,5)
  ShowMessage("【フローラ】")
  ShowMessage("アルルーナ様、素敵ですー♪")
  ShowMessageFace("dryad_fc1",1,0,2,6)
  ShowMessage("【ドリア】")
  ShowMessage("うふふっ、あんなに楽しそうな前女王様は初めてです。")
  ShowMessage("スタアになるのが、念願でしたからね……")
  212(-1,38,false)
  ShowMessageFace("queenalraune_fc1",4,0,2,7)
  ShowMessage("【アルルーナ】")
  ShowMessage("連れて行ってあげる♪　空の彼方♪")
  ShowMessageFace("",0,0,2,8)
  ShowMessage("【客Ｃ】")
  ShowMessage("あぁぁ……花の匂いがすごいよぉ……")
  ShowMessageFace("",0,0,2,9)
  ShowMessage("【客Ｄ】")
  ShowMessage("アルルーナ様、吸ってぇ……吸い尽くしてぇ……")
  212(-1,38,false)
  ShowMessageFace("queenalraune_fc1",4,0,2,10)
  ShowMessage("【アルルーナ】")
  ShowMessage("連れて行ってあげる♪　夢の深淵♪")
  ShowMessageFace("f_alraune_fc1",0,0,2,11)
  ShowMessage("【アリア】")
  ShowMessage("これ、魔香で誘惑してない……？")
  ShowMessageFace("f_dryad_fc1",0,0,2,12)
  ShowMessage("【ラシェル】")
  ShowMessage("トップアイドル、間違いなしですね……♪")
  ShowMessageFace("",0,0,2,13)
  ShowMessage("ステージは大盛況だ！")
  Wait(30)
  221()
  242(1)
  Wait(60)
  211(1)
  281(1)
  TeleportPlayer(0,624,63,27,6,2)
  ChangeSwitch(2119,2119,0)
  222()
  ShowMessageFace("",0,0,2,14)
  ShowMessage("【支配人】")
  ShowMessage("アルルーナさま～♪")
  If(2,"A",1)
   ChangeSelfSwitch("A",0)
   250(bytes(0x04,0x08,0x6f,0x3a,0x0c,0x52,0x50,0x47,0x3a,0x3a,0x53,0x45,0x08,0x3a,0x0a,0x40,0x6e,0x61,0x6d,0x65,0x49,0x22,0x0a,0x49,0x74,0x65,0x6d,0x31,0x06,0x3a,0x06,0x45,0x54,0x3a,0x0b,0x40,0x70,0x69,0x74,0x63,0x68,0x69,0x69,0x3a,0x0c,0x40,0x76,0x6f,0x6c,0x75,0x6d,0x65,0x69,0x55))
   ChangeInventoryArmor(1409,0,0,1,false)
   0()
  EndIf()
  ChangeSwitch(2119,2119,1)
  EndEventProcessing()
  0()



EVENT   28
 PAGE   1
  // condition: switch 668 is ON
  241(bytes(0x04,0x08,0x6f,0x3a,0x0d,0x52,0x50,0x47,0x3a,0x3a,0x42,0x47,0x4d,0x08,0x3a,0x0a,0x40,0x6e,0x61,0x6d,0x65,0x49,0x22,0x0b,0x73,0x74,0x61,0x67,0x65,0x34,0x06,0x3a,0x06,0x45,0x54,0x3a,0x0c,0x40,0x76,0x6f,0x6c,0x75,0x6d,0x65,0x69,0x69,0x3a,0x0b,0x40,0x70,0x69,0x74,0x63,0x68,0x69,0x69))
  ShowMessageFace("queenhapy_fc1",2,0,2,1)
  ShowMessage("【ルクレツィア】")
  ShowMessage("さあ皆さん、踊りましょう♪")
  ShowMessageFace("hapy_a_fc1",0,0,2,2)
  ShowMessage("【レイナ】")
  ShowMessage("わ～い♪")
  ShowMessageFace("hapy_bc_fc1",1,0,2,3)
  ShowMessage("【ピナ＆ピィ】")
  ShowMessage("ららら～♪")
  ShowMessageFace("queenhapy_fc1",2,0,2,4)
  ShowMessage("【ルクレツィア】")
  ShowMessage("まだまだ、激しくいきますよ♪")
  ShowMessageFace("w_hapy_fc1",0,0,2,5)
  ShowMessage("【つばさ】")
  ShowMessage("ダンス、ダンス……♪")
  ShowMessageFace("k_hapy_fc1",0,0,2,6)
  ShowMessage("【クリス】")
  ShowMessage("いざ、激しく舞い踊らん！")
  ShowMessageFace("queenhapy_fc1",2,0,2,7)
  ShowMessage("【ルクレツィア】")
  ShowMessage("客席の皆さんも、ご一緒に♪")
  ShowMessageFace("",0,0,2,8)
  ShowMessage("【客Ａ】")
  ShowMessage("ららら～♪")
  ShowMessageFace("",0,0,2,9)
  ShowMessage("【客Ｂ】")
  ShowMessage("ヘイッ♪　ヘイッ♪")
  ShowMessageFace("",0,0,2,10)
  ShowMessage("ステージは大盛況だ！")
  Wait(30)
  221()
  242(1)
  Wait(60)
  211(1)
  281(1)
  TeleportPlayer(0,624,63,27,6,2)
  ChangeSwitch(2119,2119,0)
  222()
  ShowMessageFace("",0,0,2,11)
  ShowMessage("【支配人】")
  ShowMessage("お客さんが踊りっぱなしで、帰ってくれないんだけど……")
  If(2,"A",1)
   ChangeSelfSwitch("A",0)
   250(bytes(0x04,0x08,0x6f,0x3a,0x0c,0x52,0x50,0x47,0x3a,0x3a,0x53,0x45,0x08,0x3a,0x0a,0x40,0x6e,0x61,0x6d,0x65,0x49,0x22,0x0a,0x49,0x74,0x65,0x6d,0x31,0x06,0x3a,0x06,0x45,0x54,0x3a,0x0b,0x40,0x70,0x69,0x74,0x63,0x68,0x69,0x69,0x3a,0x0c,0x40,0x76,0x6f,0x6c,0x75,0x6d,0x65,0x69,0x55))
   ChangeInventoryArmor(1337,0,0,1,false)
   0()
  EndIf()
  ChangeSwitch(2119,2119,1)
  EndEventProcessing()
  0()



EVENT   29
 PAGE   1
  // condition: switch 669 is ON
  241(bytes(0x04,0x08,0x6f,0x3a,0x0d,0x52,0x50,0x47,0x3a,0x3a,0x42,0x47,0x4d,0x08,0x3a,0x0a,0x40,0x6e,0x61,0x6d,0x65,0x49,0x22,0x13,0x73,0x63,0x65,0x6e,0x65,0x5f,0x6f,0x64,0x61,0x79,0x61,0x6b,0x61,0x31,0x06,0x3a,0x06,0x45,0x54,0x3a,0x0c,0x40,0x76,0x6f,0x6c,0x75,0x6d,0x65,0x69,0x69,0x3a,0x0b,0x40,0x70,0x69,0x74,0x63,0x68,0x69,0x69))
  ShowMessageFace("ningyohime_fc1",4,0,2,1)
  ShowMessage("【エル】")
  ShowMessage("わぁ、お客さんがいっぱいだぁ……")
  ShowMessageFace("",0,0,2,2)
  ShowMessage("【男性客】")
  ShowMessage("おお、人魚姫だ！")
  ShowMessageFace("",0,0,2,3)
  ShowMessage("【女性客】")
  ShowMessage("かわい～♪")
  ShowMessageFace("queenmermaid_fc1",0,0,2,4)
  ShowMessage("【ローラ】")
  ShowMessage("好きなようにお遊戯しなさい、エル……")
  ShowMessageFace("g_marmaid_fc1",0,0,2,5)
  ShowMessage("【ジェシー】")
  ShowMessage("ファイトです、エル様！")
  ShowMessageFace("loreley_fc1",0,0,2,6)
  ShowMessage("【ハイネ】")
  ShowMessage("がんばって……")
  ShowMessageFace("ningyohime_fc1",4,0,2,7)
  ShowMessage("【エル】")
  ShowMessage("それじゃあ、歌うよ！")
  212(60,724,false)
  212(3,724,false)
  212(6,724,false)
  ShowMessageFace("ningyohime_fc1",5,0,2,8)
  ShowMessage("【エル】")
  ShowMessage("海は～♪　ひろいな～♪　おおき～い～な～♪")
  ShowMessageFace("",0,0,2,9)
  ShowMessage("【客Ａ】")
  ShowMessage("ふぁぁぁ……人魚姫ちゃん、かわいいよぉ……")
  ShowMessageFace("",0,0,2,10)
  ShowMessage("【客Ｂ】")
  ShowMessage("この命、人魚様のために！")
  ShowMessageFace("queenmermaid_fc1",0,0,2,11)
  ShowMessage("【ローラ】")
  ShowMessage("（これでまた、人魚シンパが増えたわね……）")
  ShowMessageFace("",0,0,2,12)
  ShowMessage("ステージは大盛況だ！")
  Wait(30)
  221()
  242(1)
  Wait(60)
  211(1)
  281(1)
  TeleportPlayer(0,624,63,27,6,2)
  ChangeSwitch(2119,2119,0)
  222()
  ShowMessageFace("",0,0,2,13)
  ShowMessage("【支配人】")
  ShowMessage("っへへ、うぇっへっへっへっへ……")
  ShowMessage("人魚姫ちゃん、人魚姫ちゃん……おじさん、おじさんねぇ……")
  ShowMessageFace("ningyohime_fc2",0,0,2,14)
  ShowMessage("【エル】")
  ShowMessage("何、このヒト……気持ち悪いよ～！")
  If(2,"A",1)
   ChangeSelfSwitch("A",0)
   250(bytes(0x04,0x08,0x6f,0x3a,0x0c,0x52,0x50,0x47,0x3a,0x3a,0x53,0x45,0x08,0x3a,0x0a,0x40,0x6e,0x61,0x6d,0x65,0x49,0x22,0x0a,0x49,0x74,0x65,0x6d,0x31,0x06,0x3a,0x06,0x45,0x54,0x3a,0x0b,0x40,0x70,0x69,0x74,0x63,0x68,0x69,0x69,0x3a,0x0c,0x40,0x76,0x6f,0x6c,0x75,0x6d,0x65,0x69,0x55))
   ChangeInventoryArmor(1328,0,0,1,false)
   0()
  EndIf()
  ChangeSwitch(2119,2119,1)
  EndEventProcessing()
  0()



EVENT   30
 PAGE   1
  // condition: switch 670 is ON
  241(bytes(0x04,0x08,0x6f,0x3a,0x0d,0x52,0x50,0x47,0x3a,0x3a,0x42,0x47,0x4d,0x08,0x3a,0x0a,0x40,0x6e,0x61,0x6d,0x65,0x49,0x22,0x10,0x73,0x63,0x65,0x6e,0x65,0x5f,0x63,0x6f,0x6d,0x69,0x32,0x06,0x3a,0x06,0x45,0x54,0x3a,0x0c,0x40,0x76,0x6f,0x6c,0x75,0x6d,0x65,0x69,0x69,0x3a,0x0b,0x40,0x70,0x69,0x74,0x63,0x68,0x69,0x69))
  ShowMessageFace("alakneload_fc1",1,0,2,1)
  ShowMessage("【アラーニェ】")
  ShowMessage("おお、なんという数の人間だ……")
  ShowMessage("これ全部、餌食にして良いのか？")
  ShowMessageFace("tutigumo_fc1",2,0,2,2)
  ShowMessage("【ミズキ】")
  ShowMessage("良いわけがないでしょう……")
  ShowMessageFace("kumonomiko_fc1",0,0,2,3)
  ShowMessage("【蜘蛛之皇女】")
  ShowMessage("その通り、粗野な真似はするでない。")
  ShowMessage("餌食にして良いのは、一人につき人間一人までだ。")
  ShowMessageFace("arachnes_fc1",0,0,2,4)
  ShowMessage("【アラクネーズ】")
  ShowMessage("じゃあ、あたし達は三人餌食にしていいんだね～♪")
  ShowMessageFace("atlach_fc1",0,0,2,5)
  ShowMessage("【ナクア】")
  ShowMessage("いいえ、あなた達は三人で人間一人……")
  ShowMessageFace("arachnes_fc1",2,0,2,6)
  ShowMessage("【アラクネーズ】")
  ShowMessage("なんでぇ！？　ひど～い！")
  ShowMessageFace("kumonomiko_fc1",0,0,2,7)
  ShowMessage("【蜘蛛之皇女】")
  ShowMessage("やれやれ、仕方あるまい……")
  ShowMessage("お前達も、一人一体にするがいい。")
  ShowMessageFace("arachnes_fc2",1,0,2,8)
  ShowMessage("【アラクネーズＡ】")
  ShowMessage("やった～！")
  205(68,bytes(0x04,0x08,0x6f,0x3a,0x13,0x52,0x50,0x47,0x3a,0x3a,0x4d,0x6f,0x76,0x65,0x52,0x6f,0x75,0x74,0x65,0x09,0x3a,0x0c,0x40,0x72,0x65,0x70,0x65,0x61,0x74,0x46,0x3a,0x0f,0x40,0x73,0x6b,0x69,0x70,0x70,0x61,0x62,0x6c,0x65,0x46,0x3a,0x0a,0x40,0x77,0x61,0x69,0x74,0x46,0x3a,0x0a,0x40,0x6c,0x69,0x73,0x74,0x5b,0x07,0x6f,0x3a,0x15,0x52,0x50,0x47,0x3a,0x3a,0x4d,0x6f,0x76,0x65,0x43,0x6f,0x6d,0x6d,0x61,0x6e,0x64,0x07,0x3a,0x0a,0x40,0x63,0x6f,0x64,0x65,0x69,0x13,0x3a,0x10,0x40,0x70,0x61,0x72,0x61,0x6d,0x65,0x74,0x65,0x72,0x73,0x5b,0x07,0x69,0x00,0x69,0x08,0x6f,0x3b,0x0a,0x07,0x3b,0x0b,0x69,0x00,0x3b,0x0c,0x5b,0x00))
  205(69,bytes(0x04,0x08,0x6f,0x3a,0x13,0x52,0x50,0x47,0x3a,0x3a,0x4d,0x6f,0x76,0x65,0x52,0x6f,0x75,0x74,0x65,0x09,0x3a,0x0c,0x40,0x72,0x65,0x70,0x65,0x61,0x74,0x46,0x3a,0x0f,0x40,0x73,0x6b,0x69,0x70,0x70,0x61,0x62,0x6c,0x65,0x46,0x3a,0x0a,0x40,0x77,0x61,0x69,0x74,0x46,0x3a,0x0a,0x40,0x6c,0x69,0x73,0x74,0x5b,0x07,0x6f,0x3a,0x15,0x52,0x50,0x47,0x3a,0x3a,0x4d,0x6f,0x76,0x65,0x43,0x6f,0x6d,0x6d,0x61,0x6e,0x64,0x07,0x3a,0x0a,0x40,0x63,0x6f,0x64,0x65,0x69,0x13,0x3a,0x10,0x40,0x70,0x61,0x72,0x61,0x6d,0x65,0x74,0x65,0x72,0x73,0x5b,0x07,0x69,0x00,0x69,0x07,0x6f,0x3b,0x0a,0x07,0x3b,0x0b,0x69,0x00,0x3b,0x0c,0x5b,0x00))
  205(66,bytes(0x04,0x08,0x6f,0x3a,0x13,0x52,0x50,0x47,0x3a,0x3a,0x4d,0x6f,0x76,0x65,0x52,0x6f,0x75,0x74,0x65,0x09,0x3a,0x0c,0x40,0x72,0x65,0x70,0x65,0x61,0x74,0x46,0x3a,0x0f,0x40,0x73,0x6b,0x69,0x70,0x70,0x61,0x62,0x6c,0x65,0x46,0x3a,0x0a,0x40,0x77,0x61,0x69,0x74,0x46,0x3a,0x0a,0x40,0x6c,0x69,0x73,0x74,0x5b,0x07,0x6f,0x3a,0x15,0x52,0x50,0x47,0x3a,0x3a,0x4d,0x6f,0x76,0x65,0x43,0x6f,0x6d,0x6d,0x61,0x6e,0x64,0x07,0x3a,0x0a,0x40,0x63,0x6f,0x64,0x65,0x69,0x13,0x3a,0x10,0x40,0x70,0x61,0x72,0x61,0x6d,0x65,0x74,0x65,0x72,0x73,0x5b,0x07,0x69,0x00,0x69,0x09,0x6f,0x3b,0x0a,0x07,0x3b,0x0b,0x69,0x00,0x3b,0x0c,0x5b,0x00))
  ShowMessageFace("arachnes_fc3",1,0,2,9)
  ShowMessage("【アラクネーズＢ】")
  ShowMessage("ライブでダ～イブ！")
  ShowMessageFace("",0,0,2,10)
  ShowMessage("【客Ａ】")
  ShowMessage("うわー！")
  ShowMessageFace("",0,0,2,11)
  ShowMessage("【客Ｂ】")
  ShowMessage("たすけてくれー！")
  ShowMessageFace("",0,0,2,12)
  ShowMessage("ステージは大混乱だ！")
  Wait(30)
  221()
  242(1)
  Wait(60)
  211(1)
  281(1)
  TeleportPlayer(0,624,63,27,6,2)
  ChangeSwitch(2119,2119,0)
  222()
  ShowMessageFace("",0,0,2,13)
  ShowMessage("【支配人】")
  ShowMessage("ステージが粘糸でネバネバだよ……")
  If(2,"A",1)
   ChangeSelfSwitch("A",0)
   250(bytes(0x04,0x08,0x6f,0x3a,0x0c,0x52,0x50,0x47,0x3a,0x3a,0x53,0x45,0x08,0x3a,0x0a,0x40,0x6e,0x61,0x6d,0x65,0x49,0x22,0x0a,0x49,0x74,0x65,0x6d,0x31,0x06,0x3a,0x06,0x45,0x54,0x3a,0x0b,0x40,0x70,0x69,0x74,0x63,0x68,0x69,0x69,0x3a,0x0c,0x40,0x76,0x6f,0x6c,0x75,0x6d,0x65,0x69,0x55))
   ChangeInventoryArmor(1646,0,0,1,false)
   0()
  EndIf()
  ChangeSwitch(2119,2119,1)
  EndEventProcessing()
  0()



EVENT   31
 PAGE   1
  // condition: switch 661 is ON
  0()



EVENT   32
 PAGE   1
  // condition: switch 661 is ON
  0()



EVENT   33
 PAGE   1
  // condition: switch 662 is ON
  0()



EVENT   34
 PAGE   1
  // condition: switch 662 is ON
  0()



EVENT   35
 PAGE   1
  // condition: switch 663 is ON
  0()



EVENT   36
 PAGE   1
  // condition: switch 663 is ON
  0()
 PAGE   2
  // condition: switch 670 is ON
  0()



EVENT   37
 PAGE   1
  // condition: switch 663 is ON
  0()



EVENT   38
 PAGE   1
  // condition: switch 664 is ON
  0()



EVENT   39
 PAGE   1
  // condition: switch 664 is ON
  0()



EVENT   40
 PAGE   1
  // condition: switch 664 is ON
  0()



EVENT   41
 PAGE   1
  // condition: switch 665 is ON
  0()



EVENT   42
 PAGE   1
  // condition: switch 665 is ON
  0()



EVENT   43
 PAGE   1
  // condition: switch 665 is ON
  0()



EVENT   44
 PAGE   1
  // condition: switch 666 is ON
  0()



EVENT   45
 PAGE   1
  // condition: switch 666 is ON
  0()
 PAGE   2
  // condition: switch 666 is ON
  // condition: switch 32 is ON
  0()



EVENT   46
 PAGE   1
  // condition: switch 666 is ON
  0()
 PAGE   2
  // condition: switch 666 is ON
  // condition: switch 32 is ON
  0()



EVENT   47
 PAGE   1
  // condition: switch 667 is ON
  0()



EVENT   48
 PAGE   1
  // condition: switch 667 is ON
  0()



EVENT   49
 PAGE   1
  // condition: switch 667 is ON
  0()



EVENT   50
 PAGE   1
  // condition: switch 667 is ON
  0()



EVENT   51
 PAGE   1
  // condition: switch 667 is ON
  0()



EVENT   52
 PAGE   1
  // condition: switch 668 is ON
  0()



EVENT   53
 PAGE   1
  // condition: switch 668 is ON
  0()



EVENT   54
 PAGE   1
  // condition: switch 668 is ON
  0()



EVENT   55
 PAGE   1
  // condition: switch 665 is ON
  0()



EVENT   56
 PAGE   1
  // condition: switch 668 is ON
  0()



EVENT   57
 PAGE   1
  // condition: switch 668 is ON
  0()



EVENT   58
 PAGE   1
  // condition: switch 669 is ON
  0()



EVENT   59
 PAGE   1
  // condition: switch 669 is ON
  0()



EVENT   60
 PAGE   1
  // condition: switch 669 is ON
  0()



EVENT   61
 PAGE   1
  // condition: switch 669 is ON
  0()



EVENT   62
 PAGE   1
  // condition: switch 664 is ON
  0()



EVENT   63
 PAGE   1
  // condition: switch 670 is ON
  0()



EVENT   64
 PAGE   1
  // condition: switch 670 is ON
  0()



EVENT   65
 PAGE   1
  // condition: switch 670 is ON
  0()



EVENT   66
 PAGE   1
  // condition: switch 670 is ON
  0()



EVENT   67
 PAGE   1
  // condition: switch 661 is ON
  0()



EVENT   68
 PAGE   1
  // condition: switch 670 is ON
  0()



EVENT   69
 PAGE   1
  // condition: switch 670 is ON
  0()



EVENT   70
 PAGE   1
  // condition: switch 665 is ON
  0()



EVENT   71
 PAGE   1
  // condition: switch 666 is ON
  0()
 PAGE   2
  // condition: switch 666 is ON
  // condition: switch 32 is ON
  0()



EVENT   72
 PAGE   1
  // condition: switch 666 is ON
  0()
 PAGE   2
  // condition: switch 666 is ON
  // condition: switch 32 is ON
  0()



EVENT   73
 PAGE   1
  // condition: switch 666 is ON
  0()
 PAGE   2
  // condition: switch 666 is ON
  // condition: switch 32 is ON
  0()



EVENT   74
 PAGE   1
  // condition: switch 666 is ON
  0()
 PAGE   2
  // condition: switch 666 is ON
  // condition: switch 32 is ON
  0()



EVENT   75
 PAGE   1
  // condition: switch 666 is ON
  0()
 PAGE   2
  // condition: switch 666 is ON
  // condition: switch 32 is ON
  0()



EVENT   76
 PAGE   1
  // condition: switch 667 is ON
  0()



EVENT   77
 PAGE   1
  // condition: switch 667 is ON
  0()



EVENT   78
 PAGE   1
  // condition: switch 666 is ON
  0()



EVENT   79
 PAGE   1
  // condition: switch 666 is ON
  // condition: switch 31 is ON
  0()
