﻿
DisplayName "マールポート"



EVENT   1
 PAGE   1
  0()



EVENT   2
 PAGE   1
  0()



EVENT   3
 PAGE   1
  0()



EVENT   4
 PAGE   1
  0()



EVENT   5
 PAGE   1
  0()



EVENT   6
 PAGE   1
  0()



EVENT   7
 PAGE   1
  0()



EVENT   8
 PAGE   1
  0()



EVENT   9
 PAGE   1
  0()



EVENT   10
 PAGE   1
  0()



EVENT   11
 PAGE   1
  0()



EVENT   12
 PAGE   1
  0()



EVENT   13
 PAGE   1
  0()



EVENT   14
 PAGE   1
  0()



EVENT   15
 PAGE   1
  0()



EVENT   16
 PAGE   1
  0()



EVENT   17
 PAGE   1
  0()



EVENT   18
 PAGE   1
  0()



EVENT   19
 PAGE   1
  0()



EVENT   20
 PAGE   1
  250(bytes(0x04,0x08,0x6f,0x3a,0x0c,0x52,0x50,0x47,0x3a,0x3a,0x53,0x45,0x08,0x3a,0x0a,0x40,0x6e,0x61,0x6d,0x65,0x49,0x22,0x0a,0x4f,0x70,0x65,0x6e,0x31,0x06,0x3a,0x06,0x45,0x54,0x3a,0x0b,0x40,0x70,0x69,0x74,0x63,0x68,0x69,0x69,0x3a,0x0c,0x40,0x76,0x6f,0x6c,0x75,0x6d,0x65,0x69,0x55))
  205(0,bytes(0x04,0x08,0x6f,0x3a,0x13,0x52,0x50,0x47,0x3a,0x3a,0x4d,0x6f,0x76,0x65,0x52,0x6f,0x75,0x74,0x65,0x09,0x3a,0x0c,0x40,0x72,0x65,0x70,0x65,0x61,0x74,0x46,0x3a,0x0f,0x40,0x73,0x6b,0x69,0x70,0x70,0x61,0x62,0x6c,0x65,0x46,0x3a,0x0a,0x40,0x77,0x61,0x69,0x74,0x54,0x3a,0x0a,0x40,0x6c,0x69,0x73,0x74,0x5b,0x0c,0x6f,0x3a,0x15,0x52,0x50,0x47,0x3a,0x3a,0x4d,0x6f,0x76,0x65,0x43,0x6f,0x6d,0x6d,0x61,0x6e,0x64,0x07,0x3a,0x0a,0x40,0x63,0x6f,0x64,0x65,0x69,0x16,0x3a,0x10,0x40,0x70,0x61,0x72,0x61,0x6d,0x65,0x74,0x65,0x72,0x73,0x5b,0x00,0x6f,0x3b,0x0a,0x07,0x3b,0x0b,0x69,0x14,0x3b,0x0c,0x5b,0x06,0x69,0x08,0x6f,0x3b,0x0a,0x07,0x3b,0x0b,0x69,0x17,0x3b,0x0c,0x5b,0x00,0x6f,0x3b,0x0a,0x07,0x3b,0x0b,0x69,0x14,0x3b,0x0c,0x5b,0x06,0x69,0x08,0x6f,0x3b,0x0a,0x07,0x3b,0x0b,0x69,0x18,0x3b,0x0c,0x5b,0x00,0x6f,0x3b,0x0a,0x07,0x3b,0x0b,0x69,0x2a,0x3b,0x0c,0x5b,0x00,0x6f,0x3b,0x0a,0x07,0x3b,0x0b,0x69,0x00,0x3b,0x0c,0x5b,0x00))
  205(-1,bytes(0x04,0x08,0x6f,0x3a,0x13,0x52,0x50,0x47,0x3a,0x3a,0x4d,0x6f,0x76,0x65,0x52,0x6f,0x75,0x74,0x65,0x09,0x3a,0x0c,0x40,0x72,0x65,0x70,0x65,0x61,0x74,0x46,0x3a,0x0f,0x40,0x73,0x6b,0x69,0x70,0x70,0x61,0x62,0x6c,0x65,0x54,0x3a,0x0a,0x40,0x77,0x61,0x69,0x74,0x54,0x3a,0x0a,0x40,0x6c,0x69,0x73,0x74,0x5b,0x07,0x6f,0x3a,0x15,0x52,0x50,0x47,0x3a,0x3a,0x4d,0x6f,0x76,0x65,0x43,0x6f,0x6d,0x6d,0x61,0x6e,0x64,0x07,0x3a,0x0a,0x40,0x63,0x6f,0x64,0x65,0x69,0x11,0x3a,0x10,0x40,0x70,0x61,0x72,0x61,0x6d,0x65,0x74,0x65,0x72,0x73,0x5b,0x00,0x6f,0x3b,0x0a,0x07,0x3b,0x0b,0x69,0x00,0x3b,0x0c,0x5b,0x00))
  250(bytes(0x04,0x08,0x6f,0x3a,0x0c,0x52,0x50,0x47,0x3a,0x3a,0x53,0x45,0x08,0x3a,0x0a,0x40,0x6e,0x61,0x6d,0x65,0x49,0x22,0x09,0x4d,0x6f,0x76,0x65,0x06,0x3a,0x06,0x45,0x54,0x3a,0x0b,0x40,0x70,0x69,0x74,0x63,0x68,0x69,0x69,0x3a,0x0c,0x40,0x76,0x6f,0x6c,0x75,0x6d,0x65,0x69,0x55))
  TeleportPlayer(0,40,13,14,0,0)
  0()



EVENT   21
 PAGE   1
  250(bytes(0x04,0x08,0x6f,0x3a,0x0c,0x52,0x50,0x47,0x3a,0x3a,0x53,0x45,0x08,0x3a,0x0a,0x40,0x6e,0x61,0x6d,0x65,0x49,0x22,0x0a,0x4f,0x70,0x65,0x6e,0x31,0x06,0x3a,0x06,0x45,0x54,0x3a,0x0b,0x40,0x70,0x69,0x74,0x63,0x68,0x69,0x69,0x3a,0x0c,0x40,0x76,0x6f,0x6c,0x75,0x6d,0x65,0x69,0x55))
  205(0,bytes(0x04,0x08,0x6f,0x3a,0x13,0x52,0x50,0x47,0x3a,0x3a,0x4d,0x6f,0x76,0x65,0x52,0x6f,0x75,0x74,0x65,0x09,0x3a,0x0c,0x40,0x72,0x65,0x70,0x65,0x61,0x74,0x46,0x3a,0x0f,0x40,0x73,0x6b,0x69,0x70,0x70,0x61,0x62,0x6c,0x65,0x46,0x3a,0x0a,0x40,0x77,0x61,0x69,0x74,0x54,0x3a,0x0a,0x40,0x6c,0x69,0x73,0x74,0x5b,0x0c,0x6f,0x3a,0x15,0x52,0x50,0x47,0x3a,0x3a,0x4d,0x6f,0x76,0x65,0x43,0x6f,0x6d,0x6d,0x61,0x6e,0x64,0x07,0x3a,0x0a,0x40,0x63,0x6f,0x64,0x65,0x69,0x16,0x3a,0x10,0x40,0x70,0x61,0x72,0x61,0x6d,0x65,0x74,0x65,0x72,0x73,0x5b,0x00,0x6f,0x3b,0x0a,0x07,0x3b,0x0b,0x69,0x14,0x3b,0x0c,0x5b,0x06,0x69,0x08,0x6f,0x3b,0x0a,0x07,0x3b,0x0b,0x69,0x17,0x3b,0x0c,0x5b,0x00,0x6f,0x3b,0x0a,0x07,0x3b,0x0b,0x69,0x14,0x3b,0x0c,0x5b,0x06,0x69,0x08,0x6f,0x3b,0x0a,0x07,0x3b,0x0b,0x69,0x18,0x3b,0x0c,0x5b,0x00,0x6f,0x3b,0x0a,0x07,0x3b,0x0b,0x69,0x2a,0x3b,0x0c,0x5b,0x00,0x6f,0x3b,0x0a,0x07,0x3b,0x0b,0x69,0x00,0x3b,0x0c,0x5b,0x00))
  205(-1,bytes(0x04,0x08,0x6f,0x3a,0x13,0x52,0x50,0x47,0x3a,0x3a,0x4d,0x6f,0x76,0x65,0x52,0x6f,0x75,0x74,0x65,0x09,0x3a,0x0c,0x40,0x72,0x65,0x70,0x65,0x61,0x74,0x46,0x3a,0x0f,0x40,0x73,0x6b,0x69,0x70,0x70,0x61,0x62,0x6c,0x65,0x54,0x3a,0x0a,0x40,0x77,0x61,0x69,0x74,0x54,0x3a,0x0a,0x40,0x6c,0x69,0x73,0x74,0x5b,0x07,0x6f,0x3a,0x15,0x52,0x50,0x47,0x3a,0x3a,0x4d,0x6f,0x76,0x65,0x43,0x6f,0x6d,0x6d,0x61,0x6e,0x64,0x07,0x3a,0x0a,0x40,0x63,0x6f,0x64,0x65,0x69,0x11,0x3a,0x10,0x40,0x70,0x61,0x72,0x61,0x6d,0x65,0x74,0x65,0x72,0x73,0x5b,0x00,0x6f,0x3b,0x0a,0x07,0x3b,0x0b,0x69,0x00,0x3b,0x0c,0x5b,0x00))
  250(bytes(0x04,0x08,0x6f,0x3a,0x0c,0x52,0x50,0x47,0x3a,0x3a,0x53,0x45,0x08,0x3a,0x0a,0x40,0x6e,0x61,0x6d,0x65,0x49,0x22,0x09,0x4d,0x6f,0x76,0x65,0x06,0x3a,0x06,0x45,0x54,0x3a,0x0b,0x40,0x70,0x69,0x74,0x63,0x68,0x69,0x69,0x3a,0x0c,0x40,0x76,0x6f,0x6c,0x75,0x6d,0x65,0x69,0x55))
  TeleportPlayer(0,40,33,48,0,0)
  0()



EVENT   22
 PAGE   1
  250(bytes(0x04,0x08,0x6f,0x3a,0x0c,0x52,0x50,0x47,0x3a,0x3a,0x53,0x45,0x08,0x3a,0x0a,0x40,0x6e,0x61,0x6d,0x65,0x49,0x22,0x0a,0x4f,0x70,0x65,0x6e,0x31,0x06,0x3a,0x06,0x45,0x54,0x3a,0x0b,0x40,0x70,0x69,0x74,0x63,0x68,0x69,0x69,0x3a,0x0c,0x40,0x76,0x6f,0x6c,0x75,0x6d,0x65,0x69,0x55))
  205(0,bytes(0x04,0x08,0x6f,0x3a,0x13,0x52,0x50,0x47,0x3a,0x3a,0x4d,0x6f,0x76,0x65,0x52,0x6f,0x75,0x74,0x65,0x09,0x3a,0x0c,0x40,0x72,0x65,0x70,0x65,0x61,0x74,0x46,0x3a,0x0f,0x40,0x73,0x6b,0x69,0x70,0x70,0x61,0x62,0x6c,0x65,0x46,0x3a,0x0a,0x40,0x77,0x61,0x69,0x74,0x54,0x3a,0x0a,0x40,0x6c,0x69,0x73,0x74,0x5b,0x0c,0x6f,0x3a,0x15,0x52,0x50,0x47,0x3a,0x3a,0x4d,0x6f,0x76,0x65,0x43,0x6f,0x6d,0x6d,0x61,0x6e,0x64,0x07,0x3a,0x0a,0x40,0x63,0x6f,0x64,0x65,0x69,0x16,0x3a,0x10,0x40,0x70,0x61,0x72,0x61,0x6d,0x65,0x74,0x65,0x72,0x73,0x5b,0x00,0x6f,0x3b,0x0a,0x07,0x3b,0x0b,0x69,0x14,0x3b,0x0c,0x5b,0x06,0x69,0x08,0x6f,0x3b,0x0a,0x07,0x3b,0x0b,0x69,0x17,0x3b,0x0c,0x5b,0x00,0x6f,0x3b,0x0a,0x07,0x3b,0x0b,0x69,0x14,0x3b,0x0c,0x5b,0x06,0x69,0x08,0x6f,0x3b,0x0a,0x07,0x3b,0x0b,0x69,0x18,0x3b,0x0c,0x5b,0x00,0x6f,0x3b,0x0a,0x07,0x3b,0x0b,0x69,0x2a,0x3b,0x0c,0x5b,0x00,0x6f,0x3b,0x0a,0x07,0x3b,0x0b,0x69,0x00,0x3b,0x0c,0x5b,0x00))
  205(-1,bytes(0x04,0x08,0x6f,0x3a,0x13,0x52,0x50,0x47,0x3a,0x3a,0x4d,0x6f,0x76,0x65,0x52,0x6f,0x75,0x74,0x65,0x09,0x3a,0x0c,0x40,0x72,0x65,0x70,0x65,0x61,0x74,0x46,0x3a,0x0f,0x40,0x73,0x6b,0x69,0x70,0x70,0x61,0x62,0x6c,0x65,0x54,0x3a,0x0a,0x40,0x77,0x61,0x69,0x74,0x54,0x3a,0x0a,0x40,0x6c,0x69,0x73,0x74,0x5b,0x07,0x6f,0x3a,0x15,0x52,0x50,0x47,0x3a,0x3a,0x4d,0x6f,0x76,0x65,0x43,0x6f,0x6d,0x6d,0x61,0x6e,0x64,0x07,0x3a,0x0a,0x40,0x63,0x6f,0x64,0x65,0x69,0x11,0x3a,0x10,0x40,0x70,0x61,0x72,0x61,0x6d,0x65,0x74,0x65,0x72,0x73,0x5b,0x00,0x6f,0x3b,0x0a,0x07,0x3b,0x0b,0x69,0x00,0x3b,0x0c,0x5b,0x00))
  250(bytes(0x04,0x08,0x6f,0x3a,0x0c,0x52,0x50,0x47,0x3a,0x3a,0x53,0x45,0x08,0x3a,0x0a,0x40,0x6e,0x61,0x6d,0x65,0x49,0x22,0x09,0x4d,0x6f,0x76,0x65,0x06,0x3a,0x06,0x45,0x54,0x3a,0x0b,0x40,0x70,0x69,0x74,0x63,0x68,0x69,0x69,0x3a,0x0c,0x40,0x76,0x6f,0x6c,0x75,0x6d,0x65,0x69,0x55))
  TeleportPlayer(0,40,64,14,0,0)
  0()



EVENT   23
 PAGE   1
  250(bytes(0x04,0x08,0x6f,0x3a,0x0c,0x52,0x50,0x47,0x3a,0x3a,0x53,0x45,0x08,0x3a,0x0a,0x40,0x6e,0x61,0x6d,0x65,0x49,0x22,0x0a,0x4f,0x70,0x65,0x6e,0x31,0x06,0x3a,0x06,0x45,0x54,0x3a,0x0b,0x40,0x70,0x69,0x74,0x63,0x68,0x69,0x69,0x3a,0x0c,0x40,0x76,0x6f,0x6c,0x75,0x6d,0x65,0x69,0x55))
  205(0,bytes(0x04,0x08,0x6f,0x3a,0x13,0x52,0x50,0x47,0x3a,0x3a,0x4d,0x6f,0x76,0x65,0x52,0x6f,0x75,0x74,0x65,0x09,0x3a,0x0c,0x40,0x72,0x65,0x70,0x65,0x61,0x74,0x46,0x3a,0x0f,0x40,0x73,0x6b,0x69,0x70,0x70,0x61,0x62,0x6c,0x65,0x46,0x3a,0x0a,0x40,0x77,0x61,0x69,0x74,0x54,0x3a,0x0a,0x40,0x6c,0x69,0x73,0x74,0x5b,0x0c,0x6f,0x3a,0x15,0x52,0x50,0x47,0x3a,0x3a,0x4d,0x6f,0x76,0x65,0x43,0x6f,0x6d,0x6d,0x61,0x6e,0x64,0x07,0x3a,0x0a,0x40,0x63,0x6f,0x64,0x65,0x69,0x16,0x3a,0x10,0x40,0x70,0x61,0x72,0x61,0x6d,0x65,0x74,0x65,0x72,0x73,0x5b,0x00,0x6f,0x3b,0x0a,0x07,0x3b,0x0b,0x69,0x14,0x3b,0x0c,0x5b,0x06,0x69,0x08,0x6f,0x3b,0x0a,0x07,0x3b,0x0b,0x69,0x17,0x3b,0x0c,0x5b,0x00,0x6f,0x3b,0x0a,0x07,0x3b,0x0b,0x69,0x14,0x3b,0x0c,0x5b,0x06,0x69,0x08,0x6f,0x3b,0x0a,0x07,0x3b,0x0b,0x69,0x18,0x3b,0x0c,0x5b,0x00,0x6f,0x3b,0x0a,0x07,0x3b,0x0b,0x69,0x2a,0x3b,0x0c,0x5b,0x00,0x6f,0x3b,0x0a,0x07,0x3b,0x0b,0x69,0x00,0x3b,0x0c,0x5b,0x00))
  205(-1,bytes(0x04,0x08,0x6f,0x3a,0x13,0x52,0x50,0x47,0x3a,0x3a,0x4d,0x6f,0x76,0x65,0x52,0x6f,0x75,0x74,0x65,0x09,0x3a,0x0c,0x40,0x72,0x65,0x70,0x65,0x61,0x74,0x46,0x3a,0x0f,0x40,0x73,0x6b,0x69,0x70,0x70,0x61,0x62,0x6c,0x65,0x54,0x3a,0x0a,0x40,0x77,0x61,0x69,0x74,0x54,0x3a,0x0a,0x40,0x6c,0x69,0x73,0x74,0x5b,0x07,0x6f,0x3a,0x15,0x52,0x50,0x47,0x3a,0x3a,0x4d,0x6f,0x76,0x65,0x43,0x6f,0x6d,0x6d,0x61,0x6e,0x64,0x07,0x3a,0x0a,0x40,0x63,0x6f,0x64,0x65,0x69,0x11,0x3a,0x10,0x40,0x70,0x61,0x72,0x61,0x6d,0x65,0x74,0x65,0x72,0x73,0x5b,0x00,0x6f,0x3b,0x0a,0x07,0x3b,0x0b,0x69,0x00,0x3b,0x0c,0x5b,0x00))
  250(bytes(0x04,0x08,0x6f,0x3a,0x0c,0x52,0x50,0x47,0x3a,0x3a,0x53,0x45,0x08,0x3a,0x0a,0x40,0x6e,0x61,0x6d,0x65,0x49,0x22,0x09,0x4d,0x6f,0x76,0x65,0x06,0x3a,0x06,0x45,0x54,0x3a,0x0b,0x40,0x70,0x69,0x74,0x63,0x68,0x69,0x69,0x3a,0x0c,0x40,0x76,0x6f,0x6c,0x75,0x6d,0x65,0x69,0x55))
  TeleportPlayer(0,40,80,14,0,0)
  0()



EVENT   24
 PAGE   1
  250(bytes(0x04,0x08,0x6f,0x3a,0x0c,0x52,0x50,0x47,0x3a,0x3a,0x53,0x45,0x08,0x3a,0x0a,0x40,0x6e,0x61,0x6d,0x65,0x49,0x22,0x0a,0x4f,0x70,0x65,0x6e,0x31,0x06,0x3a,0x06,0x45,0x54,0x3a,0x0b,0x40,0x70,0x69,0x74,0x63,0x68,0x69,0x69,0x3a,0x0c,0x40,0x76,0x6f,0x6c,0x75,0x6d,0x65,0x69,0x55))
  205(0,bytes(0x04,0x08,0x6f,0x3a,0x13,0x52,0x50,0x47,0x3a,0x3a,0x4d,0x6f,0x76,0x65,0x52,0x6f,0x75,0x74,0x65,0x09,0x3a,0x0c,0x40,0x72,0x65,0x70,0x65,0x61,0x74,0x46,0x3a,0x0f,0x40,0x73,0x6b,0x69,0x70,0x70,0x61,0x62,0x6c,0x65,0x46,0x3a,0x0a,0x40,0x77,0x61,0x69,0x74,0x54,0x3a,0x0a,0x40,0x6c,0x69,0x73,0x74,0x5b,0x0c,0x6f,0x3a,0x15,0x52,0x50,0x47,0x3a,0x3a,0x4d,0x6f,0x76,0x65,0x43,0x6f,0x6d,0x6d,0x61,0x6e,0x64,0x07,0x3a,0x0a,0x40,0x63,0x6f,0x64,0x65,0x69,0x16,0x3a,0x10,0x40,0x70,0x61,0x72,0x61,0x6d,0x65,0x74,0x65,0x72,0x73,0x5b,0x00,0x6f,0x3b,0x0a,0x07,0x3b,0x0b,0x69,0x14,0x3b,0x0c,0x5b,0x06,0x69,0x08,0x6f,0x3b,0x0a,0x07,0x3b,0x0b,0x69,0x17,0x3b,0x0c,0x5b,0x00,0x6f,0x3b,0x0a,0x07,0x3b,0x0b,0x69,0x14,0x3b,0x0c,0x5b,0x06,0x69,0x08,0x6f,0x3b,0x0a,0x07,0x3b,0x0b,0x69,0x18,0x3b,0x0c,0x5b,0x00,0x6f,0x3b,0x0a,0x07,0x3b,0x0b,0x69,0x2a,0x3b,0x0c,0x5b,0x00,0x6f,0x3b,0x0a,0x07,0x3b,0x0b,0x69,0x00,0x3b,0x0c,0x5b,0x00))
  205(-1,bytes(0x04,0x08,0x6f,0x3a,0x13,0x52,0x50,0x47,0x3a,0x3a,0x4d,0x6f,0x76,0x65,0x52,0x6f,0x75,0x74,0x65,0x09,0x3a,0x0c,0x40,0x72,0x65,0x70,0x65,0x61,0x74,0x46,0x3a,0x0f,0x40,0x73,0x6b,0x69,0x70,0x70,0x61,0x62,0x6c,0x65,0x54,0x3a,0x0a,0x40,0x77,0x61,0x69,0x74,0x54,0x3a,0x0a,0x40,0x6c,0x69,0x73,0x74,0x5b,0x07,0x6f,0x3a,0x15,0x52,0x50,0x47,0x3a,0x3a,0x4d,0x6f,0x76,0x65,0x43,0x6f,0x6d,0x6d,0x61,0x6e,0x64,0x07,0x3a,0x0a,0x40,0x63,0x6f,0x64,0x65,0x69,0x11,0x3a,0x10,0x40,0x70,0x61,0x72,0x61,0x6d,0x65,0x74,0x65,0x72,0x73,0x5b,0x00,0x6f,0x3b,0x0a,0x07,0x3b,0x0b,0x69,0x00,0x3b,0x0c,0x5b,0x00))
  250(bytes(0x04,0x08,0x6f,0x3a,0x0c,0x52,0x50,0x47,0x3a,0x3a,0x53,0x45,0x08,0x3a,0x0a,0x40,0x6e,0x61,0x6d,0x65,0x49,0x22,0x09,0x4d,0x6f,0x76,0x65,0x06,0x3a,0x06,0x45,0x54,0x3a,0x0b,0x40,0x70,0x69,0x74,0x63,0x68,0x69,0x69,0x3a,0x0c,0x40,0x76,0x6f,0x6c,0x75,0x6d,0x65,0x69,0x55))
  TeleportPlayer(0,40,15,36,0,0)
  0()



EVENT   25
 PAGE   1
  250(bytes(0x04,0x08,0x6f,0x3a,0x0c,0x52,0x50,0x47,0x3a,0x3a,0x53,0x45,0x08,0x3a,0x0a,0x40,0x6e,0x61,0x6d,0x65,0x49,0x22,0x0a,0x4f,0x70,0x65,0x6e,0x31,0x06,0x3a,0x06,0x45,0x54,0x3a,0x0b,0x40,0x70,0x69,0x74,0x63,0x68,0x69,0x69,0x3a,0x0c,0x40,0x76,0x6f,0x6c,0x75,0x6d,0x65,0x69,0x55))
  205(0,bytes(0x04,0x08,0x6f,0x3a,0x13,0x52,0x50,0x47,0x3a,0x3a,0x4d,0x6f,0x76,0x65,0x52,0x6f,0x75,0x74,0x65,0x09,0x3a,0x0c,0x40,0x72,0x65,0x70,0x65,0x61,0x74,0x46,0x3a,0x0f,0x40,0x73,0x6b,0x69,0x70,0x70,0x61,0x62,0x6c,0x65,0x46,0x3a,0x0a,0x40,0x77,0x61,0x69,0x74,0x54,0x3a,0x0a,0x40,0x6c,0x69,0x73,0x74,0x5b,0x0c,0x6f,0x3a,0x15,0x52,0x50,0x47,0x3a,0x3a,0x4d,0x6f,0x76,0x65,0x43,0x6f,0x6d,0x6d,0x61,0x6e,0x64,0x07,0x3a,0x0a,0x40,0x63,0x6f,0x64,0x65,0x69,0x16,0x3a,0x10,0x40,0x70,0x61,0x72,0x61,0x6d,0x65,0x74,0x65,0x72,0x73,0x5b,0x00,0x6f,0x3b,0x0a,0x07,0x3b,0x0b,0x69,0x14,0x3b,0x0c,0x5b,0x06,0x69,0x08,0x6f,0x3b,0x0a,0x07,0x3b,0x0b,0x69,0x17,0x3b,0x0c,0x5b,0x00,0x6f,0x3b,0x0a,0x07,0x3b,0x0b,0x69,0x14,0x3b,0x0c,0x5b,0x06,0x69,0x08,0x6f,0x3b,0x0a,0x07,0x3b,0x0b,0x69,0x18,0x3b,0x0c,0x5b,0x00,0x6f,0x3b,0x0a,0x07,0x3b,0x0b,0x69,0x2a,0x3b,0x0c,0x5b,0x00,0x6f,0x3b,0x0a,0x07,0x3b,0x0b,0x69,0x00,0x3b,0x0c,0x5b,0x00))
  205(-1,bytes(0x04,0x08,0x6f,0x3a,0x13,0x52,0x50,0x47,0x3a,0x3a,0x4d,0x6f,0x76,0x65,0x52,0x6f,0x75,0x74,0x65,0x09,0x3a,0x0c,0x40,0x72,0x65,0x70,0x65,0x61,0x74,0x46,0x3a,0x0f,0x40,0x73,0x6b,0x69,0x70,0x70,0x61,0x62,0x6c,0x65,0x54,0x3a,0x0a,0x40,0x77,0x61,0x69,0x74,0x54,0x3a,0x0a,0x40,0x6c,0x69,0x73,0x74,0x5b,0x07,0x6f,0x3a,0x15,0x52,0x50,0x47,0x3a,0x3a,0x4d,0x6f,0x76,0x65,0x43,0x6f,0x6d,0x6d,0x61,0x6e,0x64,0x07,0x3a,0x0a,0x40,0x63,0x6f,0x64,0x65,0x69,0x11,0x3a,0x10,0x40,0x70,0x61,0x72,0x61,0x6d,0x65,0x74,0x65,0x72,0x73,0x5b,0x00,0x6f,0x3b,0x0a,0x07,0x3b,0x0b,0x69,0x00,0x3b,0x0c,0x5b,0x00))
  250(bytes(0x04,0x08,0x6f,0x3a,0x0c,0x52,0x50,0x47,0x3a,0x3a,0x53,0x45,0x08,0x3a,0x0a,0x40,0x6e,0x61,0x6d,0x65,0x49,0x22,0x09,0x4d,0x6f,0x76,0x65,0x06,0x3a,0x06,0x45,0x54,0x3a,0x0b,0x40,0x70,0x69,0x74,0x63,0x68,0x69,0x69,0x3a,0x0c,0x40,0x76,0x6f,0x6c,0x75,0x6d,0x65,0x69,0x55))
  TeleportPlayer(0,40,55,37,0,0)
  0()



EVENT   26
 PAGE   1
  250(bytes(0x04,0x08,0x6f,0x3a,0x0c,0x52,0x50,0x47,0x3a,0x3a,0x53,0x45,0x08,0x3a,0x0a,0x40,0x6e,0x61,0x6d,0x65,0x49,0x22,0x0a,0x4f,0x70,0x65,0x6e,0x31,0x06,0x3a,0x06,0x45,0x54,0x3a,0x0b,0x40,0x70,0x69,0x74,0x63,0x68,0x69,0x69,0x3a,0x0c,0x40,0x76,0x6f,0x6c,0x75,0x6d,0x65,0x69,0x55))
  205(0,bytes(0x04,0x08,0x6f,0x3a,0x13,0x52,0x50,0x47,0x3a,0x3a,0x4d,0x6f,0x76,0x65,0x52,0x6f,0x75,0x74,0x65,0x09,0x3a,0x0c,0x40,0x72,0x65,0x70,0x65,0x61,0x74,0x46,0x3a,0x0f,0x40,0x73,0x6b,0x69,0x70,0x70,0x61,0x62,0x6c,0x65,0x46,0x3a,0x0a,0x40,0x77,0x61,0x69,0x74,0x54,0x3a,0x0a,0x40,0x6c,0x69,0x73,0x74,0x5b,0x0c,0x6f,0x3a,0x15,0x52,0x50,0x47,0x3a,0x3a,0x4d,0x6f,0x76,0x65,0x43,0x6f,0x6d,0x6d,0x61,0x6e,0x64,0x07,0x3a,0x0a,0x40,0x63,0x6f,0x64,0x65,0x69,0x16,0x3a,0x10,0x40,0x70,0x61,0x72,0x61,0x6d,0x65,0x74,0x65,0x72,0x73,0x5b,0x00,0x6f,0x3b,0x0a,0x07,0x3b,0x0b,0x69,0x14,0x3b,0x0c,0x5b,0x06,0x69,0x08,0x6f,0x3b,0x0a,0x07,0x3b,0x0b,0x69,0x17,0x3b,0x0c,0x5b,0x00,0x6f,0x3b,0x0a,0x07,0x3b,0x0b,0x69,0x14,0x3b,0x0c,0x5b,0x06,0x69,0x08,0x6f,0x3b,0x0a,0x07,0x3b,0x0b,0x69,0x18,0x3b,0x0c,0x5b,0x00,0x6f,0x3b,0x0a,0x07,0x3b,0x0b,0x69,0x2a,0x3b,0x0c,0x5b,0x00,0x6f,0x3b,0x0a,0x07,0x3b,0x0b,0x69,0x00,0x3b,0x0c,0x5b,0x00))
  205(-1,bytes(0x04,0x08,0x6f,0x3a,0x13,0x52,0x50,0x47,0x3a,0x3a,0x4d,0x6f,0x76,0x65,0x52,0x6f,0x75,0x74,0x65,0x09,0x3a,0x0c,0x40,0x72,0x65,0x70,0x65,0x61,0x74,0x46,0x3a,0x0f,0x40,0x73,0x6b,0x69,0x70,0x70,0x61,0x62,0x6c,0x65,0x54,0x3a,0x0a,0x40,0x77,0x61,0x69,0x74,0x54,0x3a,0x0a,0x40,0x6c,0x69,0x73,0x74,0x5b,0x07,0x6f,0x3a,0x15,0x52,0x50,0x47,0x3a,0x3a,0x4d,0x6f,0x76,0x65,0x43,0x6f,0x6d,0x6d,0x61,0x6e,0x64,0x07,0x3a,0x0a,0x40,0x63,0x6f,0x64,0x65,0x69,0x11,0x3a,0x10,0x40,0x70,0x61,0x72,0x61,0x6d,0x65,0x74,0x65,0x72,0x73,0x5b,0x00,0x6f,0x3b,0x0a,0x07,0x3b,0x0b,0x69,0x00,0x3b,0x0c,0x5b,0x00))
  250(bytes(0x04,0x08,0x6f,0x3a,0x0c,0x52,0x50,0x47,0x3a,0x3a,0x53,0x45,0x08,0x3a,0x0a,0x40,0x6e,0x61,0x6d,0x65,0x49,0x22,0x09,0x4d,0x6f,0x76,0x65,0x06,0x3a,0x06,0x45,0x54,0x3a,0x0b,0x40,0x70,0x69,0x74,0x63,0x68,0x69,0x69,0x3a,0x0c,0x40,0x76,0x6f,0x6c,0x75,0x6d,0x65,0x69,0x55))
  TeleportPlayer(0,40,83,39,0,0)
  0()



EVENT   27
 PAGE   1
  ShowMessageFace("",0,0,2,1)
  ShowMessage("ルカは仲間を外に待たせ、一人で民家に入った……")
  216(1)
  250(bytes(0x04,0x08,0x6f,0x3a,0x0c,0x52,0x50,0x47,0x3a,0x3a,0x53,0x45,0x08,0x3a,0x0a,0x40,0x6e,0x61,0x6d,0x65,0x49,0x22,0x0a,0x4f,0x70,0x65,0x6e,0x31,0x06,0x3a,0x06,0x45,0x54,0x3a,0x0b,0x40,0x70,0x69,0x74,0x63,0x68,0x69,0x69,0x3a,0x0c,0x40,0x76,0x6f,0x6c,0x75,0x6d,0x65,0x69,0x55))
  205(0,bytes(0x04,0x08,0x6f,0x3a,0x13,0x52,0x50,0x47,0x3a,0x3a,0x4d,0x6f,0x76,0x65,0x52,0x6f,0x75,0x74,0x65,0x09,0x3a,0x0c,0x40,0x72,0x65,0x70,0x65,0x61,0x74,0x46,0x3a,0x0f,0x40,0x73,0x6b,0x69,0x70,0x70,0x61,0x62,0x6c,0x65,0x46,0x3a,0x0a,0x40,0x77,0x61,0x69,0x74,0x54,0x3a,0x0a,0x40,0x6c,0x69,0x73,0x74,0x5b,0x0c,0x6f,0x3a,0x15,0x52,0x50,0x47,0x3a,0x3a,0x4d,0x6f,0x76,0x65,0x43,0x6f,0x6d,0x6d,0x61,0x6e,0x64,0x07,0x3a,0x0a,0x40,0x63,0x6f,0x64,0x65,0x69,0x16,0x3a,0x10,0x40,0x70,0x61,0x72,0x61,0x6d,0x65,0x74,0x65,0x72,0x73,0x5b,0x00,0x6f,0x3b,0x0a,0x07,0x3b,0x0b,0x69,0x14,0x3b,0x0c,0x5b,0x06,0x69,0x08,0x6f,0x3b,0x0a,0x07,0x3b,0x0b,0x69,0x17,0x3b,0x0c,0x5b,0x00,0x6f,0x3b,0x0a,0x07,0x3b,0x0b,0x69,0x14,0x3b,0x0c,0x5b,0x06,0x69,0x08,0x6f,0x3b,0x0a,0x07,0x3b,0x0b,0x69,0x18,0x3b,0x0c,0x5b,0x00,0x6f,0x3b,0x0a,0x07,0x3b,0x0b,0x69,0x2a,0x3b,0x0c,0x5b,0x00,0x6f,0x3b,0x0a,0x07,0x3b,0x0b,0x69,0x00,0x3b,0x0c,0x5b,0x00))
  205(-1,bytes(0x04,0x08,0x6f,0x3a,0x13,0x52,0x50,0x47,0x3a,0x3a,0x4d,0x6f,0x76,0x65,0x52,0x6f,0x75,0x74,0x65,0x09,0x3a,0x0c,0x40,0x72,0x65,0x70,0x65,0x61,0x74,0x46,0x3a,0x0f,0x40,0x73,0x6b,0x69,0x70,0x70,0x61,0x62,0x6c,0x65,0x54,0x3a,0x0a,0x40,0x77,0x61,0x69,0x74,0x54,0x3a,0x0a,0x40,0x6c,0x69,0x73,0x74,0x5b,0x07,0x6f,0x3a,0x15,0x52,0x50,0x47,0x3a,0x3a,0x4d,0x6f,0x76,0x65,0x43,0x6f,0x6d,0x6d,0x61,0x6e,0x64,0x07,0x3a,0x0a,0x40,0x63,0x6f,0x64,0x65,0x69,0x11,0x3a,0x10,0x40,0x70,0x61,0x72,0x61,0x6d,0x65,0x74,0x65,0x72,0x73,0x5b,0x00,0x6f,0x3b,0x0a,0x07,0x3b,0x0b,0x69,0x00,0x3b,0x0c,0x5b,0x00))
  250(bytes(0x04,0x08,0x6f,0x3a,0x0c,0x52,0x50,0x47,0x3a,0x3a,0x53,0x45,0x08,0x3a,0x0a,0x40,0x6e,0x61,0x6d,0x65,0x49,0x22,0x09,0x4d,0x6f,0x76,0x65,0x06,0x3a,0x06,0x45,0x54,0x3a,0x0b,0x40,0x70,0x69,0x74,0x63,0x68,0x69,0x69,0x3a,0x0c,0x40,0x76,0x6f,0x6c,0x75,0x6d,0x65,0x69,0x55))
  TeleportPlayer(0,40,6,57,0,0)
  0()



EVENT   28
 PAGE   1
  250(bytes(0x04,0x08,0x6f,0x3a,0x0c,0x52,0x50,0x47,0x3a,0x3a,0x53,0x45,0x08,0x3a,0x0a,0x40,0x6e,0x61,0x6d,0x65,0x49,0x22,0x09,0x4d,0x6f,0x76,0x65,0x06,0x3a,0x06,0x45,0x54,0x3a,0x0b,0x40,0x70,0x69,0x74,0x63,0x68,0x69,0x69,0x3a,0x0c,0x40,0x76,0x6f,0x6c,0x75,0x6d,0x65,0x69,0x55))
  TeleportPlayer(0,2,255,233,2,0)
  0()



EVENT   29
 PAGE   1
  250(bytes(0x04,0x08,0x6f,0x3a,0x0c,0x52,0x50,0x47,0x3a,0x3a,0x53,0x45,0x08,0x3a,0x0a,0x40,0x6e,0x61,0x6d,0x65,0x49,0x22,0x09,0x4d,0x6f,0x76,0x65,0x06,0x3a,0x06,0x45,0x54,0x3a,0x0b,0x40,0x70,0x69,0x74,0x63,0x68,0x69,0x69,0x3a,0x0c,0x40,0x76,0x6f,0x6c,0x75,0x6d,0x65,0x69,0x55))
  TeleportPlayer(0,2,255,233,2,0)
  0()



EVENT   30
 PAGE   1
  250(bytes(0x04,0x08,0x6f,0x3a,0x0c,0x52,0x50,0x47,0x3a,0x3a,0x53,0x45,0x08,0x3a,0x0a,0x40,0x6e,0x61,0x6d,0x65,0x49,0x22,0x09,0x4d,0x6f,0x76,0x65,0x06,0x3a,0x06,0x45,0x54,0x3a,0x0b,0x40,0x70,0x69,0x74,0x63,0x68,0x69,0x69,0x3a,0x0c,0x40,0x76,0x6f,0x6c,0x75,0x6d,0x65,0x69,0x55))
  TeleportPlayer(0,2,255,233,2,0)
  0()



EVENT   31
 PAGE   1
  250(bytes(0x04,0x08,0x6f,0x3a,0x0c,0x52,0x50,0x47,0x3a,0x3a,0x53,0x45,0x08,0x3a,0x0a,0x40,0x6e,0x61,0x6d,0x65,0x49,0x22,0x09,0x4d,0x6f,0x76,0x65,0x06,0x3a,0x06,0x45,0x54,0x3a,0x0b,0x40,0x70,0x69,0x74,0x63,0x68,0x69,0x69,0x3a,0x0c,0x40,0x76,0x6f,0x6c,0x75,0x6d,0x65,0x69,0x55))
  TeleportPlayer(0,2,255,233,2,0)
  0()



EVENT   32
 PAGE   1
  250(bytes(0x04,0x08,0x6f,0x3a,0x0c,0x52,0x50,0x47,0x3a,0x3a,0x53,0x45,0x08,0x3a,0x0a,0x40,0x6e,0x61,0x6d,0x65,0x49,0x22,0x09,0x4d,0x6f,0x76,0x65,0x06,0x3a,0x06,0x45,0x54,0x3a,0x0b,0x40,0x70,0x69,0x74,0x63,0x68,0x69,0x69,0x3a,0x0c,0x40,0x76,0x6f,0x6c,0x75,0x6d,0x65,0x69,0x55))
  TeleportPlayer(0,2,255,233,2,0)
  0()



EVENT   33
 PAGE   1
  250(bytes(0x04,0x08,0x6f,0x3a,0x0c,0x52,0x50,0x47,0x3a,0x3a,0x53,0x45,0x08,0x3a,0x0a,0x40,0x6e,0x61,0x6d,0x65,0x49,0x22,0x09,0x4d,0x6f,0x76,0x65,0x06,0x3a,0x06,0x45,0x54,0x3a,0x0b,0x40,0x70,0x69,0x74,0x63,0x68,0x69,0x69,0x3a,0x0c,0x40,0x76,0x6f,0x6c,0x75,0x6d,0x65,0x69,0x55))
  TeleportPlayer(0,2,254,233,0,0)
  0()



EVENT   34
 PAGE   1
  250(bytes(0x04,0x08,0x6f,0x3a,0x0c,0x52,0x50,0x47,0x3a,0x3a,0x53,0x45,0x08,0x3a,0x0a,0x40,0x6e,0x61,0x6d,0x65,0x49,0x22,0x09,0x4d,0x6f,0x76,0x65,0x06,0x3a,0x06,0x45,0x54,0x3a,0x0b,0x40,0x70,0x69,0x74,0x63,0x68,0x69,0x69,0x3a,0x0c,0x40,0x76,0x6f,0x6c,0x75,0x6d,0x65,0x69,0x55))
  TeleportPlayer(0,2,254,233,0,0)
  0()



EVENT   35
 PAGE   1
  250(bytes(0x04,0x08,0x6f,0x3a,0x0c,0x52,0x50,0x47,0x3a,0x3a,0x53,0x45,0x08,0x3a,0x0a,0x40,0x6e,0x61,0x6d,0x65,0x49,0x22,0x09,0x4d,0x6f,0x76,0x65,0x06,0x3a,0x06,0x45,0x54,0x3a,0x0b,0x40,0x70,0x69,0x74,0x63,0x68,0x69,0x69,0x3a,0x0c,0x40,0x76,0x6f,0x6c,0x75,0x6d,0x65,0x69,0x55))
  TeleportPlayer(0,2,254,233,0,0)
  0()



EVENT   36
 PAGE   1
  250(bytes(0x04,0x08,0x6f,0x3a,0x0c,0x52,0x50,0x47,0x3a,0x3a,0x53,0x45,0x08,0x3a,0x0a,0x40,0x6e,0x61,0x6d,0x65,0x49,0x22,0x09,0x4d,0x6f,0x76,0x65,0x06,0x3a,0x06,0x45,0x54,0x3a,0x0b,0x40,0x70,0x69,0x74,0x63,0x68,0x69,0x69,0x3a,0x0c,0x40,0x76,0x6f,0x6c,0x75,0x6d,0x65,0x69,0x55))
  TeleportPlayer(0,2,255,233,2,0)
  0()



EVENT   37
 PAGE   1
  250(bytes(0x04,0x08,0x6f,0x3a,0x0c,0x52,0x50,0x47,0x3a,0x3a,0x53,0x45,0x08,0x3a,0x0a,0x40,0x6e,0x61,0x6d,0x65,0x49,0x22,0x09,0x4d,0x6f,0x76,0x65,0x06,0x3a,0x06,0x45,0x54,0x3a,0x0b,0x40,0x70,0x69,0x74,0x63,0x68,0x69,0x69,0x3a,0x0c,0x40,0x76,0x6f,0x6c,0x75,0x6d,0x65,0x69,0x55))
  TeleportPlayer(0,2,255,233,2,0)
  0()



EVENT   38
 PAGE   1
  250(bytes(0x04,0x08,0x6f,0x3a,0x0c,0x52,0x50,0x47,0x3a,0x3a,0x53,0x45,0x08,0x3a,0x0a,0x40,0x6e,0x61,0x6d,0x65,0x49,0x22,0x09,0x4d,0x6f,0x76,0x65,0x06,0x3a,0x06,0x45,0x54,0x3a,0x0b,0x40,0x70,0x69,0x74,0x63,0x68,0x69,0x69,0x3a,0x0c,0x40,0x76,0x6f,0x6c,0x75,0x6d,0x65,0x69,0x55))
  TeleportPlayer(0,2,255,233,2,0)
  0()



EVENT   39
 PAGE   1
  250(bytes(0x04,0x08,0x6f,0x3a,0x0c,0x52,0x50,0x47,0x3a,0x3a,0x53,0x45,0x08,0x3a,0x0a,0x40,0x6e,0x61,0x6d,0x65,0x49,0x22,0x09,0x4d,0x6f,0x76,0x65,0x06,0x3a,0x06,0x45,0x54,0x3a,0x0b,0x40,0x70,0x69,0x74,0x63,0x68,0x69,0x69,0x3a,0x0c,0x40,0x76,0x6f,0x6c,0x75,0x6d,0x65,0x69,0x55))
  TeleportPlayer(0,2,255,233,2,0)
  0()



EVENT   40
 PAGE   1
  250(bytes(0x04,0x08,0x6f,0x3a,0x0c,0x52,0x50,0x47,0x3a,0x3a,0x53,0x45,0x08,0x3a,0x0a,0x40,0x6e,0x61,0x6d,0x65,0x49,0x22,0x09,0x4d,0x6f,0x76,0x65,0x06,0x3a,0x06,0x45,0x54,0x3a,0x0b,0x40,0x70,0x69,0x74,0x63,0x68,0x69,0x69,0x3a,0x0c,0x40,0x76,0x6f,0x6c,0x75,0x6d,0x65,0x69,0x55))
  TeleportPlayer(0,2,255,233,2,0)
  0()



EVENT   41
 PAGE   1
  250(bytes(0x04,0x08,0x6f,0x3a,0x0c,0x52,0x50,0x47,0x3a,0x3a,0x53,0x45,0x08,0x3a,0x0a,0x40,0x6e,0x61,0x6d,0x65,0x49,0x22,0x09,0x4d,0x6f,0x76,0x65,0x06,0x3a,0x06,0x45,0x54,0x3a,0x0b,0x40,0x70,0x69,0x74,0x63,0x68,0x69,0x69,0x3a,0x0c,0x40,0x76,0x6f,0x6c,0x75,0x6d,0x65,0x69,0x55))
  TeleportPlayer(0,2,255,233,2,0)
  0()



EVENT   42
 PAGE   1
  250(bytes(0x04,0x08,0x6f,0x3a,0x0c,0x52,0x50,0x47,0x3a,0x3a,0x53,0x45,0x08,0x3a,0x0a,0x40,0x6e,0x61,0x6d,0x65,0x49,0x22,0x09,0x4d,0x6f,0x76,0x65,0x06,0x3a,0x06,0x45,0x54,0x3a,0x0b,0x40,0x70,0x69,0x74,0x63,0x68,0x69,0x69,0x3a,0x0c,0x40,0x76,0x6f,0x6c,0x75,0x6d,0x65,0x69,0x55))
  TeleportPlayer(0,2,255,233,2,0)
  0()



EVENT   43
 PAGE   1
  250(bytes(0x04,0x08,0x6f,0x3a,0x0c,0x52,0x50,0x47,0x3a,0x3a,0x53,0x45,0x08,0x3a,0x0a,0x40,0x6e,0x61,0x6d,0x65,0x49,0x22,0x09,0x4d,0x6f,0x76,0x65,0x06,0x3a,0x06,0x45,0x54,0x3a,0x0b,0x40,0x70,0x69,0x74,0x63,0x68,0x69,0x69,0x3a,0x0c,0x40,0x76,0x6f,0x6c,0x75,0x6d,0x65,0x69,0x55))
  TeleportPlayer(0,2,255,233,2,0)
  0()



EVENT   44
 PAGE   1
  250(bytes(0x04,0x08,0x6f,0x3a,0x0c,0x52,0x50,0x47,0x3a,0x3a,0x53,0x45,0x08,0x3a,0x0a,0x40,0x6e,0x61,0x6d,0x65,0x49,0x22,0x09,0x4d,0x6f,0x76,0x65,0x06,0x3a,0x06,0x45,0x54,0x3a,0x0b,0x40,0x70,0x69,0x74,0x63,0x68,0x69,0x69,0x3a,0x0c,0x40,0x76,0x6f,0x6c,0x75,0x6d,0x65,0x69,0x55))
  TeleportPlayer(0,2,255,233,2,0)
  0()



EVENT   45
 PAGE   1
  250(bytes(0x04,0x08,0x6f,0x3a,0x0c,0x52,0x50,0x47,0x3a,0x3a,0x53,0x45,0x08,0x3a,0x0a,0x40,0x6e,0x61,0x6d,0x65,0x49,0x22,0x09,0x4d,0x6f,0x76,0x65,0x06,0x3a,0x06,0x45,0x54,0x3a,0x0b,0x40,0x70,0x69,0x74,0x63,0x68,0x69,0x69,0x3a,0x0c,0x40,0x76,0x6f,0x6c,0x75,0x6d,0x65,0x69,0x55))
  TeleportPlayer(0,2,255,233,2,0)
  0()



EVENT   46
 PAGE   1
  250(bytes(0x04,0x08,0x6f,0x3a,0x0c,0x52,0x50,0x47,0x3a,0x3a,0x53,0x45,0x08,0x3a,0x0a,0x40,0x6e,0x61,0x6d,0x65,0x49,0x22,0x09,0x4d,0x6f,0x76,0x65,0x06,0x3a,0x06,0x45,0x54,0x3a,0x0b,0x40,0x70,0x69,0x74,0x63,0x68,0x69,0x69,0x3a,0x0c,0x40,0x76,0x6f,0x6c,0x75,0x6d,0x65,0x69,0x55))
  TeleportPlayer(0,2,255,233,2,0)
  0()



EVENT   47
 PAGE   1
  250(bytes(0x04,0x08,0x6f,0x3a,0x0c,0x52,0x50,0x47,0x3a,0x3a,0x53,0x45,0x08,0x3a,0x0a,0x40,0x6e,0x61,0x6d,0x65,0x49,0x22,0x09,0x4d,0x6f,0x76,0x65,0x06,0x3a,0x06,0x45,0x54,0x3a,0x0b,0x40,0x70,0x69,0x74,0x63,0x68,0x69,0x69,0x3a,0x0c,0x40,0x76,0x6f,0x6c,0x75,0x6d,0x65,0x69,0x55))
  TeleportPlayer(0,2,255,233,2,0)
  0()



EVENT   48
 PAGE   1
  250(bytes(0x04,0x08,0x6f,0x3a,0x0c,0x52,0x50,0x47,0x3a,0x3a,0x53,0x45,0x08,0x3a,0x0a,0x40,0x6e,0x61,0x6d,0x65,0x49,0x22,0x09,0x4d,0x6f,0x76,0x65,0x06,0x3a,0x06,0x45,0x54,0x3a,0x0b,0x40,0x70,0x69,0x74,0x63,0x68,0x69,0x69,0x3a,0x0c,0x40,0x76,0x6f,0x6c,0x75,0x6d,0x65,0x69,0x55))
  TeleportPlayer(0,2,255,233,2,0)
  0()



EVENT   49
 PAGE   1
  250(bytes(0x04,0x08,0x6f,0x3a,0x0c,0x52,0x50,0x47,0x3a,0x3a,0x53,0x45,0x08,0x3a,0x0a,0x40,0x6e,0x61,0x6d,0x65,0x49,0x22,0x09,0x4d,0x6f,0x76,0x65,0x06,0x3a,0x06,0x45,0x54,0x3a,0x0b,0x40,0x70,0x69,0x74,0x63,0x68,0x69,0x69,0x3a,0x0c,0x40,0x76,0x6f,0x6c,0x75,0x6d,0x65,0x69,0x55))
  TeleportPlayer(0,2,255,233,2,0)
  0()



EVENT   50
 PAGE   1
  250(bytes(0x04,0x08,0x6f,0x3a,0x0c,0x52,0x50,0x47,0x3a,0x3a,0x53,0x45,0x08,0x3a,0x0a,0x40,0x6e,0x61,0x6d,0x65,0x49,0x22,0x09,0x4d,0x6f,0x76,0x65,0x06,0x3a,0x06,0x45,0x54,0x3a,0x0b,0x40,0x70,0x69,0x74,0x63,0x68,0x69,0x69,0x3a,0x0c,0x40,0x76,0x6f,0x6c,0x75,0x6d,0x65,0x69,0x55))
  TeleportPlayer(0,2,255,233,2,0)
  0()



EVENT   51
 PAGE   1
  250(bytes(0x04,0x08,0x6f,0x3a,0x0c,0x52,0x50,0x47,0x3a,0x3a,0x53,0x45,0x08,0x3a,0x0a,0x40,0x6e,0x61,0x6d,0x65,0x49,0x22,0x09,0x4d,0x6f,0x76,0x65,0x06,0x3a,0x06,0x45,0x54,0x3a,0x0b,0x40,0x70,0x69,0x74,0x63,0x68,0x69,0x69,0x3a,0x0c,0x40,0x76,0x6f,0x6c,0x75,0x6d,0x65,0x69,0x55))
  TeleportPlayer(0,2,255,233,2,0)
  0()



EVENT   52
 PAGE   1
  250(bytes(0x04,0x08,0x6f,0x3a,0x0c,0x52,0x50,0x47,0x3a,0x3a,0x53,0x45,0x08,0x3a,0x0a,0x40,0x6e,0x61,0x6d,0x65,0x49,0x22,0x09,0x4d,0x6f,0x76,0x65,0x06,0x3a,0x06,0x45,0x54,0x3a,0x0b,0x40,0x70,0x69,0x74,0x63,0x68,0x69,0x69,0x3a,0x0c,0x40,0x76,0x6f,0x6c,0x75,0x6d,0x65,0x69,0x55))
  TeleportPlayer(0,2,255,233,2,0)
  0()



EVENT   53
 PAGE   1
  ShowMessageFace("",0,0,2,1)
  ShowMessage("【魚売り】")
  ShowMessage("魚はこっち、各地の名産は隣だよ。")
  ShowMessage("さあ、新鮮な魚を買っていきな！")
  355("actor_label_jump")
  JumpToLabel("ショップ")
  DefineLabel("53")
  ShowMessageFace("slime_fc1",0,0,2,2)
  ShowMessage("【ライム】")
  ShowMessage("わーい、おさかなだ～♪")
  JumpToLabel("ショップ")
  DefineLabel("117")
  ShowMessageFace("ankou_fc1",0,0,2,3)
  ShowMessage("【あんこ】")
  ShowMessage("あんこうなべ、おいしいよ……")
  ShowMessageFace("",0,0,2,4)
  ShowMessage("【魚売り】")
  ShowMessage("そう言われても……")
  ShowMessage("あたしゃ、ちょっと困るねぇ。")
  JumpToLabel("ショップ")
  DefineLabel("177")
  ShowMessageFace("vetala_fc1",0,0,2,5)
  ShowMessage("【ヴェータラ】")
  ShowMessage("魚ってのも、美味そうよねぇ……")
  JumpToLabel("ショップ")
  DefineLabel("ショップ")
  Shop(0,322,0,0,false)
  605(0,324,0,0)
  605(0,325,0,0)
  605(0,327,0,0)
  605(0,328,0,0)
  605(0,334,0,0)
  605(0,335,0,0)
  0()



EVENT   54
 PAGE   1
  ShowMessageFace("",0,0,2,1)
  ShowMessage("【商人】")
  ShowMessage("港町だからこそ手に入る、各地の特産品はどうだい？")
  ShowMessage("新鮮な魚なら、隣の屋台で売ってるぜ！")
  355("actor_label_jump")
  JumpToLabel("ショップ")
  DefineLabel("82")
  ShowMessageFace("suzume_fc1",0,0,2,2)
  ShowMessage("【ちゅん】")
  ShowMessage("仲間達へのおみやげにしようかな……？")
  JumpToLabel("ショップ")
  DefineLabel("169")
  ShowMessageFace("lizardthief_fc1",1,0,2,3)
  ShowMessage("【リル】")
  ShowMessage("こりゃ珍しいな、ちょっと買って行こうぜ！")
  JumpToLabel("ショップ")
  DefineLabel("167")
  ShowMessageFace("lusia_fc1",0,0,2,4)
  ShowMessage("【ルシア】")
  ShowMessage("田舎育ちなので、各地の特産品には興味がありますね……")
  JumpToLabel("ショップ")
  DefineLabel("ショップ")
  Shop(0,332,0,0,false)
  605(0,336,0,0)
  605(0,339,0,0)
  605(0,414,0,0)
  605(0,408,0,0)
  605(0,427,0,0)
  0()



EVENT   55
 PAGE   1
  // condition: variable 1001 >= 20
  ChangeVariable(1001,1001,0,0,21)
  If(0,6,0)
   ShowMessageFace("sonia_fc1",4,0,2,1)
   ShowMessage("【ソニア】")
   ShowMessage("ここが、海軍管理下のマールポート……")
   ShowMessage("その割には、なんだかゆるい雰囲気じゃない？")
   0()
  Else()
   ShowMessageFace("ruka_fc1",0,0,2,2)
   ShowMessage("【ルカ】")
   ShowMessage("海軍管理下の割には、のどかな雰囲気だね。")
   0()
  EndIf()
  If(4,12,0)
   ShowMessageFace("sylph_fc1",0,0,2,3)
   ShowMessage("【シルフ】")
   ShowMessage("あたしの頭みたいに、ゆる～い感じ♪")
   0()
  EndIf()
  If(0,4,0)
   ShowMessageFace("alice_fc5",0,0,2,4)
   ShowMessage("【アリス】")
   ShowMessage("とりあえず、港に行ってみよう。")
   ShowMessage("グランドノアへの船が出せるかどうか、聞いてみなければな。")
   ShowMessageFace("alice_fc5",3,0,2,5)
   ShowMessage("【アリス】")
   ShowMessage("……まあ、十中八九断られるだろうが。")
   ShowMessage("大戦争の当事国への渡航など、そう簡単にはいくまい。")
   0()
  EndIf()
  If(0,5,0)
   ShowMessageFace("iriasu_fc4",0,0,2,6)
   ShowMessage("【イリアス】")
   ShowMessage("とりあえず、港に行ってみましょう。")
   ShowMessage("港の者に、グランドノアへの船を出すよう命じるのです。")
   ShowMessageFace("iriasu_fc4",2,0,2,7)
   ShowMessage("【イリアス】")
   ShowMessage("……まあ、間違いなく断られるでしょうが。")
   ShowMessage("大戦争の当事国への渡航ですから、簡単ではないはずです。")
   0()
  EndIf()
  If(1,1028,0,8,1)
   ShowMessageFace("sara_fc1",4,0,2,8)
   ShowMessage("【サラ】")
   ShowMessage("サバサ女王として手助けしたいところだけど……")
   ShowMessage("女王本人が渡航するとなると、いっそう話が複雑になるのよ。")
   ShowMessageFace("sara_fc1",4,0,2,9)
   ShowMessage("【サラ】")
   ShowMessage("外交特使として行ったとしても、行動は制限されるし……")
   ShowMessage("私は、ただの旅人の身分で通した方が良さそうね。")
   0()
  EndIf()
  If(1,1022,0,6,1)
   ShowMessageFace("saniria_fc2",0,0,2,10)
   ShowMessage("【サン・イリア王】")
   ShowMessage("サン・イリアとしても、助力は難しい。")
   ShowMessage("教会としては、大戦の当事国に直接干渉すべきでないからな。")
   ShowMessageFace("saniria_fc2",0,0,2,11)
   ShowMessage("【サン・イリア王】")
   ShowMessage("強権を用いて、グランドノアに渡航したとしても……")
   ShowMessage("そうなれば、向こうは我々を教会のスパイと見るはず。")
   ShowMessageFace("saniria_fc2",0,0,2,12)
   ShowMessage("【サン・イリア王】")
   ShowMessage("監視も厳しくなり、間違いなく自由も制限される。")
   ShowMessage("公式にサン・イリアの名を出すのは得策ではあるまい。")
   0()
  EndIf()
  If(4,171,0)
   ShowMessageFace("lizardboss_fc1",0,0,2,13)
   ShowMessage("【ミランダ】")
   ShowMessage("いざとなったら、船を奪うかい？")
   ShowMessage("それなら私も手助けするよ。")
   0()
  EndIf()
  ShowMessageFace("",0,0,2,14)
  ShowMessage("とにかく、港に行ってみよう。")
  ShowMessage("なんとかグランドノアに渡る方法を見つけなければ……")
  0()
 PAGE   2
  // condition: variable 1001 >= 21
  0()



EVENT   56
 PAGE   1
  0()



EVENT   57
 PAGE   1
  0()



EVENT   58
 PAGE   1
  0()



EVENT   59
 PAGE   1
  If(1,1050,0,0,0)
   ChangeVariable(1050,1050,0,0,1)
   ShowMessageFace("",0,0,2,1)
   ShowMessage("【船乗り】")
   ShowMessage("グランドノアへの船だって？")
   ShowMessage("冗談言うなよ、出てるわけないだろ。")
   ShowMessageFace("",0,0,2,2)
   ShowMessage("【船乗り】")
   ShowMessage("あそこは今、戦争の真っ只中なんだ。")
   ShowMessage("民間船が許可なく行ける場所じゃねぇよ。")
   ShowMessageFace("",0,0,2,3)
   ShowMessage("【船乗り】")
   ShowMessage("どうしても行きたきゃ……")
   ShowMessage("海上封鎖を請け負ってる海軍と、話をつけるしかないだろうな。")
   If(0,4,0)
    ShowMessageFace("alice_fc5",0,0,2,4)
    ShowMessage("【アリス】")
    ShowMessage("やはり、そうするしかないか。")
    ShowMessage("この町に駐留している海軍の責任者はどこにいる？")
    0()
   EndIf()
   If(0,5,0)
    ShowMessageFace("iriasu_fc4",2,0,2,5)
    ShowMessage("【イリアス】")
    ShowMessage("やはり、連中の力を借りるより他にありませんか。")
    ShowMessage("駐留している海軍の親玉はどこにいるのです？")
    0()
   EndIf()
   ShowMessageFace("",0,0,2,6)
   ShowMessage("【船乗り】")
   ShowMessage("マールポート総督なら、すぐそこで魚を盗み食いしてるよ。")
   ShowMessage("バレてないと思ってるのが、可愛いよな……")
   If(4,41,0)
    ShowMessageFace("stein_fc2",0,0,2,7)
    ShowMessage("【プロメスティン】")
    ShowMessage("役に立たなさそうな総督ですね……")
    0()
   EndIf()
   EndEventProcessing()
   0()
  EndIf()
  If(1,1050,0,1,0)
   ShowMessageFace("",0,0,2,8)
   ShowMessage("【船乗り】")
   ShowMessage("どうしてもグランドノアに行きたきゃ……")
   ShowMessage("海上封鎖を請け負ってる海軍と、話をつけるしかないだろうな。")
   ShowMessageFace("",0,0,2,9)
   ShowMessage("【船乗り】")
   ShowMessage("マールポート総督なら、すぐそこで魚を盗み食いしてるよ。")
   ShowMessage("バレてないと思ってるのが、可愛いよな……")
   If(4,41,0)
    ShowMessageFace("stein_fc2",0,0,2,10)
    ShowMessage("【プロメスティン】")
    ShowMessage("役に立たなさそうな総督ですね……")
    0()
   EndIf()
   EndEventProcessing()
   0()
  EndIf()
  If(1,1050,0,2,0)
   ChangeVariable(1050,1050,0,0,3)
   ShowMessageFace("",0,0,2,11)
   ShowMessage("【船乗り】")
   ShowMessage("おや、それは総督の手紙か……")
   ShowMessage("ふむふむ、海軍本部への渡航許可があるようだな。")
   ShowMessageFace("",0,0,2,12)
   ShowMessage("【船乗り】")
   ShowMessage("それじゃあ、海軍の連絡船に乗せてやるよ。")
   ShowMessage("今すぐ海軍本部に行くかい？")
   ShowChoices(strings("乗る","乗らない"),2)
   IfPlayerPicksChoice(0,null)
    ShowMessageFace("",0,0,2,13)
    ShowMessage("【船乗り】")
    ShowMessage("それじゃあ、乗ってくれよな！")
    221()
    250(bytes(0x04,0x08,0x6f,0x3a,0x0c,0x52,0x50,0x47,0x3a,0x3a,0x53,0x45,0x08,0x3a,0x0a,0x40,0x6e,0x61,0x6d,0x65,0x49,0x22,0x0b,0x57,0x61,0x74,0x65,0x72,0x31,0x06,0x3a,0x06,0x45,0x54,0x3a,0x0b,0x40,0x70,0x69,0x74,0x63,0x68,0x69,0x69,0x3a,0x0c,0x40,0x76,0x6f,0x6c,0x75,0x6d,0x65,0x69,0x55))
    Wait(60)
    ChangeSwitch(123,123,0)
    ChangeSwitch(224,224,0)
    TeleportPlayer(0,279,14,6,2,2)
    222()
    EndEventProcessing()
    0()
   IfPlayerPicksChoice(1,null)
    EndEventProcessing()
    0()
   404()
   EndEventProcessing()
   0()
  EndIf()
  If(1,1050,0,3,1)
   ShowMessageFace("",0,0,2,14)
   ShowMessage("【船乗り】")
   ShowMessage("海軍の連絡船に乗せてやるよ。")
   ShowMessage("今すぐ海軍本部に行くかい？")
   If(0,2149,0)
    ShowMessageFace("",0,0,2,15)
    ShowMessage("【船乗り】")
    ShowMessage("……って、あんた達は海賊じゃないか！")
    ShowMessage("乗せられねぇよ、俺まで捕まっちまう！")
    If(4,202,0)
     ShowMessageFace("bonny_fc1",0,0,2,16)
     ShowMessage("【ボニー】")
     ShowMessage("ふん！　自前の船があるわ！")
     0()
    EndIf()
    EndEventProcessing()
    0()
   EndIf()
   ShowChoices(strings("乗る","乗らない"),2)
   IfPlayerPicksChoice(0,null)
    ShowMessageFace("",0,0,2,17)
    ShowMessage("【船乗り】")
    ShowMessage("それじゃあ、乗ってくれよな！")
    221()
    250(bytes(0x04,0x08,0x6f,0x3a,0x0c,0x52,0x50,0x47,0x3a,0x3a,0x53,0x45,0x08,0x3a,0x0a,0x40,0x6e,0x61,0x6d,0x65,0x49,0x22,0x0b,0x57,0x61,0x74,0x65,0x72,0x31,0x06,0x3a,0x06,0x45,0x54,0x3a,0x0b,0x40,0x70,0x69,0x74,0x63,0x68,0x69,0x69,0x3a,0x0c,0x40,0x76,0x6f,0x6c,0x75,0x6d,0x65,0x69,0x55))
    Wait(60)
    ChangeSwitch(123,123,0)
    ChangeSwitch(224,224,0)
    TeleportPlayer(0,279,14,6,2,2)
    222()
    EndEventProcessing()
    0()
   IfPlayerPicksChoice(1,null)
    EndEventProcessing()
    0()
   404()
   0()
  EndIf()
  0()



EVENT   60
 PAGE   1
  If(1,1050,0,0,0)
   ShowMessageFace("tatunoko_k_fc1",0,0,2,1)
   ShowMessage("\\n<Sea Horse Marine>もぐもぐ、むしゃむしゃ……")
   ShowMessageFace("",0,0,2,2)
   ShowMessage("たつのこ海兵は、魚を盗み食いしている……")
   EndEventProcessing()
   0()
  EndIf()
  If(1,1050,0,1,0)
   ChangeVariable(1050,1050,0,0,2)
   ShowMessageFace("tatunoko_k_fc1",0,0,2,3)
   ShowMessage("\\n<Sea Horse Marine>もぐもぐ、むしゃむしゃ……")
   ShowMessageFace("",0,0,2,4)
   ShowMessage("たつのこ海兵は、魚を盗み食いしている……")
   If(0,6,0)
    ShowMessageFace("sonia_fc1",0,0,2,5)
    ShowMessage("【ソニア】")
    ShowMessage("ねぇ、ちょっといい？")
    0()
   Else()
    ShowMessageFace("ruka_fc1",0,0,2,6)
    ShowMessage("【ルカ】")
    ShowMessage("あの、ちょっといいかな……")
    0()
   EndIf()
   ShowSpeechBalloon(0,1,true)
   205(0,bytes(0x04,0x08,0x6f,0x3a,0x13,0x52,0x50,0x47,0x3a,0x3a,0x4d,0x6f,0x76,0x65,0x52,0x6f,0x75,0x74,0x65,0x09,0x3a,0x0c,0x40,0x72,0x65,0x70,0x65,0x61,0x74,0x46,0x3a,0x0f,0x40,0x73,0x6b,0x69,0x70,0x70,0x61,0x62,0x6c,0x65,0x46,0x3a,0x0a,0x40,0x77,0x61,0x69,0x74,0x54,0x3a,0x0a,0x40,0x6c,0x69,0x73,0x74,0x5b,0x08,0x6f,0x3a,0x15,0x52,0x50,0x47,0x3a,0x3a,0x4d,0x6f,0x76,0x65,0x43,0x6f,0x6d,0x6d,0x61,0x6e,0x64,0x07,0x3a,0x0a,0x40,0x63,0x6f,0x64,0x65,0x69,0x29,0x3a,0x10,0x40,0x70,0x61,0x72,0x61,0x6d,0x65,0x74,0x65,0x72,0x73,0x5b,0x00,0x6f,0x3b,0x0a,0x07,0x3b,0x0b,0x69,0x1e,0x3b,0x0c,0x5b,0x00,0x6f,0x3b,0x0a,0x07,0x3b,0x0b,0x69,0x00,0x3b,0x0c,0x5b,0x00))
   PictureDisplay(5,"80_tatunoko_k_st03",0,0,0,0,100,100,0,0)
   PictureMove(5,null,0,0,0,0,100,100,255,0,30,true)
   ShowMessageFace("tatunoko_k_fc1",2,0,2,7)
   ShowMessage("\\n<Sea Horse Marine>はっ！？　バレちゃったのです！")
   If(0,4,0)
    ShowMessageFace("alice_fc5",2,0,2,8)
    ShowMessage("【アリス】")
    ShowMessage("貴様がマールポート総督だな。")
    ShowMessage("我々は、グランドノアに渡航したいのだが……")
    0()
   EndIf()
   If(0,5,0)
    ShowMessageFace("iriasu_fc4",0,0,2,9)
    ShowMessage("【イリアス】")
    ShowMessage("あなたがマールポート総督ですね。")
    ShowMessageFace("iriasu_fc4",0,0,2,10)
    ShowMessage("【イリアス】")
    ShowMessage("これからも魚を美味しく味わえる体を保ちたいなら、")
    ShowMessage("我々をグランドノアに渡航させるのです。")
    0()
   EndIf()
   ShowMessageFace("tatunoko_k_fc1",2,0,2,11)
   ShowMessage("【マールポート総督】")
   ShowMessage("そんな重要な問題、たつのこにはどうにもできないのです……")
   ShowMessage("こう見えても、実際のところ一兵卒に過ぎないのです。")
   If(0,6,0)
    ShowMessageFace("sonia_fc2",2,0,2,12)
    ShowMessage("【ソニア】")
    ShowMessage("いや、どう見ても下っ端の一兵卒だけど……")
    0()
   EndIf()
   PictureDisplay(5,"80_tatunoko_k_st01",0,0,0,0,100,100,255,0)
   ShowMessageFace("tatunoko_k_fc1",0,0,2,13)
   ShowMessage("【マールポート総督】")
   ShowMessage("総督の職務は、魚を食べる事と、")
   ShowMessage("厄介事を本部に丸投げする事なのです。")
   If(4,41,0)
    ShowMessageFace("stein_fc2",0,0,2,14)
    ShowMessage("【プロメスティン】")
    ShowMessage("それは、天界並のお役所仕事ですね……")
    0()
   EndIf()
   PictureDisplay(5,"80_tatunoko_k_st02",0,0,0,0,100,100,255,0)
   ShowMessageFace("tatunoko_k_fc1",1,0,2,15)
   ShowMessage("【マールポート総督】")
   ShowMessage("そういうわけで、手紙を書きました。")
   ShowMessage("これを船番に渡せば、海軍本部への船に乗れるのです！")
   250(bytes(0x04,0x08,0x6f,0x3a,0x0c,0x52,0x50,0x47,0x3a,0x3a,0x53,0x45,0x08,0x3a,0x0a,0x40,0x6e,0x61,0x6d,0x65,0x49,0x22,0x0a,0x49,0x74,0x65,0x6d,0x31,0x06,0x3a,0x06,0x45,0x54,0x3a,0x0b,0x40,0x70,0x69,0x74,0x63,0x68,0x69,0x69,0x3a,0x0c,0x40,0x76,0x6f,0x6c,0x75,0x6d,0x65,0x69,0x55))
   ChangeInventory_Item(528,0,0,1)
   Wait(60)
   PictureDisplay(5,"80_tatunoko_k_st03",0,0,0,0,100,100,255,0)
   ShowMessageFace("tatunoko_k_fc1",2,0,2,16)
   ShowMessage("【マールポート総督】")
   ShowMessage("後の事は、本部にいる海軍大将に言って下さい。")
   ShowMessage("大将は、あたしと違って本当に偉い人なのです。")
   PictureDisplay(5,"80_tatunoko_k_st02",0,0,0,0,100,100,255,0)
   ShowMessageFace("tatunoko_k_fc1",1,0,2,17)
   ShowMessage("【マールポート総督】")
   ShowMessage("ただし、大将は非常に恐ろしい方……")
   ShowMessage("あの方を前にして、こんなに上手く行くとは思わない事です。")
   If(4,62,0)
    ShowMessageFace("gob_fc1",3,0,2,18)
    ShowMessage("【ゴブ】")
    ShowMessage("ボク達、なんで脅されてるの……？")
    0()
   EndIf()
   PictureDisplay(5,"80_tatunoko_k_st01",0,0,0,0,100,100,255,0)
   ShowMessageFace("tatunoko_k_fc1",0,0,2,19)
   ShowMessage("【マールポート総督】")
   ShowMessage("それでは、あたしは本来の職務に戻るのです。")
   PictureClear(5)
   Wait(60)
   205(0,bytes(0x04,0x08,0x6f,0x3a,0x13,0x52,0x50,0x47,0x3a,0x3a,0x4d,0x6f,0x76,0x65,0x52,0x6f,0x75,0x74,0x65,0x09,0x3a,0x0c,0x40,0x72,0x65,0x70,0x65,0x61,0x74,0x46,0x3a,0x0f,0x40,0x73,0x6b,0x69,0x70,0x70,0x61,0x62,0x6c,0x65,0x46,0x3a,0x0a,0x40,0x77,0x61,0x69,0x74,0x54,0x3a,0x0a,0x40,0x6c,0x69,0x73,0x74,0x5b,0x08,0x6f,0x3a,0x15,0x52,0x50,0x47,0x3a,0x3a,0x4d,0x6f,0x76,0x65,0x43,0x6f,0x6d,0x6d,0x61,0x6e,0x64,0x07,0x3a,0x0a,0x40,0x63,0x6f,0x64,0x65,0x69,0x18,0x3a,0x10,0x40,0x70,0x61,0x72,0x61,0x6d,0x65,0x74,0x65,0x72,0x73,0x5b,0x00,0x6f,0x3b,0x0a,0x07,0x3b,0x0b,0x69,0x28,0x3b,0x0c,0x5b,0x00,0x6f,0x3b,0x0a,0x07,0x3b,0x0b,0x69,0x00,0x3b,0x0c,0x5b,0x00))
   ShowMessageFace("tatunoko_k_fc1",0,0,2,20)
   ShowMessage("【マールポート総督】")
   ShowMessage("もぐもぐ、むしゃむしゃ……")
   ShowMessageFace("",0,0,2,21)
   ShowMessage("マールポート総督は、魚を盗み食いしている……")
   ShowMessageFace("ruka_fc1",0,0,2,22)
   ShowMessage("【ルカ】")
   ShowMessage("ともかく、これで海軍本部への連絡船に乗れるね。")
   ShowMessage("さっきの船乗りに、手紙を見せに行こう！")
   EndEventProcessing()
   0()
  EndIf()
  If(1,1050,0,2,1)
   ShowMessageFace("tatunoko_k_fc1",0,0,2,23)
   ShowMessage("【マールポート総督】")
   ShowMessage("もぐもぐ、むしゃむしゃ……")
   ShowMessageFace("",0,0,2,24)
   ShowMessage("マールポート総督は、魚を盗み食いしている……")
   355("actor_label_jump")
   EndEventProcessing()
   DefineLabel("70")
   ShowMessageFace("nezumi_fc1",1,0,2,25)
   ShowMessage("【ラティ】")
   ShowMessage("あたしも……ちょっとだけ、魚かじっちゃえ。")
   EndEventProcessing()
   DefineLabel("143")
   ShowMessageFace("eva_fc1",0,0,2,26)
   ShowMessage("【エヴァ】")
   ShowMessage("この仕事、いいじゃない！")
   ShowMessage("給料によっては、私がやってもいいわよ。")
   EndEventProcessing()
   0()
  EndIf()
  0()



EVENT   61
 PAGE   1
  PictureDisplay(5,"80_tatunoko_k_st01",0,0,0,0,100,100,0,0)
  PictureMove(5,null,0,0,0,0,100,100,255,0,30,true)
  ShowMessageFace("tatunoko_k_fc1",0,0,2,1)
  ShowMessage("\\n<Sea Horse Marine>マールポートは、海軍の管理下にあるのです！")
  If(2,"A",1)
   If(0,6,0)
    ChangeSelfSwitch("A",0)
    ShowMessageFace("sonia_fc3",6,0,2,2)
    ShowMessage("【ソニア】")
    ShowMessage("わっ、かわい～♪")
    PictureDisplay(5,"80_tatunoko_k_st03",0,0,0,0,100,100,255,0)
    ShowMessageFace("tatunoko_k_fc1",2,0,2,3)
    ShowMessage("\\n<Sea Horse Marine>海軍の威厳を感じてもらえないのです……")
    0()
   EndIf()
   0()
  EndIf()
  If(4,68,0)
   ShowMessageFace("dragonp_fc1",0,0,2,4)
   ShowMessage("【パピ】")
   ShowMessage("同じ竜族……ちょっと親近感が湧くのだ。")
   ShowMessageFace("tatunoko_k_fc1",1,0,2,5)
   ShowMessage("\\n<Sea Horse Marine>わぁ、陸のドラゴンなのです！")
   ShowMessage("初めて見たのです！")
   0()
  EndIf()
  PictureClear(5)
  281(1)
  355("unlimited_choices(11, [\"宿屋に行く\",")
  655("\"武器屋に行く\",\"アクセサリ屋に行く\",")
  655("\"道具屋に行く\",\"教会に行く\",\"食堂に行く\",")
  655("\"やめる\"])")
  If(1,11,0,0,0)
   TeleportPlayer(0,39,16,18,2,0)
   EndEventProcessing()
   0()
  EndIf()
  If(1,11,0,1,0)
   TeleportPlayer(0,39,27,39,2,0)
   EndEventProcessing()
   0()
  EndIf()
  If(1,11,0,2,0)
   TeleportPlayer(0,39,39,14,2,0)
   EndEventProcessing()
   0()
  EndIf()
  If(1,11,0,3,0)
   TeleportPlayer(0,39,22,39,2,0)
   EndEventProcessing()
   0()
  EndIf()
  If(1,11,0,4,0)
   TeleportPlayer(0,39,10,35,2,0)
   EndEventProcessing()
   0()
  EndIf()
  If(1,11,0,5,0)
   TeleportPlayer(0,39,31,13,2,0)
   EndEventProcessing()
   0()
  EndIf()
  If(1,11,0,6,0)
   EndEventProcessing()
   0()
  EndIf()
  0()



EVENT   62
 PAGE   1
  ShowMessageFace("",0,0,2,1)
  ShowMessage("【女性】")
  ShowMessage("町中、たつのこちゃんがいっぱいでしょう？")
  ShowMessage("マスコットとして、みんなに可愛がられているんですよ。")
  355("actor_label_jump")
  EndEventProcessing()
  DefineLabel("525")
  ShowMessageFace("sonia_fc4",0,0,2,2)
  ShowMessage("【ソニア】")
  ShowMessage("海軍の厳戒態勢って、そんなのでいいのかな……")
  EndEventProcessing()
  DefineLabel("143")
  ShowMessageFace("eva_fc1",0,0,2,3)
  ShowMessage("【エヴァ】")
  ShowMessage("マスコット気取りでメシ食うなんて、気楽なものよね……")
  EndEventProcessing()
  DefineLabel("185")
  ShowMessageFace("radio_fc1",0,0,2,4)
  ShowMessage("【ラディオ】")
  ShowMessage("私も、マスコっとになリタい……")
  EndEventProcessing()
  0()



EVENT   63
 PAGE   1
  ShowMessageFace("",0,0,2,1)
  ShowMessage("【神父】")
  ShowMessage("すみっこの日陰教会にようこそ。")
  ShowMessage("何のご用ですかな？")
  ShowChoices(strings("お祈りをする","用はない"),2)
  IfPlayerPicksChoice(0,null)
   ChangeVariable(1002,1002,0,0,20)
   ShowMessageFace("",0,0,2,2)
   ShowMessage("【神父】")
   ShowMessage("それでは、イリアス様に祈りましょう。")
   ShowMessage("……ああ、この場に導きの縁を感じます。")
   ShowMessageFace("",0,0,2,3)
   ShowMessage("【神父】")
   ShowMessage("もし旅先で何かあった場合、この場に導かれるでしょう。")
   ShowMessage("イリアス様のご加護があらん事を……")
   0()
  IfPlayerPicksChoice(1,null)
   ShowMessageFace("",0,0,2,4)
   ShowMessage("【神父】")
   ShowMessage("イリアス様のご加護があらん事を……")
   0()
  404()
  0()



EVENT   64
 PAGE   1
  ShowMessageFace("dog_fc1",4,0,2,1)
  ShowMessage("【犬娘】")
  ShowMessage("Woof, woof!")
  355("actor_label_jump")
  EndEventProcessing()
  DefineLabel("60")
  ShowMessageFace("dog_fc1",4,0,2,2)
  ShowMessage("【ポチ】")
  ShowMessage("わうー！")
  EndEventProcessing()
  DefineLabel("74")
  ShowMessageFace("usagi_fc1",0,0,2,3)
  ShowMessage("【バーニー】")
  ShowMessage("わんちゃんは、どの町にもいるのね。")
  EndEventProcessing()
  0()



EVENT   65
 PAGE   1
  ShowMessageFace("tatunoko_k_fc1",1,0,2,1)
  ShowMessage("\\n<Sea Horse Marine>Woof, woof!")
  ShowMessage("……なのです。")
  0()



EVENT   66
 PAGE   1
  ShowMessageFace("tatunoko_k_fc1",1,0,2,1)
  ShowMessage("\\n<Sea Horse Marine>さあ、今日も平らげてやるのです！")
  0()



EVENT   67
 PAGE   1
  ShowMessageFace("tatunoko_k_fc1",2,0,2,1)
  ShowMessage("\\n<Sea Horse Marine>うまうま……♪")
  0()



EVENT   68
 PAGE   1
  ShowMessageFace("tatunoko_k_fc1",1,0,2,1)
  ShowMessage("\\n<Sea Horse Marine>この店は、海兵の憩いなのです！")
  0()



EVENT   69
 PAGE   1
  ShowMessageFace("tatunoko_k_fc1",1,0,2,1)
  ShowMessage("\\n<Sea Horse Marine>おいしいのです……")
  0()



EVENT   70
 PAGE   1
  ShowMessageFace("tatunoko_k_fc1",1,0,2,1)
  ShowMessage("\\n<Sea Horse Marine>大将にはナイショなのです！")
  0()



EVENT   71
 PAGE   1
  ShowMessageFace("tatunoko_k_fc1",1,0,2,1)
  ShowMessage("\\n<Sea Horse Marine>お魚は大好物です！")
  0()



EVENT   72
 PAGE   1
  ShowMessageFace("tatunoko_k_fc1",1,0,2,1)
  ShowMessage("\\n<Sea Horse Marine>本日の職務、遂行中なのです！")
  ShowMessage("もぐもぐ……")
  0()



EVENT   73
 PAGE   1
  ShowMessageFace("tatunoko_k_fc1",2,0,2,1)
  ShowMessage("\\n<Sea Horse Marine>海兵の仕事？")
  ShowMessage("もりもりごはんを食べることです。")
  0()



EVENT   74
 PAGE   1
  ShowMessageFace("tatunoko_k_fc1",2,0,2,1)
  ShowMessage("\\n<Sea Horse Marine>もぐもぐ……むしゃむしゃ……")
  ShowMessageFace("tatunoko_k_fc1",2,0,2,2)
  ShowMessage("\\n<Sea Horse Marine>……………………")
  0()



EVENT   75
 PAGE   1
  ShowMessageFace("tatunoko_k_fc1",1,0,2,1)
  ShowMessage("\\n<Sea Horse Marine>今日もごはんがおいしいのです！")
  0()



EVENT   76
 PAGE   1
  ShowMessageFace("tatunoko_k_fc1",1,0,2,1)
  ShowMessage("\\n<Sea Horse Marine>おかわりなのです！")
  0()



EVENT   77
 PAGE   1
  If(1,1001,0,25,2)
   ShowMessageFace("",0,0,2,1)
   ShowMessage("【商人】")
   ShowMessage("許可を得たギルドの商業船は運行できるから、流通に大きな影響はない。")
   ShowMessage("むしろ戦争需要で輸出が急増、経済は潤ってるぐらいさ。")
   ShowMessageFace("",0,0,2,2)
   ShowMessage("【商人】")
   ShowMessage("まあ、当然ながら手放しで喜べる話でもないよ。")
   ShowMessage("早く平和が訪れないものかね……")
   EndEventProcessing()
   0()
  EndIf()
  If(1,1001,0,26,1)
   ShowMessageFace("",0,0,2,3)
   ShowMessage("【商人】")
   ShowMessage("グランゴルドとの戦争が終わったと思ったら……")
   ShowMessage("今度は、魔王軍と戦争なんてね。")
   ShowMessageFace("",0,0,2,4)
   ShowMessage("【商人】")
   ShowMessage("そもそもグランゴルドとの戦争も、魔王が糸を引いてたっていうじゃないか。")
   ShowMessage("こりゃ最初から、人間と魔物の戦いだったんだね。")
   EndEventProcessing()
   0()
  EndIf()
  0()



EVENT   78
 PAGE   1
  If(1,1001,0,25,2)
   ShowMessageFace("",0,0,2,1)
   ShowMessage("【青年】")
   ShowMessage("海軍は、基本的にどこの国家にも属さないんだが……")
   ShowMessage("今回の大戦では、グランドノアを支援しているようだ。")
   ShowMessageFace("",0,0,2,2)
   ShowMessage("【青年】")
   ShowMessage("まあ、当然の話だよな。")
   ShowMessage("今のグランゴルドは、もはや暴虐国家以外の何でもないよ。")
   EndEventProcessing()
   0()
  EndIf()
  If(1,1001,0,26,1)
   ShowMessageFace("",0,0,2,3)
   ShowMessage("【青年】")
   ShowMessage("グランゴルドも魔王に操られてたって、マジかよ……")
   ShowMessage("サバサ女王の乱心だって、魔王が糸を引いていたって話じゃないか。")
   ShowMessageFace("",0,0,2,4)
   ShowMessage("【青年】")
   ShowMessage("くそっ、魔王は許さねぇ！")
   ShowMessage("噂の勇者ルカが、ズバッと討伐してくれないもんかね。")
   EndEventProcessing()
   0()
  EndIf()
  0()



EVENT   79
 PAGE   1
  If(1,1001,0,25,2)
   ShowMessageFace("",0,0,2,1)
   ShowMessage("【老婆】")
   ShowMessage("たつのこちゃん達は可愛いけど……")
   ShowMessage("民間船の運行制限は、やっぱり面倒よねぇ。")
   ShowMessageFace("",0,0,2,2)
   ShowMessage("【老婆】")
   ShowMessage("グランドノアの孫に会いに行くのに、")
   ShowMessage("許可証支給やら何やらで半月も待たされたよ。")
   355("actor_label_jump")
   EndEventProcessing()
   DefineLabel("101")
   ShowMessageFace("cent2_fc1",0,0,2,3)
   ShowMessage("【リヒティーヌ】")
   ShowMessage("走って行くわけにはいかないもんね……")
   EndEventProcessing()
   0()
  EndIf()
  If(1,1001,0,26,1)
   ShowMessageFace("",0,0,2,4)
   ShowMessage("【老婆】")
   ShowMessage("グランゴルドとの戦争は終わったけど、民間船の運行制限は解除されないわ。")
   ShowMessage("今度は魔王との戦争なんて、どうなるのかねぇ……")
   EndEventProcessing()
   0()
  EndIf()
  0()



EVENT   80
 PAGE   1
  If(1,1001,0,25,2)
   ShowMessageFace("",0,0,2,1)
   ShowMessage("【船乗り】")
   ShowMessage("現在、グランドノアには自由に運行できない。")
   ShowMessage("許可を受けた、身元の確かな者しか定期船に乗れないんだ。")
   355("actor_label_jump")
   EndEventProcessing()
   DefineLabel("134")
   ShowMessageFace("chrom_fc2",5,0,2,2)
   ShowMessage("【クロム】")
   ShowMessage("儂の血統は確かだが……")
   ShowMessage("定期船には乗せてくれなさそうじゃな。")
   EndEventProcessing()
   DefineLabel("185")
   ShowMessageFace("radio_fc1",0,0,2,3)
   ShowMessage("【ラディオ】")
   ShowMessage("私のIDでは、だメデしょうか……？")
   EndEventProcessing()
   0()
  EndIf()
  If(1,1001,0,26,1)
   ShowMessageFace("",0,0,2,4)
   ShowMessage("【船乗り】")
   ShowMessage("相変わらず、グランドノアへの定期便は運行停止中だ。")
   ShowMessage("魔王の率いる海の魔物にやられちまうからな……")
   EndEventProcessing()
   0()
  EndIf()
  0()



EVENT   81
 PAGE   1
  ShowMessageFace("",0,0,2,1)
  ShowMessage("【青年】")
  ShowMessage("見ての通り、たつのこ達が大量発生……")
  ShowMessage("……じゃない、大量派遣されてるんだ。")
  ShowMessageFace("",0,0,2,2)
  ShowMessage("【青年】")
  ShowMessage("まあ、マスコットみたいなものさ。")
  ShowMessage("夜の見回りもしてくれるし、治安は良くなったよ。")
  355("actor_label_jump")
  EndEventProcessing()
  DefineLabel("136")
  ShowMessageFace("elf_fc1",0,0,2,3)
  ShowMessage("【クローディア】")
  ShowMessage("頼りないように見えて、ちゃんと町を守っているのね……")
  EndEventProcessing()
  DefineLabel("203")
  ShowMessageFace("tatunoko_k_fc1",1,0,2,4)
  ShowMessage("【たつこ】")
  ShowMessage("海兵は町の平和を守るのです！")
  EndEventProcessing()
  0()



EVENT   82
 PAGE   1
  ShowMessageFace("tatunoko_k_fc1",0,0,2,1)
  ShowMessage("\\n<Sea Horse Marine>見回りなのです！")
  355("actor_label_jump")
  EndEventProcessing()
  DefineLabel("178")
  ShowMessageFace("valt_fc1",0,0,2,2)
  ShowMessage("【ヴァルト】")
  ShowMessage("私も、見回りをしようか……？")
  ShowMessageFace("tatunoko_k_fc1",2,0,2,3)
  ShowMessage("\\n<Sea Horse Marine>なんだか、すっごく怖そうなメカがいるのです……")
  ShowMessage("見て見ぬフリをするのです……")
  EndEventProcessing()
  0()



EVENT   83
 PAGE   1
  ShowMessageFace("tatunoko_k_fc1",0,0,2,1)
  ShowMessage("\\n<Sea Horse Marine>この町を守るのが、あたし達の任務なのです！")
  355("actor_label_jump")
  EndEventProcessing()
  DefineLabel("129")
  ShowMessageFace("brunhild_fc1",0,0,2,2)
  ShowMessage("【ヒルデ】")
  ShowMessage("ヒルデは、世界を守るのが任務だよ……")
  EndEventProcessing()
  0()



EVENT   84
 PAGE   1
  ShowMessageFace("tatunoko_k_fc1",1,0,2,1)
  ShowMessage("\\n<Sea Horse Marine>将来の夢は、リヴァイアサンなのです！")
  355("actor_label_jump")
  EndEventProcessing()
  DefineLabel("64")
  ShowMessageFace("pramia_fc1",0,0,2,2)
  ShowMessage("【プチ】")
  ShowMessage("あたしの夢は、大ホテルの支配人！")
  EndEventProcessing()
  DefineLabel("171")
  ShowMessageFace("lizardboss_fc1",3,0,2,3)
  ShowMessage("【ミランダ】")
  ShowMessage("あんまり大きな夢を持つと……")
  ShowMessage("折れた時、立ち直れなくなるよ。")
  EndEventProcessing()
  0()



EVENT   85
 PAGE   1
  ShowMessageFace("tatunoko_k_fc1",2,0,2,1)
  ShowMessage("\\n<Sea Horse Marine>ＺＺＺ……")
  355("actor_label_jump")
  EndEventProcessing()
  DefineLabel("59")
  ShowMessageFace("mdg_fc1",0,0,2,2)
  ShowMessage("【ラゴラ】")
  ShowMessage("叫びたい……叫びたい……")
  EndEventProcessing()
  DefineLabel("118")
  ShowMessageFace("meia_fc1",2,0,2,3)
  ShowMessage("【メイア】")
  ShowMessage("眠らせておいてあげましょうよ。")
  EndEventProcessing()
  0()



EVENT   86
 PAGE   1
  ShowMessageFace("tatunoko_k_fc1",2,0,2,1)
  ShowMessage("\\n<Sea Horse Marine>お腹が減ったのです……")
  355("actor_label_jump")
  EndEventProcessing()
  DefineLabel("143")
  ShowMessageFace("eva_fc1",2,0,2,2)
  ShowMessage("【エヴァ】")
  ShowMessage("私もよ……")
  ShowMessage("ここに置いてあるイチゴ、食べてもいいんじゃない？")
  ShowMessageFace("tatunoko_k_fc1",2,0,2,3)
  ShowMessage("\\n<Sea Horse Marine>置いているんじゃなく、売っているのです……")
  EndEventProcessing()
  DefineLabel("173")
  ShowMessageFace("arizigoku_fc1",0,0,2,4)
  ShowMessage("【ヘレン】")
  ShowMessage("私もよ……")
  ShowMessage("砂がないと、獲物も捕まえられないし……")
  EndEventProcessing()
  0()



EVENT   87
 PAGE   1
  ShowMessageFace("tatunoko_k_fc1",0,0,2,1)
  ShowMessage("\\n<Sea Horse Marine>おつとめなのです！")
  0()



EVENT   88
 PAGE   1
  ShowMessageFace("tatunoko_k_fc1",1,0,2,1)
  ShowMessage("\\n<Sea Horse Marine>見回りが済んだら、ごはんを食べるのです！")
  355("actor_label_jump")
  EndEventProcessing()
  DefineLabel("109")
  ShowMessageFace("kani_fc1",0,0,2,2)
  ShowMessage("【ソープ】")
  ShowMessage("あたしも、ごはん食べたいな～♪")
  EndEventProcessing()
  0()



EVENT   89
 PAGE   1
  ShowMessageFace("tatunoko_k_fc1",2,0,2,1)
  ShowMessage("\\n<Sea Horse Marine>ＺＺＺ……")
  0()



EVENT   90
 PAGE   1
  ShowMessageFace("tatunoko_k_fc1",0,0,2,1)
  ShowMessage("\\n<Sea Horse Marine>海兵の誇りなのです！")
  0()



EVENT   91
 PAGE   1
  ShowMessageFace("",0,0,2,1)
  ShowMessage("【女性】")
  ShowMessage("たつのこちゃん、かわい～♪")
  355("actor_label_jump")
  EndEventProcessing()
  DefineLabel("79")
  ShowMessageFace("nuruko_fc1",0,0,2,2)
  ShowMessage("【ヌルコ】")
  ShowMessage("きゅ～！")
  ShowMessageFace("",0,0,2,3)
  ShowMessage("【女性】")
  ShowMessage("この子も、かわい～♪")
  EndEventProcessing()
  DefineLabel("117")
  ShowMessageFace("ankou_fc1",0,0,2,4)
  ShowMessage("【あんこ】")
  ShowMessage("あんこう、かわいい……？")
  ShowMessageFace("",0,0,2,5)
  ShowMessage("【女性】")
  ShowMessage("ど、どうかな……？")
  EndEventProcessing()
  DefineLabel("114")
  ShowMessageFace("wakame_fc1",1,0,2,6)
  ShowMessage("【わかめ】")
  ShowMessage("わかめも、かわいい……？")
  ShowMessageFace("",0,0,2,7)
  ShowMessage("【女性】")
  ShowMessage("ちょっと可愛いかも……")
  EndEventProcessing()
  0()



EVENT   92
 PAGE   1
  ShowMessageFace("tatunoko_k_fc1",1,0,2,1)
  ShowMessage("\\n<Sea Horse Marine>今は戦時下、みだらに渡航する事は控えてほしいのです！")
  ShowMessageFace("tatunoko_k_fc1",2,0,2,2)
  ShowMessage("\\n<Sea Horse Marine>……みだりに渡航、でした。")
  0()



EVENT   93
 PAGE   1
  ShowMessageFace("tatunoko_k_fc1",0,0,2,1)
  ShowMessage("\\n<Sea Horse Marine>現在、グランドノアへの自由渡航は禁じられているのです。")
  ShowMessage("海軍のみならず、グランドノア政府の意向でもあるのです。")
  0()



EVENT   94
 PAGE   1
  ShowMessageFace("tatunoko_k_fc1",0,0,2,1)
  ShowMessage("\\n<Sea Horse Marine>巡回中なのです！")
  0()



EVENT   95
 PAGE   1
  ShowMessageFace("",0,0,2,1)
  ShowMessage("【若い男】")
  ShowMessage("町が海軍に占拠されるなんて、大変な事態なんだろうけど……")
  ShowMessage("たつのこばっかりで、まるで緊迫感がないよ。")
  355("actor_label_jump")
  EndEventProcessing()
  DefineLabel("170")
  ShowMessageFace("lizardthief_fc2",0,0,2,2)
  ShowMessage("【レン】")
  ShowMessage("本当に、のどかな光景ですね……")
  EndEventProcessing()
  DefineLabel("171")
  ShowMessageFace("lizardboss_fc1",3,0,2,3)
  ShowMessage("【ミランダ】")
  ShowMessage("連中、頼りになるのかい……？")
  EndEventProcessing()
  0()



EVENT   96
 PAGE   1
  ShowMessageFace("",0,0,2,1)
  ShowMessage("【若者】")
  ShowMessage("はぅぅ……")
  0()



EVENT   97
 PAGE   1
  // condition: switch 1540 is ON
  241(bytes(0x04,0x08,0x6f,0x3a,0x0d,0x52,0x50,0x47,0x3a,0x3a,0x42,0x47,0x4d,0x08,0x3a,0x0a,0x40,0x6e,0x61,0x6d,0x65,0x49,0x22,0x0a,0x61,0x6d,0x69,0x72,0x61,0x06,0x3a,0x06,0x45,0x54,0x3a,0x0c,0x40,0x76,0x6f,0x6c,0x75,0x6d,0x65,0x69,0x69,0x3a,0x0b,0x40,0x70,0x69,0x74,0x63,0x68,0x69,0x69))
  If(2,"A",1)
   ChangeSelfSwitch("A",0)
   RunCommonEvent(322)
   0()
  Else()
   ShowMessageFace("amira_fc1",0,0,2,1)
   ShowMessage("【アミラ】")
   ShowMessage("このアミラは、もう見つけたわ。")
   ShowMessage("別のアミラを探して……")
   0()
  EndIf()
  241(bytes(0x04,0x08,0x6f,0x3a,0x0d,0x52,0x50,0x47,0x3a,0x3a,0x42,0x47,0x4d,0x08,0x3a,0x0a,0x40,0x6e,0x61,0x6d,0x65,0x49,0x22,0x0a,0x63,0x69,0x74,0x79,0x31,0x06,0x3a,0x06,0x45,0x54,0x3a,0x0c,0x40,0x76,0x6f,0x6c,0x75,0x6d,0x65,0x69,0x69,0x3a,0x0b,0x40,0x70,0x69,0x74,0x63,0x68,0x69,0x69))
  EndEventProcessing()
  0()
 PAGE   2
  // condition: party contains actor #540
  0()



EVENT   98
 PAGE   1
  ShowMessageFace("k_mermaid_fc1",2,0,2,1)
  ShowMessage("\\n<Mermaid Pirate>この町、すっかり海兵だらけじゃない……")
  ShowMessage("仕事がやりにくくなるなぁ。")
  355("actor_label_jump")
  EndEventProcessing()
  DefineLabel("80")
  ShowMessageFace("orc_fc1",0,0,2,2)
  ShowMessage("【ヒップ】")
  ShowMessage("お互い、大変ですよね……")
  EndEventProcessing()
  DefineLabel("143")
  ShowMessageFace("eva_fc1",2,0,2,3)
  ShowMessage("【エヴァ】")
  ShowMessage("これじゃ、食い逃げも出来ないわよね……")
  EndEventProcessing()
  DefineLabel("169")
  ShowMessageFace("lizardthief_fc1",0,0,2,4)
  ShowMessage("【リル】")
  ShowMessage("盗賊稼業も、あがったりだよな。")
  EndEventProcessing()
  0()



EVENT   99
 PAGE   1
  ShowMessageFace("",0,0,2,1)
  ShowMessage("【マーメイド】")
  ShowMessage("食堂がたつのこで大繁盛してるみたいですね。")
  ShowMessage("普段、どれほど不味いメシを食べさせられているのか……")
  355("actor_label_jump")
  EndEventProcessing()
  DefineLabel("64")
  ShowMessageFace("pramia_fc1",0,0,2,2)
  ShowMessage("【プチ】")
  ShowMessage("海軍本部にも、食堂はあるはずよね……？")
  EndEventProcessing()
  DefineLabel("179")
  ShowMessageFace("sinifa_fc1",0,0,2,3)
  ShowMessage("【シニファ】")
  ShowMessage("あははははははっ……！")
  EndEventProcessing()
  0()



EVENT   100
 PAGE   1
  If(1,1001,0,28,2)
   ShowMessageFace("",0,0,2,1)
   ShowMessage("【マーメイド】")
   ShowMessage("クィーンマーメイド様が、17世の襲撃を受けたらしく……")
   ShowMessage("一族の者は、みな秘密の場所にこもっているようです。")
   ShowMessageFace("",0,0,2,2)
   ShowMessage("【マーメイド】")
   ShowMessage("その後、人魚族に一斉招集がかかり……")
   ShowMessage("多くの人魚が、クィーンの元に馳せ参じました。")
   ShowMessageFace("",0,0,2,3)
   ShowMessage("【マーメイド】")
   ShowMessage("なんだか、不吉な予感がします。")
   ShowMessage("集められた同胞達は、何をするつもりなのでしょう……")
   355("actor_label_jump")
   EndEventProcessing()
   DefineLabel("99")
   ShowMessageFace("namazu_fc1",2,0,2,4)
   ShowMessage("【ギギ】")
   ShowMessage("なぬ！？　儂に招集状は届いておらんぞ！")
   ShowMessage("ナマズだからといって、無視されたというのか！")
   EndEventProcessing()
   DefineLabel("118")
   ShowMessageFace("meia_fc1",3,0,2,5)
   ShowMessage("【メイア】")
   ShowMessage("私の元にも、招集の手紙が来ていましたね……")
   ShowMessage("自由参加なので、今回は遠慮したのですが。")
   EndEventProcessing()
   0()
  EndIf()
  If(1,1001,0,29,1)
   If(1,1001,0,30,2)
    ShowMessageFace("",0,0,2,6)
    ShowMessage("【マーメイド】")
    ShowMessage("同胞達が、サン・イリアの町を襲うなんて……")
    ShowMessage("ああ、なんという事なのでしょう……")
    EndEventProcessing()
    0()
   EndIf()
   0()
  EndIf()
  0()
 PAGE   2
  // condition: variable 1001 >= 31
  ShowMessageFace("",0,0,2,1)
  ShowMessage("【マーメイド】")
  ShowMessage("人魚族とサン・イリアの間で、友好条約が結ばれたそうです。")
  ShowMessage("人間の町に住むマーメイドは、ほっと胸を撫で下ろしていますよ。")
  ShowMessageFace("",0,0,2,2)
  ShowMessage("【マーメイド】")
  ShowMessage("しかし、今度は魔王軍を相手に戦う事になるのでしょうか……")
  ShowMessage("なんとも残酷な時代ですね。")
  355("actor_label_jump")
  EndEventProcessing()
  DefineLabel("328")
  ShowMessageFace("queenmermaid_fc1",0,0,2,3)
  ShowMessage("【ローラ】")
  ShowMessage("争いの時代……")
  ShowMessage("同胞達のためにも、早く終わらせなければ……")
  EndEventProcessing()
  0()



EVENT   101
 PAGE   1
  ShowMessageFace("tatunoko_k_fc1",1,0,2,1)
  ShowMessage("\\n<Sea Horse Marine>ねこ、かわいいのです！　よしよし……")
  ShowMessageFace("nekomata_fc1",1,0,2,2)
  ShowMessage("【ねこまた】")
  ShowMessage("フー！！")
  ShowMessageFace("tatunoko_k_fc1",2,0,2,3)
  ShowMessage("\\n<Sea Horse Marine>ぎゃん！")
  355("actor_label_jump")
  EndEventProcessing()
  DefineLabel("70")
  ShowMessageFace("nezumi_fc1",0,0,2,4)
  ShowMessage("【ラティ】")
  ShowMessage("連中は容赦なく牙を剥く……")
  EndEventProcessing()
  DefineLabel("540")
  ShowMessageFace("amira_fc1",0,0,2,5)
  ShowMessage("【アミラ】")
  ShowMessage("ねこまたは高貴で誇り高いのよ……")
  ShowMessage("飼い慣らす事は、誰にも出来ないわ。")
  EndEventProcessing()
  0()



EVENT   102
 PAGE   1
  ShowMessageFace("tatunoko_k_fc1",1,0,2,1)
  ShowMessage("\\n<Sea Horse Marine>ねこ、かわいいのです！　よしよし……")
  ShowMessageFace("nekomata_fc1",1,0,2,2)
  ShowMessage("【ねこまた】")
  ShowMessage("フー！！")
  ShowMessageFace("tatunoko_k_fc1",2,0,2,3)
  ShowMessage("\\n<Sea Horse Marine>ぎゃん！")
  355("actor_label_jump")
  EndEventProcessing()
  DefineLabel("70")
  ShowMessageFace("nezumi_fc1",0,0,2,4)
  ShowMessage("【ラティ】")
  ShowMessage("連中は容赦なく牙を剥く……")
  EndEventProcessing()
  DefineLabel("540")
  ShowMessageFace("amira_fc1",0,0,2,5)
  ShowMessage("【アミラ】")
  ShowMessage("ねこまたは高貴で誇り高いのよ……")
  ShowMessage("飼い慣らす事は、誰にも出来ないわ。")
  EndEventProcessing()
  0()



EVENT   103
 PAGE   1
  250(bytes(0x04,0x08,0x6f,0x3a,0x0c,0x52,0x50,0x47,0x3a,0x3a,0x53,0x45,0x08,0x3a,0x0a,0x40,0x6e,0x61,0x6d,0x65,0x49,0x22,0x0a,0x49,0x74,0x65,0x6d,0x31,0x06,0x3a,0x06,0x45,0x54,0x3a,0x0b,0x40,0x70,0x69,0x74,0x63,0x68,0x69,0x69,0x3a,0x0c,0x40,0x76,0x6f,0x6c,0x75,0x6d,0x65,0x69,0x55))
  ChangeSelfSwitch("A",0)
  ChangeInventory_Item(72,0,0,1)
  0()
 PAGE   2
  // condition: self-switch A is ON
  0()



EVENT   104
 PAGE   1
  250(bytes(0x04,0x08,0x6f,0x3a,0x0c,0x52,0x50,0x47,0x3a,0x3a,0x53,0x45,0x08,0x3a,0x0a,0x40,0x6e,0x61,0x6d,0x65,0x49,0x22,0x0a,0x49,0x74,0x65,0x6d,0x31,0x06,0x3a,0x06,0x45,0x54,0x3a,0x0b,0x40,0x70,0x69,0x74,0x63,0x68,0x69,0x69,0x3a,0x0c,0x40,0x76,0x6f,0x6c,0x75,0x6d,0x65,0x69,0x55))
  ChangeSelfSwitch("A",0)
  ChangeInventory_Item(72,0,0,1)
  0()
 PAGE   2
  // condition: self-switch A is ON
  0()



EVENT   105
 PAGE   1
  250(bytes(0x04,0x08,0x6f,0x3a,0x0c,0x52,0x50,0x47,0x3a,0x3a,0x53,0x45,0x08,0x3a,0x0a,0x40,0x6e,0x61,0x6d,0x65,0x49,0x22,0x0a,0x49,0x74,0x65,0x6d,0x31,0x06,0x3a,0x06,0x45,0x54,0x3a,0x0b,0x40,0x70,0x69,0x74,0x63,0x68,0x69,0x69,0x3a,0x0c,0x40,0x76,0x6f,0x6c,0x75,0x6d,0x65,0x69,0x55))
  ChangeSelfSwitch("A",0)
  ChangeInventory_Item(202,0,0,1)
  0()
 PAGE   2
  // condition: self-switch A is ON
  0()



EVENT   106
 PAGE   1
  250(bytes(0x04,0x08,0x6f,0x3a,0x0c,0x52,0x50,0x47,0x3a,0x3a,0x53,0x45,0x08,0x3a,0x0a,0x40,0x6e,0x61,0x6d,0x65,0x49,0x22,0x0a,0x49,0x74,0x65,0x6d,0x31,0x06,0x3a,0x06,0x45,0x54,0x3a,0x0b,0x40,0x70,0x69,0x74,0x63,0x68,0x69,0x69,0x3a,0x0c,0x40,0x76,0x6f,0x6c,0x75,0x6d,0x65,0x69,0x55))
  ChangeSelfSwitch("A",0)
  ChangeInventory_Item(35,0,0,1)
  0()
 PAGE   2
  // condition: self-switch A is ON
  0()



EVENT   107
 PAGE   1
  0()



EVENT   108
 PAGE   1
  0()



EVENT   109
 PAGE   1
  0()



EVENT   110
 PAGE   1
  0()



EVENT   111
 PAGE   1
  0()



EVENT   112
 PAGE   1
  0()



EVENT   113
 PAGE   1
  0()



EVENT   114
 PAGE   1
  0()



EVENT   115
 PAGE   1
  0()



EVENT   116
 PAGE   1
  ShowMessageFace("usagi_fc1",0,0,2,1)
  ShowMessage("【ウサギ娘】")
  ShowMessage("海軍本部の西にある小島には、「ひつじのもり」があるそうよ。")
  ShowMessage("そこでは、たくさんのヒツジ娘がウロウロしているのだとか……")
  ShowMessageFace("usagi_fc1",0,0,2,2)
  ShowMessage("【ウサギ娘】")
  ShowMessage("とは言え、ヒツジがたくさんいるだけで楽しいものじゃないわ。")
  ShowMessage("何も用事がなければ、わざわざ行く必要はないわね。")
  355("actor_label_jump")
  EndEventProcessing()
  DefineLabel("75")
  ShowMessageFace("hituzi_fc1",3,0,2,3)
  ShowMessage("【メリー】")
  ShowMessage("同胞がいっぱい……")
  ShowMessage("とっても酒臭そうな森なのらね。")
  EndEventProcessing()
  DefineLabel("141")
  ShowMessageFace("mino_fc1",0,0,2,4)
  ShowMessage("【ミナ】")
  ShowMessage("羊肉って、美味かったっけ……？")
  EndEventProcessing()
  0()



EVENT   117
 PAGE   1
  0()



EVENT   118
 PAGE   1
  0()



EVENT   119
 PAGE   1
  0()



EVENT   120
 PAGE   1
  0()



EVENT   121
 PAGE   1
  // condition: switch 1102 is ON
  // condition: switch 1103 is ON
  241(bytes(0x04,0x08,0x6f,0x3a,0x0d,0x52,0x50,0x47,0x3a,0x3a,0x42,0x47,0x4d,0x08,0x3a,0x0a,0x40,0x6e,0x61,0x6d,0x65,0x49,0x22,0x13,0x73,0x63,0x65,0x6e,0x65,0x5f,0x6f,0x64,0x61,0x79,0x61,0x6b,0x61,0x31,0x06,0x3a,0x06,0x45,0x54,0x3a,0x0c,0x40,0x76,0x6f,0x6c,0x75,0x6d,0x65,0x69,0x69,0x3a,0x0b,0x40,0x70,0x69,0x74,0x63,0x68,0x69,0x69))
  ShowMessageFace("kamuro_fc1",0,0,2,1)
  ShowMessage("【かむろ】")
  ShowMessage("きつね先輩……")
  ShowMessage("さかなは、なんで海の中でも息が出来るんですか？")
  ShowMessageFace("youko_fc1",0,0,2,2)
  ShowMessage("【きつね】")
  ShowMessage("えっ？")
  ShowMessage("かむろちゃん、水の中で息ができないの！？")
  ShowMessageFace("kamuro_fc1",2,0,2,3)
  ShowMessage("【かむろ】")
  ShowMessage("……えっ？")
  ShowMessageFace("youko_fc1",2,0,2,4)
  ShowMessage("【きつね】")
  ShowMessage("あっ、うそうそ。")
  ShowMessage("今のはナシでね。")
  ShowMessageFace("kamuro_fc1",2,0,2,5)
  ShowMessage("【かむろ】")
  ShowMessage("きつね先輩……？")
  ShowMessage("ちょっと、きつね先輩……？")
  241(bytes(0x04,0x08,0x6f,0x3a,0x0d,0x52,0x50,0x47,0x3a,0x3a,0x42,0x47,0x4d,0x08,0x3a,0x0a,0x40,0x6e,0x61,0x6d,0x65,0x49,0x22,0x0a,0x63,0x69,0x74,0x79,0x31,0x06,0x3a,0x06,0x45,0x54,0x3a,0x0c,0x40,0x76,0x6f,0x6c,0x75,0x6d,0x65,0x69,0x69,0x3a,0x0b,0x40,0x70,0x69,0x74,0x63,0x68,0x69,0x69))
  0()
 PAGE   2
  // condition: party contains actor #102
  0()
 PAGE   3
  // condition: party contains actor #103
  0()



EVENT   122
 PAGE   1
  // condition: switch 1102 is ON
  // condition: switch 1103 is ON
  241(bytes(0x04,0x08,0x6f,0x3a,0x0d,0x52,0x50,0x47,0x3a,0x3a,0x42,0x47,0x4d,0x08,0x3a,0x0a,0x40,0x6e,0x61,0x6d,0x65,0x49,0x22,0x13,0x73,0x63,0x65,0x6e,0x65,0x5f,0x6f,0x64,0x61,0x79,0x61,0x6b,0x61,0x31,0x06,0x3a,0x06,0x45,0x54,0x3a,0x0c,0x40,0x76,0x6f,0x6c,0x75,0x6d,0x65,0x69,0x69,0x3a,0x0b,0x40,0x70,0x69,0x74,0x63,0x68,0x69,0x69))
  ShowMessageFace("kamuro_fc1",0,0,2,1)
  ShowMessage("【かむろ】")
  ShowMessage("きつね先輩……")
  ShowMessage("さかなは、なんで海の中でも息が出来るんですか？")
  ShowMessageFace("youko_fc1",0,0,2,2)
  ShowMessage("【きつね】")
  ShowMessage("えっ？")
  ShowMessage("かむろちゃん、水の中で息ができないの！？")
  ShowMessageFace("kamuro_fc1",2,0,2,3)
  ShowMessage("【かむろ】")
  ShowMessage("……えっ？")
  ShowMessageFace("youko_fc1",2,0,2,4)
  ShowMessage("【きつね】")
  ShowMessage("あっ、うそうそ。")
  ShowMessage("今のはナシでね。")
  ShowMessageFace("kamuro_fc1",2,0,2,5)
  ShowMessage("【かむろ】")
  ShowMessage("きつね先輩……？")
  ShowMessage("ちょっと、きつね先輩……？")
  241(bytes(0x04,0x08,0x6f,0x3a,0x0d,0x52,0x50,0x47,0x3a,0x3a,0x42,0x47,0x4d,0x08,0x3a,0x0a,0x40,0x6e,0x61,0x6d,0x65,0x49,0x22,0x0a,0x63,0x69,0x74,0x79,0x31,0x06,0x3a,0x06,0x45,0x54,0x3a,0x0c,0x40,0x76,0x6f,0x6c,0x75,0x6d,0x65,0x69,0x69,0x3a,0x0b,0x40,0x70,0x69,0x74,0x63,0x68,0x69,0x69))
  0()
 PAGE   2
  // condition: party contains actor #102
  0()
 PAGE   3
  // condition: party contains actor #103
  0()



EVENT   123
 PAGE   1
  ShowMessageFace("",0,0,2,1)
  ShowMessage("【エルフ】")
  ShowMessage("特定の種族に特攻効果がある弓技や銃技があるわよね？")
  ShowMessage("この種の技を使うと、しばらくの間は射手にも特殊な効果があるの。")
  ShowMessageFace("",0,0,2,2)
  ShowMessage("【エルフ】")
  ShowMessage("5ターンの間、通常攻撃でその種族へのダメージがアップするのよ。")
  ShowMessage("「効果：＋」のスキルにも適用されるから、有効利用しないとね。")
  0()
