﻿
DisplayName "ゴルド火山洞窟"



EVENT   1
 PAGE   1
  0()



EVENT   2
 PAGE   1
  0()



EVENT   3
 PAGE   1
  0()



EVENT   4
 PAGE   1
  0()



EVENT   5
 PAGE   1
  0()



EVENT   6
 PAGE   1
  0()



EVENT   7
 PAGE   1
  0()



EVENT   8
 PAGE   1
  0()



EVENT   9
 PAGE   1
  0()



EVENT   10
 PAGE   1
  0()



EVENT   11
 PAGE   1
  0()



EVENT   12
 PAGE   1
  ChangeSwitch(100,100,1)
  250(bytes(0x04,0x08,0x6f,0x3a,0x0c,0x52,0x50,0x47,0x3a,0x3a,0x53,0x45,0x08,0x3a,0x0a,0x40,0x6e,0x61,0x6d,0x65,0x49,0x22,0x09,0x4d,0x6f,0x76,0x65,0x06,0x3a,0x06,0x45,0x54,0x3a,0x0b,0x40,0x70,0x69,0x74,0x63,0x68,0x69,0x69,0x3a,0x0c,0x40,0x76,0x6f,0x6c,0x75,0x6d,0x65,0x69,0x55))
  TeleportPlayer(0,2,193,158,6,0)
  0()



EVENT   13
 PAGE   1
  250(bytes(0x04,0x08,0x6f,0x3a,0x0c,0x52,0x50,0x47,0x3a,0x3a,0x53,0x45,0x08,0x3a,0x0a,0x40,0x6e,0x61,0x6d,0x65,0x49,0x22,0x0a,0x43,0x68,0x65,0x73,0x74,0x06,0x3a,0x06,0x45,0x54,0x3a,0x0b,0x40,0x70,0x69,0x74,0x63,0x68,0x69,0x69,0x3a,0x0c,0x40,0x76,0x6f,0x6c,0x75,0x6d,0x65,0x69,0x55))
  205(0,bytes(0x04,0x08,0x6f,0x3a,0x13,0x52,0x50,0x47,0x3a,0x3a,0x4d,0x6f,0x76,0x65,0x52,0x6f,0x75,0x74,0x65,0x09,0x3a,0x0c,0x40,0x72,0x65,0x70,0x65,0x61,0x74,0x46,0x3a,0x0f,0x40,0x73,0x6b,0x69,0x70,0x70,0x61,0x62,0x6c,0x65,0x46,0x3a,0x0a,0x40,0x77,0x61,0x69,0x74,0x54,0x3a,0x0a,0x40,0x6c,0x69,0x73,0x74,0x5b,0x0b,0x6f,0x3a,0x15,0x52,0x50,0x47,0x3a,0x3a,0x4d,0x6f,0x76,0x65,0x43,0x6f,0x6d,0x6d,0x61,0x6e,0x64,0x07,0x3a,0x0a,0x40,0x63,0x6f,0x64,0x65,0x69,0x29,0x3a,0x10,0x40,0x70,0x61,0x72,0x61,0x6d,0x65,0x74,0x65,0x72,0x73,0x5b,0x00,0x6f,0x3b,0x0a,0x07,0x3b,0x0b,0x69,0x16,0x3b,0x0c,0x5b,0x00,0x6f,0x3b,0x0a,0x07,0x3b,0x0b,0x69,0x14,0x3b,0x0c,0x5b,0x06,0x69,0x08,0x6f,0x3b,0x0a,0x07,0x3b,0x0b,0x69,0x17,0x3b,0x0c,0x5b,0x00,0x6f,0x3b,0x0a,0x07,0x3b,0x0b,0x69,0x14,0x3b,0x0c,0x5b,0x06,0x69,0x08,0x6f,0x3b,0x0a,0x07,0x3b,0x0b,0x69,0x00,0x3b,0x0c,0x5b,0x00))
  ChangeSelfSwitch("A",0)
  ChangeInventory_Item(52,0,0,1)
  0()
 PAGE   2
  // condition: self-switch A is ON
  0()



EVENT   14
 PAGE   1
  250(bytes(0x04,0x08,0x6f,0x3a,0x0c,0x52,0x50,0x47,0x3a,0x3a,0x53,0x45,0x08,0x3a,0x0a,0x40,0x6e,0x61,0x6d,0x65,0x49,0x22,0x0a,0x43,0x68,0x65,0x73,0x74,0x06,0x3a,0x06,0x45,0x54,0x3a,0x0b,0x40,0x70,0x69,0x74,0x63,0x68,0x69,0x69,0x3a,0x0c,0x40,0x76,0x6f,0x6c,0x75,0x6d,0x65,0x69,0x55))
  205(0,bytes(0x04,0x08,0x6f,0x3a,0x13,0x52,0x50,0x47,0x3a,0x3a,0x4d,0x6f,0x76,0x65,0x52,0x6f,0x75,0x74,0x65,0x09,0x3a,0x0c,0x40,0x72,0x65,0x70,0x65,0x61,0x74,0x46,0x3a,0x0f,0x40,0x73,0x6b,0x69,0x70,0x70,0x61,0x62,0x6c,0x65,0x46,0x3a,0x0a,0x40,0x77,0x61,0x69,0x74,0x54,0x3a,0x0a,0x40,0x6c,0x69,0x73,0x74,0x5b,0x0b,0x6f,0x3a,0x15,0x52,0x50,0x47,0x3a,0x3a,0x4d,0x6f,0x76,0x65,0x43,0x6f,0x6d,0x6d,0x61,0x6e,0x64,0x07,0x3a,0x0a,0x40,0x63,0x6f,0x64,0x65,0x69,0x29,0x3a,0x10,0x40,0x70,0x61,0x72,0x61,0x6d,0x65,0x74,0x65,0x72,0x73,0x5b,0x00,0x6f,0x3b,0x0a,0x07,0x3b,0x0b,0x69,0x16,0x3b,0x0c,0x5b,0x00,0x6f,0x3b,0x0a,0x07,0x3b,0x0b,0x69,0x14,0x3b,0x0c,0x5b,0x06,0x69,0x08,0x6f,0x3b,0x0a,0x07,0x3b,0x0b,0x69,0x17,0x3b,0x0c,0x5b,0x00,0x6f,0x3b,0x0a,0x07,0x3b,0x0b,0x69,0x14,0x3b,0x0c,0x5b,0x06,0x69,0x08,0x6f,0x3b,0x0a,0x07,0x3b,0x0b,0x69,0x00,0x3b,0x0c,0x5b,0x00))
  ChangeSelfSwitch("A",0)
  ChangeInventory_Item(32,0,0,1)
  0()
 PAGE   2
  // condition: self-switch A is ON
  0()



EVENT   15
 PAGE   1
  250(bytes(0x04,0x08,0x6f,0x3a,0x0c,0x52,0x50,0x47,0x3a,0x3a,0x53,0x45,0x08,0x3a,0x0a,0x40,0x6e,0x61,0x6d,0x65,0x49,0x22,0x0a,0x43,0x68,0x65,0x73,0x74,0x06,0x3a,0x06,0x45,0x54,0x3a,0x0b,0x40,0x70,0x69,0x74,0x63,0x68,0x69,0x69,0x3a,0x0c,0x40,0x76,0x6f,0x6c,0x75,0x6d,0x65,0x69,0x55))
  205(0,bytes(0x04,0x08,0x6f,0x3a,0x13,0x52,0x50,0x47,0x3a,0x3a,0x4d,0x6f,0x76,0x65,0x52,0x6f,0x75,0x74,0x65,0x09,0x3a,0x0c,0x40,0x72,0x65,0x70,0x65,0x61,0x74,0x46,0x3a,0x0f,0x40,0x73,0x6b,0x69,0x70,0x70,0x61,0x62,0x6c,0x65,0x46,0x3a,0x0a,0x40,0x77,0x61,0x69,0x74,0x54,0x3a,0x0a,0x40,0x6c,0x69,0x73,0x74,0x5b,0x0b,0x6f,0x3a,0x15,0x52,0x50,0x47,0x3a,0x3a,0x4d,0x6f,0x76,0x65,0x43,0x6f,0x6d,0x6d,0x61,0x6e,0x64,0x07,0x3a,0x0a,0x40,0x63,0x6f,0x64,0x65,0x69,0x29,0x3a,0x10,0x40,0x70,0x61,0x72,0x61,0x6d,0x65,0x74,0x65,0x72,0x73,0x5b,0x00,0x6f,0x3b,0x0a,0x07,0x3b,0x0b,0x69,0x16,0x3b,0x0c,0x5b,0x00,0x6f,0x3b,0x0a,0x07,0x3b,0x0b,0x69,0x14,0x3b,0x0c,0x5b,0x06,0x69,0x08,0x6f,0x3b,0x0a,0x07,0x3b,0x0b,0x69,0x17,0x3b,0x0c,0x5b,0x00,0x6f,0x3b,0x0a,0x07,0x3b,0x0b,0x69,0x14,0x3b,0x0c,0x5b,0x06,0x69,0x08,0x6f,0x3b,0x0a,0x07,0x3b,0x0b,0x69,0x00,0x3b,0x0c,0x5b,0x00))
  ChangeSelfSwitch("A",0)
  ChangeInventory_Item(52,0,0,1)
  0()
 PAGE   2
  // condition: self-switch A is ON
  0()



EVENT   16
 PAGE   1
  250(bytes(0x04,0x08,0x6f,0x3a,0x0c,0x52,0x50,0x47,0x3a,0x3a,0x53,0x45,0x08,0x3a,0x0a,0x40,0x6e,0x61,0x6d,0x65,0x49,0x22,0x0a,0x43,0x68,0x65,0x73,0x74,0x06,0x3a,0x06,0x45,0x54,0x3a,0x0b,0x40,0x70,0x69,0x74,0x63,0x68,0x69,0x69,0x3a,0x0c,0x40,0x76,0x6f,0x6c,0x75,0x6d,0x65,0x69,0x55))
  205(0,bytes(0x04,0x08,0x6f,0x3a,0x13,0x52,0x50,0x47,0x3a,0x3a,0x4d,0x6f,0x76,0x65,0x52,0x6f,0x75,0x74,0x65,0x09,0x3a,0x0c,0x40,0x72,0x65,0x70,0x65,0x61,0x74,0x46,0x3a,0x0f,0x40,0x73,0x6b,0x69,0x70,0x70,0x61,0x62,0x6c,0x65,0x46,0x3a,0x0a,0x40,0x77,0x61,0x69,0x74,0x54,0x3a,0x0a,0x40,0x6c,0x69,0x73,0x74,0x5b,0x0b,0x6f,0x3a,0x15,0x52,0x50,0x47,0x3a,0x3a,0x4d,0x6f,0x76,0x65,0x43,0x6f,0x6d,0x6d,0x61,0x6e,0x64,0x07,0x3a,0x0a,0x40,0x63,0x6f,0x64,0x65,0x69,0x29,0x3a,0x10,0x40,0x70,0x61,0x72,0x61,0x6d,0x65,0x74,0x65,0x72,0x73,0x5b,0x00,0x6f,0x3b,0x0a,0x07,0x3b,0x0b,0x69,0x16,0x3b,0x0c,0x5b,0x00,0x6f,0x3b,0x0a,0x07,0x3b,0x0b,0x69,0x14,0x3b,0x0c,0x5b,0x06,0x69,0x08,0x6f,0x3b,0x0a,0x07,0x3b,0x0b,0x69,0x17,0x3b,0x0c,0x5b,0x00,0x6f,0x3b,0x0a,0x07,0x3b,0x0b,0x69,0x14,0x3b,0x0c,0x5b,0x06,0x69,0x08,0x6f,0x3b,0x0a,0x07,0x3b,0x0b,0x69,0x00,0x3b,0x0c,0x5b,0x00))
  ChangeSelfSwitch("A",0)
  ChangeInventoryArmor(313,0,0,1,false)
  0()
 PAGE   2
  // condition: self-switch A is ON
  0()



EVENT   17
 PAGE   1
  If(12,"unlock_level < 1")
   ShowMessageFace("",0,0,2,1)
   ShowMessage("宝箱には鍵が掛かっている……")
   EndEventProcessing()
   0()
  EndIf()
  250(bytes(0x04,0x08,0x6f,0x3a,0x0c,0x52,0x50,0x47,0x3a,0x3a,0x53,0x45,0x08,0x3a,0x0a,0x40,0x6e,0x61,0x6d,0x65,0x49,0x22,0x0a,0x43,0x68,0x65,0x73,0x74,0x06,0x3a,0x06,0x45,0x54,0x3a,0x0b,0x40,0x70,0x69,0x74,0x63,0x68,0x69,0x69,0x3a,0x0c,0x40,0x76,0x6f,0x6c,0x75,0x6d,0x65,0x69,0x55))
  205(0,bytes(0x04,0x08,0x6f,0x3a,0x13,0x52,0x50,0x47,0x3a,0x3a,0x4d,0x6f,0x76,0x65,0x52,0x6f,0x75,0x74,0x65,0x09,0x3a,0x0c,0x40,0x72,0x65,0x70,0x65,0x61,0x74,0x46,0x3a,0x0f,0x40,0x73,0x6b,0x69,0x70,0x70,0x61,0x62,0x6c,0x65,0x46,0x3a,0x0a,0x40,0x77,0x61,0x69,0x74,0x54,0x3a,0x0a,0x40,0x6c,0x69,0x73,0x74,0x5b,0x0b,0x6f,0x3a,0x15,0x52,0x50,0x47,0x3a,0x3a,0x4d,0x6f,0x76,0x65,0x43,0x6f,0x6d,0x6d,0x61,0x6e,0x64,0x07,0x3a,0x0a,0x40,0x63,0x6f,0x64,0x65,0x69,0x29,0x3a,0x10,0x40,0x70,0x61,0x72,0x61,0x6d,0x65,0x74,0x65,0x72,0x73,0x5b,0x00,0x6f,0x3b,0x0a,0x07,0x3b,0x0b,0x69,0x16,0x3b,0x0c,0x5b,0x00,0x6f,0x3b,0x0a,0x07,0x3b,0x0b,0x69,0x14,0x3b,0x0c,0x5b,0x06,0x69,0x08,0x6f,0x3b,0x0a,0x07,0x3b,0x0b,0x69,0x17,0x3b,0x0c,0x5b,0x00,0x6f,0x3b,0x0a,0x07,0x3b,0x0b,0x69,0x14,0x3b,0x0c,0x5b,0x06,0x69,0x08,0x6f,0x3b,0x0a,0x07,0x3b,0x0b,0x69,0x00,0x3b,0x0c,0x5b,0x00))
  ChangeSelfSwitch("A",0)
  ChangeInventoryWeapon(249,0,0,1)
  0()
 PAGE   2
  // condition: self-switch A is ON
  0()



EVENT   18
 PAGE   1
  If(12,"unlock_level < 1")
   ShowMessageFace("",0,0,2,1)
   ShowMessage("宝箱には鍵が掛かっている……")
   EndEventProcessing()
   0()
  EndIf()
  250(bytes(0x04,0x08,0x6f,0x3a,0x0c,0x52,0x50,0x47,0x3a,0x3a,0x53,0x45,0x08,0x3a,0x0a,0x40,0x6e,0x61,0x6d,0x65,0x49,0x22,0x0a,0x43,0x68,0x65,0x73,0x74,0x06,0x3a,0x06,0x45,0x54,0x3a,0x0b,0x40,0x70,0x69,0x74,0x63,0x68,0x69,0x69,0x3a,0x0c,0x40,0x76,0x6f,0x6c,0x75,0x6d,0x65,0x69,0x55))
  205(0,bytes(0x04,0x08,0x6f,0x3a,0x13,0x52,0x50,0x47,0x3a,0x3a,0x4d,0x6f,0x76,0x65,0x52,0x6f,0x75,0x74,0x65,0x09,0x3a,0x0c,0x40,0x72,0x65,0x70,0x65,0x61,0x74,0x46,0x3a,0x0f,0x40,0x73,0x6b,0x69,0x70,0x70,0x61,0x62,0x6c,0x65,0x46,0x3a,0x0a,0x40,0x77,0x61,0x69,0x74,0x54,0x3a,0x0a,0x40,0x6c,0x69,0x73,0x74,0x5b,0x0b,0x6f,0x3a,0x15,0x52,0x50,0x47,0x3a,0x3a,0x4d,0x6f,0x76,0x65,0x43,0x6f,0x6d,0x6d,0x61,0x6e,0x64,0x07,0x3a,0x0a,0x40,0x63,0x6f,0x64,0x65,0x69,0x29,0x3a,0x10,0x40,0x70,0x61,0x72,0x61,0x6d,0x65,0x74,0x65,0x72,0x73,0x5b,0x00,0x6f,0x3b,0x0a,0x07,0x3b,0x0b,0x69,0x16,0x3b,0x0c,0x5b,0x00,0x6f,0x3b,0x0a,0x07,0x3b,0x0b,0x69,0x14,0x3b,0x0c,0x5b,0x06,0x69,0x08,0x6f,0x3b,0x0a,0x07,0x3b,0x0b,0x69,0x17,0x3b,0x0c,0x5b,0x00,0x6f,0x3b,0x0a,0x07,0x3b,0x0b,0x69,0x14,0x3b,0x0c,0x5b,0x06,0x69,0x08,0x6f,0x3b,0x0a,0x07,0x3b,0x0b,0x69,0x00,0x3b,0x0c,0x5b,0x00))
  ChangeSelfSwitch("A",0)
  ChangeInventoryArmor(1494,0,0,1)
  0()
 PAGE   2
  // condition: self-switch A is ON
  0()



EVENT   19
 PAGE   1
  250(bytes(0x04,0x08,0x6f,0x3a,0x0c,0x52,0x50,0x47,0x3a,0x3a,0x53,0x45,0x08,0x3a,0x0a,0x40,0x6e,0x61,0x6d,0x65,0x49,0x22,0x0a,0x43,0x68,0x65,0x73,0x74,0x06,0x3a,0x06,0x45,0x54,0x3a,0x0b,0x40,0x70,0x69,0x74,0x63,0x68,0x69,0x69,0x3a,0x0c,0x40,0x76,0x6f,0x6c,0x75,0x6d,0x65,0x69,0x55))
  205(0,bytes(0x04,0x08,0x6f,0x3a,0x13,0x52,0x50,0x47,0x3a,0x3a,0x4d,0x6f,0x76,0x65,0x52,0x6f,0x75,0x74,0x65,0x09,0x3a,0x0c,0x40,0x72,0x65,0x70,0x65,0x61,0x74,0x46,0x3a,0x0f,0x40,0x73,0x6b,0x69,0x70,0x70,0x61,0x62,0x6c,0x65,0x46,0x3a,0x0a,0x40,0x77,0x61,0x69,0x74,0x54,0x3a,0x0a,0x40,0x6c,0x69,0x73,0x74,0x5b,0x0b,0x6f,0x3a,0x15,0x52,0x50,0x47,0x3a,0x3a,0x4d,0x6f,0x76,0x65,0x43,0x6f,0x6d,0x6d,0x61,0x6e,0x64,0x07,0x3a,0x0a,0x40,0x63,0x6f,0x64,0x65,0x69,0x29,0x3a,0x10,0x40,0x70,0x61,0x72,0x61,0x6d,0x65,0x74,0x65,0x72,0x73,0x5b,0x00,0x6f,0x3b,0x0a,0x07,0x3b,0x0b,0x69,0x16,0x3b,0x0c,0x5b,0x00,0x6f,0x3b,0x0a,0x07,0x3b,0x0b,0x69,0x14,0x3b,0x0c,0x5b,0x06,0x69,0x08,0x6f,0x3b,0x0a,0x07,0x3b,0x0b,0x69,0x17,0x3b,0x0c,0x5b,0x00,0x6f,0x3b,0x0a,0x07,0x3b,0x0b,0x69,0x14,0x3b,0x0c,0x5b,0x06,0x69,0x08,0x6f,0x3b,0x0a,0x07,0x3b,0x0b,0x69,0x00,0x3b,0x0c,0x5b,0x00))
  ChangeSelfSwitch("A",0)
  ChangeInventory_Item(223,0,0,1)
  0()
 PAGE   2
  // condition: self-switch A is ON
  0()



EVENT   20
 PAGE   1
  If(0,4,0)
   ShowMessageFace("alice_fc5",0,0,2,1)
   ShowMessage("【アリス】")
   ShowMessage("ここが、サラマンダーの棲むゴルド火山か……")
   0()
  EndIf()
  If(0,5,0)
   ShowMessageFace("iriasu_fc4",2,0,2,2)
   ShowMessage("【イリアス】")
   ShowMessage("サラマンダーなんぞに会いに、こんな所まで……")
   0()
  EndIf()
  If(4,53,0)
   ShowMessageFace("slime_fc1",2,0,2,3)
   ShowMessage("【ライム】")
   ShowMessage("あついよ～！")
   0()
  EndIf()
  If(4,14,0)
   ShowMessageFace("undine_fc1",2,0,2,4)
   ShowMessage("【ウンディーネ】")
   ShowMessage("熱すぎて、くらくらするわね……")
   0()
  EndIf()
  If(4,171,0)
   ShowMessageFace("lizardboss_fc1",0,0,2,5)
   ShowMessage("【ミランダ】")
   ShowMessage("あたしは快適だけどねぇ……")
   0()
  EndIf()
  If(4,72,0)
   ShowMessageFace("phoenix_fc1",1,0,2,6)
   ShowMessage("【ミニ】")
   ShowMessage("元気がみなぎるぞ～！")
   0()
  EndIf()
  If(0,6,0)
   ShowMessageFace("sonia_fc2",2,0,2,7)
   ShowMessage("【ソニア】")
   ShowMessage("すごく熱いし、溶岩は危険だし……")
   ShowMessage("これ、ダメージ床の対策がないとキツいよね。")
   ShowMessageFace("ruka_fc1",0,0,2,8)
   ShowMessage("【ルカ】")
   ShowMessage("それに、ここにいる魔物はかなり強力な感じだな。")
   0()
  Else()
   ShowMessageFace("ruka_fc1",0,0,2,9)
   ShowMessage("【ルカ】")
   ShowMessage("中が溶岩だらけだ……")
   ShowMessage("それに、ここの魔物は強そうだね。")
   0()
  EndIf()
  If(1,1067,0,7,1)
   If(1,1068,0,3,1)
    If(1,1065,0,3,1)
     If(1,1078,0,5,1)
      If(0,4,0)
       ShowMessageFace("alice_fc5",0,0,2,10)
       ShowMessage("【アリス】")
       ShowMessage("この地域で、なすべき事は全て終えた。")
       ShowMessage("難所に挑むのに、経験は十分だろう。")
       ShowMessageFace("alice_fc5",2,0,2,11)
       ShowMessage("【アリス】")
       ShowMessage("さあ、サラマンダーと契約を結べ。")
       ShowMessage("四精霊の力を、貴様のものとするのだ！")
       0()
      EndIf()
      If(0,5,0)
       ShowMessageFace("iriasu_fc4",0,0,2,12)
       ShowMessage("【イリアス】")
       ShowMessage("この地域で、なすべき事は全て終えました。")
       ShowMessage("難所に挑むにあたり、経験は十分に積んだはずです。")
       ShowMessageFace("iriasu_fc4",0,0,2,13)
       ShowMessage("【イリアス】")
       ShowMessage("精霊は嫌いですが、ここまで来た以上は文句を言いません。")
       ShowMessage("サラマンダーと契約を結び、四精霊の奴隷化を完遂するのです！")
       0()
      EndIf()
      If(0,2277,1)
       If(0,4,0)
        ShowMessageFace("alice_fc5",6,0,2,14)
        ShowMessage("【アリス】")
        ShowMessage("……そう言えば、グランゴルド王からの礼をもらっておらん！")
        ShowMessage("依頼を二つとも解決したのだから、受け取りに行かねば！")
        ShowMessageFace("alice_fc5",6,0,2,15)
        ShowMessage("【アリス】")
        ShowMessage("グランゴルドは復興作業でゴタゴタしてるから、忘れられかねん！")
        ShowMessage("今からもらいに行くぞ、今すぐだ！")
        0()
       EndIf()
       If(0,5,0)
        ShowMessageFace("iriasu_fc4",5,0,2,16)
        ShowMessage("【イリアス】")
        ShowMessage("……そう言えば、グランゴルド王からの礼をもらっていません！")
        ShowMessage("依頼を二つとも解決したのですから、受け取りに行かなければ！")
        ShowMessageFace("iriasu_fc4",5,0,2,17)
        ShowMessage("【イリアス】")
        ShowMessage("グランゴルドは復興作業でゴタゴタしてるから、忘れられかねません！")
        ShowMessage("今からもらいに行きましょう、今すぐですよ！")
        0()
       EndIf()
       0()
      EndIf()
      ChangeSelfSwitch("A",0)
      EndEventProcessing()
      0()
     EndIf()
     0()
    EndIf()
    0()
   EndIf()
   0()
  EndIf()
  If(0,4,0)
   ShowMessageFace("alice_fc5",0,0,2,18)
   ShowMessage("【アリス】")
   ShowMessage("まだ、この地域でやり残しがある気がするな……")
   ShowMessage("この難所に挑むのは、後に回した方が良いのではないか？")
   ShowMessageFace("alice_fc5",0,0,2,19)
   ShowMessage("【アリス】")
   ShowMessage("もっとも、決断は貴様に任せよう。")
   ShowMessage("駆け足で冒険を進めたいというなら、それに従うのみだ。")
   0()
  EndIf()
  If(0,5,0)
   ShowMessageFace("iriasu_fc4",2,0,2,20)
   ShowMessage("【イリアス】")
   ShowMessage("まだ、この地域でやり残しがある気がします……")
   ShowMessage("この難所に挑むのは、後に回した方が良いのではないでしょうか？")
   ShowMessageFace("iriasu_fc4",2,0,2,21)
   ShowMessage("【イリアス】")
   ShowMessage("とはいえ、選択はあなたに委ねられています。")
   ShowMessage("駆け足で冒険を進めたいというなら、このまま先に行きましょう。")
   0()
  EndIf()
  TemporaryRemoveEvent()
  EndEventProcessing()
  0()
 PAGE   2
  // condition: self-switch A is ON
  0()
 PAGE   3
  // condition: variable 1001 >= 28
  0()



EVENT   21
 PAGE   1
  PictureDisplay(5,"80_salamander_st01",0,0,0,0,100,100,0,0)
  PictureMove(5,null,0,0,0,0,100,100,255,0,60,true)
  ShowMessageFace("salamander_fc1",0,0,2,1)
  ShowMessage("【サラマンダー】")
  ShowMessage("来たな、勇者ルカよ……")
  ShowMessage("思っていたとおり、良い面構えだ。")
  ShowMessageFace("sylph_fc1",0,0,2,2)
  ShowMessage("【シルフ】")
  ShowMessage("わ～い、サラマンダーちゃんだ～♪")
  ShowMessageFace("gnome_fc1",0,0,2,3)
  ShowMessage("【ノーム】")
  ShowMessage("……………………")
  ShowMessageFace("salamander_fc1",0,0,2,4)
  ShowMessage("【サラマンダー】")
  ShowMessage("シルフもノームも、相変わらず元気そうだな。")
  ShowMessage("最後に私と契約を交わし、四精霊の力を身につけようというのだろう？")
  ShowMessageFace("ruka_fc1",0,0,2,5)
  ShowMessage("【ルカ】")
  ShowMessage("僕が来る事も、その目的も知ってるみたいだね……")
  ShowMessageFace("salamander_fc1",0,0,2,6)
  ShowMessage("【サラマンダー】")
  ShowMessage("ああ……お前が大きな宿命を背負っている事もな。")
  ShowMessageFace("undine_fc1",2,0,2,7)
  ShowMessage("【ウンディーネ】")
  ShowMessage("利いた風な事を言って、大物風を吹かせて……")
  ShowMessage("本当は、あんまりよく知らない癖に……")
  241(bytes(0x04,0x08,0x6f,0x3a,0x0d,0x52,0x50,0x47,0x3a,0x3a,0x42,0x47,0x4d,0x08,0x3a,0x0a,0x40,0x6e,0x61,0x6d,0x65,0x49,0x22,0x10,0x73,0x63,0x65,0x6e,0x65,0x5f,0x63,0x6f,0x6d,0x69,0x32,0x06,0x3a,0x06,0x45,0x54,0x3a,0x0c,0x40,0x76,0x6f,0x6c,0x75,0x6d,0x65,0x69,0x69,0x3a,0x0b,0x40,0x70,0x69,0x74,0x63,0x68,0x69,0x69))
  PictureDisplay(5,"80_salamander_st03",0,0,0,0,100,100,255,0)
  ShowMessageFace("salamander_fc1",2,0,2,8)
  ShowMessage("【サラマンダー】")
  ShowMessage("なんだと！？　それは貴様ではないか！")
  ShowMessage("500年前、ハインリヒが蓬莱山に挑んだ時の事を忘れたか……？")
  ShowMessageFace("undine_fc1",0,0,2,9)
  ShowMessage("【ウンディーネ】")
  ShowMessage("そういうあなたは、ヘルゴンドの洞窟を抜ける際に――")
  ShowMessageFace("salamander_fc1",2,0,2,10)
  ShowMessage("【サラマンダー】")
  ShowMessage("なんだと！？　このスライムめ――")
  ShowMessageFace("undine_fc1",0,0,2,11)
  ShowMessage("【ウンディーネ】")
  ShowMessage("トカゲの分際で、口だけは一人前――")
  ShowMessageFace("sylph_fc1",1,0,2,12)
  ShowMessage("【シルフ】")
  ShowMessage("ふぅ、やれやれ……")
  ShowMessageFace("gnome_fc1",0,0,2,13)
  ShowMessage("【ノーム】")
  ShowMessage("……………………")
  ShowMessageFace("salamander_fc1",2,0,2,14)
  ShowMessage("【サラマンダー】")
  ShowMessage("もう我慢ならん、ここで決着をつける！")
  ShowMessage("さあ、構えろ！！")
  ShowMessageFace("undine_fc1",0,0,2,15)
  ShowMessage("【ウンディーネ】")
  ShowMessage("勝負は望むところ……ルカ、行くわよ。")
  ShowMessageFace("ruka_fc1",0,0,2,16)
  ShowMessage("【ルカ】")
  ShowMessage("えっ……僕！？")
  ShowMessageFace("salamander_fc1",2,0,2,17)
  ShowMessage("【サラマンダー】")
  ShowMessage("ええい、邪魔をするなら水スライムともども叩きのめす！")
  ShowMessageFace("undine_fc1",0,0,2,18)
  ShowMessage("【ウンディーネ】")
  ShowMessage("野蛮で粗野なトカゲ……頭を冷やしてあげるわ……")
  ShowMessageFace("sylph_fc1",2,0,2,19)
  ShowMessage("【シルフ】")
  ShowMessage("なんか盛り上がってきた！")
  ShowMessageFace("gnome_fc1",0,0,2,20)
  ShowMessage("【ノーム】")
  ShowMessage("……………………")
  If(4,15,0)
   ShowMessageFace("salamander_fc1",2,0,2,21)
   ShowMessage("【サラマンダー’】")
   ShowMessage("まったく、少しは冷静になれ……")
   ShowMessageFace("salamander_fc1",2,0,2,22)
   ShowMessage("【サラマンダー】")
   ShowMessage("なんと！　もう一人、炎の支配者が……？")
   ShowMessage("こいつも叩きのめさなければならんな！")
   0()
  EndIf()
  ShowMessageFace("salamander_fc1",2,0,2,23)
  ShowMessage("【サラマンダー】")
  ShowMessage("行くぞォォォォ！！")
  ShowMessageFace("undine_fc1",0,0,2,24)
  ShowMessage("【ウンディーネ】")
  ShowMessage("さあ、来なさい……！")
  ShowMessageFace("ruka_fc1",0,0,2,25)
  ShowMessage("【ルカ】")
  ShowMessage("……………………")
  PictureClear(5)
  SetBattleBGM(bytes(0x04,0x08,0x6f,0x3a,0x0d,0x52,0x50,0x47,0x3a,0x3a,0x42,0x47,0x4d,0x08,0x3a,0x0a,0x40,0x6e,0x61,0x6d,0x65,0x49,0x22,0x13,0x62,0x6f,0x73,0x73,0x5f,0x79,0x6f,0x6e,0x73,0x65,0x69,0x72,0x65,0x69,0x06,0x3a,0x06,0x45,0x54,0x3a,0x0c,0x40,0x76,0x6f,0x6c,0x75,0x6d,0x65,0x69,0x69,0x3a,0x0b,0x40,0x70,0x69,0x74,0x63,0x68,0x69,0x69))
  ChangeSwitch(22,22,0)
  Battle(0,751,false,false)
  ChangeSwitch(22,22,1)
  SetBattleBGM(bytes(0x04,0x08,0x6f,0x3a,0x0d,0x52,0x50,0x47,0x3a,0x3a,0x42,0x47,0x4d,0x08,0x3a,0x0a,0x40,0x6e,0x61,0x6d,0x65,0x49,0x22,0x0b,0x62,0x61,0x74,0x74,0x6c,0x65,0x06,0x3a,0x06,0x45,0x54,0x3a,0x0c,0x40,0x76,0x6f,0x6c,0x75,0x6d,0x65,0x69,0x69,0x3a,0x0b,0x40,0x70,0x69,0x74,0x63,0x68,0x69,0x69))
  241(bytes(0x04,0x08,0x6f,0x3a,0x0d,0x52,0x50,0x47,0x3a,0x3a,0x42,0x47,0x4d,0x08,0x3a,0x0a,0x40,0x6e,0x61,0x6d,0x65,0x49,0x22,0x14,0x73,0x63,0x65,0x6e,0x65,0x5f,0x65,0x70,0x69,0x6c,0x6f,0x67,0x75,0x65,0x32,0x06,0x3a,0x06,0x45,0x54,0x3a,0x0c,0x40,0x76,0x6f,0x6c,0x75,0x6d,0x65,0x69,0x69,0x3a,0x0b,0x40,0x70,0x69,0x74,0x63,0x68,0x69,0x69))
  PictureDisplay(5,"80_salamander_st03",0,0,0,0,100,100,0,0)
  PictureMove(5,null,0,0,0,0,100,100,255,0,30,true)
  ShowMessageFace("salamander_fc1",2,0,2,26)
  ShowMessage("【サラマンダー】")
  ShowMessage("くっ、不覚を取ったか……")
  ShowMessageFace("undine_fc1",0,0,2,27)
  ShowMessage("【ウンディーネ】")
  ShowMessage("実に無様ね……")
  ShowMessageFace("salamander_fc1",2,0,2,28)
  ShowMessage("【サラマンダー】")
  ShowMessage("今のは、火の力を勇者に与えるための試練だ！")
  ShowMessage("貴様との個人的な争いなどではない！")
  ShowMessageFace("undine_fc1",0,0,2,29)
  ShowMessage("【ウンディーネ】")
  ShowMessage("粗野だけじゃなく、見苦しいトカゲね……")
  If(0,4,0)
   ShowMessageFace("alice_fc5",0,0,2,30)
   ShowMessage("【アリス】")
   ShowMessage("まあまあ……とにかく、ルカは力を示したのだ。")
   ShowMessage("これ以上モメる前に、さっさと力を授けるがいい。")
   0()
  EndIf()
  If(0,5,0)
   ShowMessageFace("iriasu_fc4",1,0,2,31)
   ShowMessage("【イリアス】")
   ShowMessage("殺し合え……殺し合え……")
   ShowMessageFace("iriasu_fc4",0,0,2,32)
   ShowMessage("【イリアス】")
   ShowMessage("……と言いたいところですが、まずはルカに力を授けなさい。")
   ShowMessage("それから、思う存分殺し合うのです。")
   0()
  EndIf()
  PictureDisplay(5,"80_salamander_st01",0,0,0,0,100,100,255,0)
  ShowMessageFace("salamander_fc1",0,0,2,33)
  ShowMessage("【サラマンダー】")
  ShowMessage("……そうだな。")
  ShowMessage("やるべき事を、先に終えるとしよう。")
  ShowMessageFace("salamander_fc1",0,0,2,34)
  ShowMessage("【サラマンダー】")
  ShowMessage("ルカよ、お前の腕は見事だった。")
  ShowMessage("炎の力、使いこなすに足りるだろう……")
  ShowMessageFace("",0,0,2,35)
  ShowMessage("サラマンダーは、掌をルカに掲げた――")
  250(bytes(0x04,0x08,0x6f,0x3a,0x0c,0x52,0x50,0x47,0x3a,0x3a,0x53,0x45,0x08,0x3a,0x0a,0x40,0x6e,0x61,0x6d,0x65,0x49,0x22,0x0d,0x6d,0x6f,0x6e,0x5f,0x77,0x61,0x72,0x6d,0x06,0x3a,0x06,0x45,0x54,0x3a,0x0b,0x40,0x70,0x69,0x74,0x63,0x68,0x69,0x69,0x3a,0x0c,0x40,0x76,0x6f,0x6c,0x75,0x6d,0x65,0x69,0x69))
  PictureDisplay(6,"sys_white",0,0,0,0,100,100,0,0)
  PictureMove(6,null,0,0,0,0,100,100,255,0,30,true)
  PictureMove(6,null,0,0,0,0,100,100,0,0,30,true)
  PictureClear(6)
  ShowMessageFace("",0,0,2,36)
  ShowMessage("ルカの体に、力が流れ込んでくる！")
  ShowMessage("まるで、業火が渦巻くかのようだ！")
  318(0,1,0,3109)
  250(bytes(0x04,0x08,0x6f,0x3a,0x0c,0x52,0x50,0x47,0x3a,0x3a,0x53,0x45,0x08,0x3a,0x0a,0x40,0x6e,0x61,0x6d,0x65,0x49,0x22,0x0a,0x49,0x74,0x65,0x6d,0x31,0x06,0x3a,0x06,0x45,0x54,0x3a,0x0b,0x40,0x70,0x69,0x74,0x63,0x68,0x69,0x69,0x3a,0x0c,0x40,0x76,0x6f,0x6c,0x75,0x6d,0x65,0x69,0x55))
  ShowMessageFace("",0,0,2,37)
  ShowMessage("ルカは\\I[300]\\C[1]サラマンダー\\C[0]を修得した！")
  ShowMessageFace("ruka_fc1",0,0,2,38)
  ShowMessage("【ルカ】")
  ShowMessage("ありがとう、サラマンダー！")
  ShowMessage("炎の力、使いこなしてみせるよ！")
  PictureClear(5)
  205(0,bytes(0x04,0x08,0x6f,0x3a,0x13,0x52,0x50,0x47,0x3a,0x3a,0x4d,0x6f,0x76,0x65,0x52,0x6f,0x75,0x74,0x65,0x09,0x3a,0x0c,0x40,0x72,0x65,0x70,0x65,0x61,0x74,0x46,0x3a,0x0f,0x40,0x73,0x6b,0x69,0x70,0x70,0x61,0x62,0x6c,0x65,0x46,0x3a,0x0a,0x40,0x77,0x61,0x69,0x74,0x54,0x3a,0x0a,0x40,0x6c,0x69,0x73,0x74,0x5b,0x07,0x6f,0x3a,0x15,0x52,0x50,0x47,0x3a,0x3a,0x4d,0x6f,0x76,0x65,0x43,0x6f,0x6d,0x6d,0x61,0x6e,0x64,0x07,0x3a,0x0a,0x40,0x63,0x6f,0x64,0x65,0x69,0x18,0x3a,0x10,0x40,0x70,0x61,0x72,0x61,0x6d,0x65,0x74,0x65,0x72,0x73,0x5b,0x00,0x6f,0x3b,0x0a,0x07,0x3b,0x0b,0x69,0x00,0x3b,0x0c,0x5b,0x00))
  242(1)
  ShowMessageFace("",0,0,2,39)
  ShowMessage("【？？？】")
  ShowMessage("とうとう、炎の力まで手に入れたか――")
  ShowMessageFace("ruka_fc1",0,0,2,40)
  ShowMessage("【ルカ】")
  ShowMessage("お前は、まさか――")
  241(bytes(0x04,0x08,0x6f,0x3a,0x0d,0x52,0x50,0x47,0x3a,0x3a,0x42,0x47,0x4d,0x08,0x3a,0x0a,0x40,0x6e,0x61,0x6d,0x65,0x49,0x22,0x0a,0x62,0x6f,0x73,0x73,0x30,0x06,0x3a,0x06,0x45,0x54,0x3a,0x0c,0x40,0x76,0x6f,0x6c,0x75,0x6d,0x65,0x69,0x69,0x3a,0x0b,0x40,0x70,0x69,0x74,0x63,0x68,0x69,0x69))
  250(bytes(0x04,0x08,0x6f,0x3a,0x0c,0x52,0x50,0x47,0x3a,0x3a,0x53,0x45,0x08,0x3a,0x0a,0x40,0x6e,0x61,0x6d,0x65,0x49,0x22,0x0d,0x6d,0x6f,0x6e,0x5f,0x77,0x61,0x72,0x70,0x06,0x3a,0x06,0x45,0x54,0x3a,0x0b,0x40,0x70,0x69,0x74,0x63,0x68,0x69,0x69,0x3a,0x0c,0x40,0x76,0x6f,0x6c,0x75,0x6d,0x65,0x69,0x55))
  ChangeSwitch(31,31,0)
  Wait(60)
  PictureDisplay(5,"80_granberia_st61",0,0,0,0,100,100,0,0)
  PictureMove(5,null,0,0,0,0,100,100,255,0,30,true)
  If(0,4,0)
   ShowMessageFace("alice_fc6",0,0,2,41)
   ShowMessage("【アリス】")
   ShowMessage("グランベリア……！")
   ShowMessage("ついに貴様が、我々を討ちに来たのか！")
   0()
  EndIf()
  If(0,5,0)
   ShowMessageFace("iriasu_fc4",7,0,2,42)
   ShowMessage("【イリアス】")
   ShowMessage("グランベリア……ついに我々を討ちに来たのですか！")
   0()
  EndIf()
  ShowMessageFace("granberia_fc3",0,0,2,43)
  ShowMessage("【グランベリア】")
  ShowMessage("これまで、何度かお前達の前に立ってきた……")
  ShowMessage("だが追討の命を受けて来たのは、これが初めてになるな。")
  ShowMessageFace("ruka_fc1",0,0,2,44)
  ShowMessage("【ルカ】")
  ShowMessage("ぐっ……なんてプレッシャーだ……")
  If(4,171,0)
   ShowMessageFace("lizardboss_fc1",2,0,2,45)
   ShowMessage("【ミランダ】")
   ShowMessage("あの時も……")
   ShowMessage("本気じゃなかったっていうのかい……！")
   0()
  EndIf()
  ShowMessageFace("salamander_fc1",2,0,2,46)
  ShowMessage("【サラマンダー】")
  ShowMessage("……………………")
  PictureDisplay(5,"80_granberia_st65",0,0,0,0,100,100,255,0)
  ShowMessageFace("granberia_fc3",4,0,2,47)
  ShowMessage("【グランベリア】")
  ShowMessage("いざ勝負だ、勇者ルカ！")
  ShowMessage("主命により、その命もらい受ける！")
  If(0,4,0)
   ShowMessageFace("alice_fc5",0,0,2,48)
   ShowMessage("【アリス】")
   ShowMessage("……無理をするな、グランベリア。")
   ShowMessage("貴様の迷い、看過する余ではないぞ。")
   PictureDisplay(5,"80_granberia_st64",0,0,0,0,100,100,255,0)
   ShowMessageFace("granberia_fc3",3,0,2,49)
   ShowMessage("【グランベリア】")
   ShowMessage("……………………")
   ShowMessageFace("alice_fc5",2,0,2,50)
   ShowMessage("【アリス】")
   ShowMessage("貴様の剣は、余個人に捧げたのか、魔王位に就く者に献げたのか。")
   ShowMessage("そして、この世界のために有益なのはどちらなのか。")
   PictureDisplay(5,"80_granberia_st63",0,0,0,0,100,100,255,0)
   ShowMessageFace("granberia_fc3",2,0,2,51)
   ShowMessage("【グランベリア】")
   ShowMessage("我が剣に、迷いなど……！")
   ShowMessageFace("alice_fc5",2,0,2,52)
   ShowMessage("【アリス】")
   ShowMessage("何より、アリスフィーズ15世の不可解すぎる行動……")
   ShowMessage("平和を乱すというよりも、まるで破滅を望むかのような振る舞い……")
   PictureDisplay(5,"80_granberia_st64",0,0,0,0,100,100,255,0)
   ShowMessageFace("granberia_fc3",3,0,2,53)
   ShowMessage("【グランベリア】")
   ShowMessage("……………………")
   PictureDisplay(5,"80_granberia_st61",0,0,0,0,100,100,255,0)
   ShowMessageFace("granberia_fc3",0,0,2,54)
   ShowMessage("【グランベリア】")
   ShowMessage("アリスフィーズ16世、教えて頂きたい……")
   ShowMessage("あなたの母は、いったい何を……")
   ShowMessageFace("alice_fc5",0,0,2,55)
   ShowMessage("【アリス】")
   ShowMessage("……余とて知らん。")
   ShowMessage("それを確かめるため、我々は旅をしているのだ。")
   ShowMessageFace("alice_fc5",2,0,2,56)
   ShowMessage("【アリス】")
   ShowMessage("アルマエルマもたまもも、自分の道を歩き始めた。")
   ShowMessage("エルベティエも、近いうちに母上の元を離れるだろう。")
   ShowMessageFace("alice_fc6",1,0,2,57)
   ShowMessage("【アリス】")
   ShowMessage("貴様はどうするのだ、グランベリア！")
   ShowMessage("その剣、心を寄せられぬ者のために振るい続けるのか！？")
   PictureDisplay(5,"80_granberia_st64",0,0,0,0,100,100,255,0)
   ShowMessageFace("granberia_fc3",3,0,2,58)
   ShowMessage("【グランベリア】")
   ShowMessage("……………………")
   PictureDisplay(5,"80_granberia_st61",0,0,0,0,100,100,255,0)
   ShowMessageFace("granberia_fc3",0,0,2,59)
   ShowMessage("【グランベリア】")
   ShowMessage("……今は退く。")
   ShowMessage("このような迷いを抱いたまま戦うなど、剣への侮辱……")
   ShowMessageFace("alice_fc5",0,0,2,60)
   ShowMessage("【アリス】")
   ShowMessage("……グランベリア、我々と共に来るか？")
   ShowMessageFace("granberia_fc3",0,0,2,61)
   ShowMessage("【グランベリア】")
   ShowMessage("……否。")
   ShowMessage("主命を受けた先で、剣先を翻すなど論外。")
   ShowMessageFace("granberia_fc3",0,0,2,62)
   ShowMessage("【グランベリア】")
   ShowMessage("この身一つで見極めよう。")
   ShowMessage("我が剣で、誰のために何を為すべきなのかを……")
   PictureClear(5)
   Wait(60)
   250(bytes(0x04,0x08,0x6f,0x3a,0x0c,0x52,0x50,0x47,0x3a,0x3a,0x53,0x45,0x08,0x3a,0x0a,0x40,0x6e,0x61,0x6d,0x65,0x49,0x22,0x0d,0x6d,0x6f,0x6e,0x5f,0x77,0x61,0x72,0x70,0x06,0x3a,0x06,0x45,0x54,0x3a,0x0b,0x40,0x70,0x69,0x74,0x63,0x68,0x69,0x69,0x3a,0x0c,0x40,0x76,0x6f,0x6c,0x75,0x6d,0x65,0x69,0x55))
   ChangeSwitch(31,31,1)
   Wait(60)
   241(bytes(0x04,0x08,0x6f,0x3a,0x0d,0x52,0x50,0x47,0x3a,0x3a,0x42,0x47,0x4d,0x08,0x3a,0x0a,0x40,0x6e,0x61,0x6d,0x65,0x49,0x22,0x14,0x73,0x63,0x65,0x6e,0x65,0x5f,0x65,0x70,0x69,0x6c,0x6f,0x67,0x75,0x65,0x32,0x06,0x3a,0x06,0x45,0x54,0x3a,0x0c,0x40,0x76,0x6f,0x6c,0x75,0x6d,0x65,0x69,0x69,0x3a,0x0b,0x40,0x70,0x69,0x74,0x63,0x68,0x69,0x69))
   ShowMessageFace("salamander_fc1",2,0,2,63)
   ShowMessage("【サラマンダー】")
   ShowMessage("……まったく、不器用な奴だ。")
   ShowMessage("いかに腕を上げても、まだまだヒヨッコよ。")
   ShowMessageFace("alice_fc5",3,0,2,64)
   ShowMessage("【アリス】")
   ShowMessage("近いうちに、奴も悟るはずだ。")
   ShowMessage("我々が争っている場合ではない事をな……")
   0()
  EndIf()
  If(0,5,0)
   ShowMessageFace("iriasu_fc4",7,0,2,65)
   ShowMessage("【イリアス】")
   ShowMessage("くっ……ここは退けません！")
   ShowMessage("行きますよ、ルカ！")
   ShowMessageFace("ruka_fc1",0,0,2,66)
   ShowMessage("【ルカ】")
   ShowMessage("ああ！　どんな強敵でも、退き下がりはしない！")
   If(4,129,0)
    ShowMessageFace("brunhild_fc1",0,0,2,67)
    ShowMessage("【ヒルデ】")
    ShowMessage("対象、竜人剣士……戦闘、開始だよ。")
    0()
   EndIf()
   PictureClear(5)
   SetBattleBGM(bytes(0x04,0x08,0x6f,0x3a,0x0d,0x52,0x50,0x47,0x3a,0x3a,0x42,0x47,0x4d,0x08,0x3a,0x0a,0x40,0x6e,0x61,0x6d,0x65,0x49,0x22,0x11,0x62,0x6f,0x73,0x73,0x5f,0x73,0x69,0x74,0x65,0x6e,0x6e,0x6f,0x06,0x3a,0x06,0x45,0x54,0x3a,0x0c,0x40,0x76,0x6f,0x6c,0x75,0x6d,0x65,0x69,0x69,0x3a,0x0b,0x40,0x70,0x69,0x74,0x63,0x68,0x69,0x69))
   ChangeSwitch(22,22,0)
   Battle(0,752,false,false)
   ChangeSwitch(22,22,1)
   SetBattleBGM(bytes(0x04,0x08,0x6f,0x3a,0x0d,0x52,0x50,0x47,0x3a,0x3a,0x42,0x47,0x4d,0x08,0x3a,0x0a,0x40,0x6e,0x61,0x6d,0x65,0x49,0x22,0x0b,0x62,0x61,0x74,0x74,0x6c,0x65,0x06,0x3a,0x06,0x45,0x54,0x3a,0x0c,0x40,0x76,0x6f,0x6c,0x75,0x6d,0x65,0x69,0x69,0x3a,0x0b,0x40,0x70,0x69,0x74,0x63,0x68,0x69,0x69))
   ChangeSwitch(1912,1912,0)
   PictureDisplay(5,"80_granberia_st61",0,0,0,0,100,100,0,0)
   PictureMove(5,null,0,0,0,0,100,100,255,0,30,true)
   ShowMessageFace("granberia_fc3",0,0,2,68)
   ShowMessage("【グランベリア】")
   ShowMessage("確かに、大した腕だ……")
   ShowMessage("魔王様が、脅威とするのも頷ける。")
   ShowMessageFace("ruka_fc1",0,0,2,69)
   ShowMessage("【ルカ】")
   ShowMessage("ぐっ、効いてないのか……！？")
   If(4,129,0)
    ShowMessageFace("brunhild_fc1",0,0,2,70)
    ShowMessage("【ヒルデ】")
    ShowMessage("敵余力、まだまだ残ってるよ……")
    0()
   EndIf()
   PictureDisplay(5,"80_granberia_st65",0,0,0,0,100,100,255,0)
   ShowMessageFace("granberia_fc3",4,0,2,71)
   ShowMessage("【グランベリア】")
   ShowMessage("いいだろう、では本気で――")
   ShowMessageFace("salamander_fc1",2,0,2,72)
   ShowMessage("【サラマンダー】")
   ShowMessage("……無理をするな、グランベリア。")
   PictureDisplay(5,"80_granberia_st63",0,0,0,0,100,100,255,0)
   ShowMessageFace("granberia_fc3",2,0,2,73)
   ShowMessage("【グランベリア】")
   ShowMessage("師匠……")
   ShowMessageFace("salamander_fc1",2,0,2,74)
   ShowMessage("【サラマンダー】")
   ShowMessage("お前の剣の迷い、見抜けない私だと思ったか？")
   ShowMessage("もはや我が力はお前に劣るが、目まで曇ったわけではないぞ。")
   PictureDisplay(5,"80_granberia_st64",0,0,0,0,100,100,255,0)
   ShowMessageFace("granberia_fc3",3,0,2,75)
   ShowMessage("【グランベリア】")
   ShowMessage("……………………")
   PictureDisplay(5,"80_granberia_st61",0,0,0,0,100,100,255,0)
   ShowMessageFace("granberia_fc3",0,0,2,76)
   ShowMessage("【グランベリア】")
   ShowMessage("……師匠に嘘は吐けませんね。")
   ShowMessage("我が剣に、迷いがあるのは認めましょう。")
   ShowMessageFace("salamander_fc1",2,0,2,77)
   ShowMessage("【サラマンダー】")
   ShowMessage("自覚しているなら、言うことは何もない。")
   ShowMessage("今一度、お前自身の剣を見つめ直すがいい。")
   ShowMessageFace("salamander_fc1",2,0,2,78)
   ShowMessage("【サラマンダー】")
   ShowMessage("そういう意味では、この者達の方がお前より数段強いぞ。")
   ShowMessage("彼等は何と戦うべきか、すでに見極めているのだからな。")
   PictureDisplay(5,"80_granberia_st64",0,0,0,0,100,100,255,0)
   ShowMessageFace("granberia_fc3",3,0,2,79)
   ShowMessage("【グランベリア】")
   ShowMessage("……………………")
   PictureDisplay(5,"80_granberia_st61",0,0,0,0,100,100,255,0)
   ShowMessageFace("granberia_fc3",0,0,2,80)
   ShowMessage("【グランベリア】")
   ShowMessage("魔王城にて、再戦を誓おう。")
   ShowMessage("その時こそ、迷いのない私の剣を見せる。")
   ShowMessageFace("ruka_fc1",0,0,2,81)
   ShowMessage("【ルカ】")
   ShowMessage("ああ……必ず、魔王城に行くよ。")
   ShowMessageFace("granberia_fc3",0,0,2,82)
   ShowMessage("【グランベリア】")
   ShowMessage("待っているぞ……勇者ルカ。")
   PictureClear(5)
   Wait(60)
   250(bytes(0x04,0x08,0x6f,0x3a,0x0c,0x52,0x50,0x47,0x3a,0x3a,0x53,0x45,0x08,0x3a,0x0a,0x40,0x6e,0x61,0x6d,0x65,0x49,0x22,0x0d,0x6d,0x6f,0x6e,0x5f,0x77,0x61,0x72,0x70,0x06,0x3a,0x06,0x45,0x54,0x3a,0x0b,0x40,0x70,0x69,0x74,0x63,0x68,0x69,0x69,0x3a,0x0c,0x40,0x76,0x6f,0x6c,0x75,0x6d,0x65,0x69,0x55))
   ChangeSwitch(31,31,1)
   Wait(60)
   241(bytes(0x04,0x08,0x6f,0x3a,0x0d,0x52,0x50,0x47,0x3a,0x3a,0x42,0x47,0x4d,0x08,0x3a,0x0a,0x40,0x6e,0x61,0x6d,0x65,0x49,0x22,0x14,0x73,0x63,0x65,0x6e,0x65,0x5f,0x65,0x70,0x69,0x6c,0x6f,0x67,0x75,0x65,0x32,0x06,0x3a,0x06,0x45,0x54,0x3a,0x0c,0x40,0x76,0x6f,0x6c,0x75,0x6d,0x65,0x69,0x69,0x3a,0x0b,0x40,0x70,0x69,0x74,0x63,0x68,0x69,0x69))
   ShowMessageFace("salamander_fc1",2,0,2,83)
   ShowMessage("【サラマンダー】")
   ShowMessage("……まったく、不器用な奴だ。")
   ShowMessage("いかに腕を上げても、まだまだヒヨッコよ。")
   ShowMessageFace("iriasu_fc4",2,0,2,84)
   ShowMessage("【イリアス】")
   ShowMessage("迷いのあるうちに、総叩きで倒した方がよかったかも……")
   ShowMessage("おそらく次に会った時は、本気の全力で挑んでくるでしょう。")
   0()
  EndIf()
  205(0,bytes(0x04,0x08,0x6f,0x3a,0x13,0x52,0x50,0x47,0x3a,0x3a,0x4d,0x6f,0x76,0x65,0x52,0x6f,0x75,0x74,0x65,0x09,0x3a,0x0c,0x40,0x72,0x65,0x70,0x65,0x61,0x74,0x46,0x3a,0x0f,0x40,0x73,0x6b,0x69,0x70,0x70,0x61,0x62,0x6c,0x65,0x46,0x3a,0x0a,0x40,0x77,0x61,0x69,0x74,0x54,0x3a,0x0a,0x40,0x6c,0x69,0x73,0x74,0x5b,0x07,0x6f,0x3a,0x15,0x52,0x50,0x47,0x3a,0x3a,0x4d,0x6f,0x76,0x65,0x43,0x6f,0x6d,0x6d,0x61,0x6e,0x64,0x07,0x3a,0x0a,0x40,0x63,0x6f,0x64,0x65,0x69,0x15,0x3a,0x10,0x40,0x70,0x61,0x72,0x61,0x6d,0x65,0x74,0x65,0x72,0x73,0x5b,0x00,0x6f,0x3b,0x0a,0x07,0x3b,0x0b,0x69,0x00,0x3b,0x0c,0x5b,0x00))
  Wait(60)
  PictureDisplay(5,"80_salamander_st03",0,0,0,0,100,100,0,0)
  PictureMove(5,null,0,0,0,0,100,100,255,0,30,true)
  ShowMessageFace("salamander_fc1",0,0,2,85)
  ShowMessage("【サラマンダー】")
  ShowMessage("さて……そしてお前達は、世界の破滅に挑んでいるという。")
  ShowMessage("今は、一人でも多くの戦力が必要だろう。")
  ShowMessageFace("sylph_fc1",0,0,2,86)
  ShowMessage("【シルフ】")
  ShowMessage("仲間になる流れだ～♪")
  ShowMessageFace("gnome_fc1",0,0,2,87)
  ShowMessage("【ノーム】")
  ShowMessage("……………………")
  ShowMessageFace("undine_fc1",2,0,2,88)
  ShowMessage("【ウンディーネ】")
  ShowMessage("暑いから嫌よ、来ないで……")
  If(4,72,0)
   ShowMessageFace("phoenix_fc1",1,0,2,89)
   ShowMessage("【ミニ】")
   ShowMessage("一緒に燃え盛るのだ！")
   0()
  EndIf()
  ShowMessageFace("salamander_fc1",0,0,2,90)
  ShowMessage("【サラマンダー】")
  ShowMessage("そういうわけで、私の力も貸してやろう……")
  ShowMessage("さあ、共に征くぞ！")
  PictureClear(5)
  205(0,bytes(0x04,0x08,0x6f,0x3a,0x13,0x52,0x50,0x47,0x3a,0x3a,0x4d,0x6f,0x76,0x65,0x52,0x6f,0x75,0x74,0x65,0x09,0x3a,0x0c,0x40,0x72,0x65,0x70,0x65,0x61,0x74,0x46,0x3a,0x0f,0x40,0x73,0x6b,0x69,0x70,0x70,0x61,0x62,0x6c,0x65,0x46,0x3a,0x0a,0x40,0x77,0x61,0x69,0x74,0x54,0x3a,0x0a,0x40,0x6c,0x69,0x73,0x74,0x5b,0x09,0x6f,0x3a,0x15,0x52,0x50,0x47,0x3a,0x3a,0x4d,0x6f,0x76,0x65,0x43,0x6f,0x6d,0x6d,0x61,0x6e,0x64,0x07,0x3a,0x0a,0x40,0x63,0x6f,0x64,0x65,0x69,0x2a,0x3a,0x10,0x40,0x70,0x61,0x72,0x61,0x6d,0x65,0x74,0x65,0x72,0x73,0x5b,0x00,0x6f,0x3b,0x0a,0x07,0x3b,0x0b,0x69,0x0f,0x3b,0x0c,0x5b,0x00,0x6f,0x3b,0x0a,0x07,0x3b,0x0b,0x69,0x2c,0x3b,0x0c,0x5b,0x00,0x6f,0x3b,0x0a,0x07,0x3b,0x0b,0x69,0x00,0x3b,0x0c,0x5b,0x00))
  355("add_actor_ex(15)")
  249(bytes(0x04,0x08,0x6f,0x3a,0x0c,0x52,0x50,0x47,0x3a,0x3a,0x4d,0x45,0x08,0x3a,0x0a,0x40,0x6e,0x61,0x6d,0x65,0x49,0x22,0x0c,0x66,0x61,0x6e,0x66,0x61,0x6c,0x65,0x06,0x3a,0x06,0x45,0x54,0x3a,0x0b,0x40,0x70,0x69,0x74,0x63,0x68,0x69,0x69,0x3a,0x0c,0x40,0x76,0x6f,0x6c,0x75,0x6d,0x65,0x69,0x69))
  ShowMessageFace("",0,0,2,91)
  ShowMessage("サラマンダーが仲間に加わった！")
  ChangeVariable(1001,1001,0,0,28)
  355("gain_medal(50)")
  ShowMessageFace("ruka_fc1",0,0,2,92)
  ShowMessage("【ルカ】")
  ShowMessage("これで、四精霊の全員と契約を交わしたね。")
  ShowMessage("父さんのメッセージに従って、やっとここまで来たんだ。")
  If(0,4,0)
   ShowMessageFace("alice_fc5",0,0,2,93)
   ShowMessage("【アリス】")
   ShowMessage("ルカの父が言うには、これが歴史を辿るという事なのか……")
   ShowMessage("では正史のルカは、次に何をしたのだろうな。")
   0()
  EndIf()
  If(0,5,0)
   ShowMessageFace("iriasu_fc4",2,0,2,94)
   ShowMessage("【イリアス】")
   ShowMessage("これも、歴史通りといったところでしょうか……")
   ShowMessage("次に正史のルカは、えっと……何をしたんでしたっけ？")
   0()
  EndIf()
  If(0,6,0)
   ShowMessageFace("sonia_fc2",2,0,2,95)
   ShowMessage("【ソニア】")
   ShowMessage("やっぱり、魔王城に向かったんじゃないの？")
   ShowMessage("正史の魔王が、世界に宣戦布告したのかは知らないけど……")
   0()
  Else()
   ShowMessageFace("ruka_fc1",0,0,2,96)
   ShowMessage("【ルカ】")
   ShowMessage("やっぱり、魔王城に向かったんじゃないのかな？")
   ShowMessage("正史の魔王が、世界に宣戦布告したのかは知らないけど……")
   0()
  EndIf()
  If(0,4,0)
   ShowMessageFace("alice_fc5",0,0,2,97)
   ShowMessage("【アリス】")
   ShowMessage("今の世界情勢を見るにつけ、魔王城へも行く事になるだろうが……")
   ShowMessage("その前に、ゴルドの地でやるべき重要な目的が残っているぞ。")
   ShowMessageFace("alice_fc5",0,0,2,98)
   ShowMessage("【アリス】")
   ShowMessage("貴婦人の村から、さらに西……")
   ShowMessage("砂漠地帯に存在する、タルタロスの探索だ。")
   0()
  EndIf()
  If(0,5,0)
   ShowMessageFace("iriasu_fc4",2,0,2,99)
   ShowMessage("【イリアス】")
   ShowMessage("今の世界情勢を見る限り、魔王討伐も必要になるでしょうが……")
   ShowMessage("その前に、ゴルドの地で為すべき最重要事項が残っています。")
   ShowMessageFace("iriasu_fc4",2,0,2,100)
   ShowMessage("【イリアス】")
   ShowMessage("貴婦人の村から、さらに西……")
   ShowMessage("砂漠地帯に存在する、タルタロスの探索です。")
   0()
  EndIf()
  If(0,6,0)
   ShowMessageFace("sonia_fc2",2,0,2,101)
   ShowMessage("【ソニア】")
   ShowMessage("ゴルド最西部の砂漠地帯に行くには「悪夢の荒野」を越えるんだよね。")
   ShowMessage("探検隊もほとんどが挫折するほどの難所なんだっけ……")
   0()
  Else()
   ShowMessageFace("ruka_fc1",0,0,2,102)
   ShowMessage("【ルカ】")
   ShowMessage("ゴルド最西部の砂漠地帯に行くには「悪夢の荒野」を越えなきゃ。")
   ShowMessage("探検隊もほとんどが挫折するほどの難所なんだよな……")
   0()
  EndIf()
  If(0,4,0)
   ShowMessageFace("alice_fc5",2,0,2,103)
   ShowMessage("【アリス】")
   ShowMessage("だが、行かねばなるまい。")
   ShowMessage("さあ、ゴルド西部のタルタロスへと向かうぞ！")
   0()
  EndIf()
  If(0,5,0)
   ShowMessageFace("iriasu_fc4",0,0,2,104)
   ShowMessage("【イリアス】")
   ShowMessage("ですが、行かねばなりません。")
   ShowMessage("さあ、ゴルド西部のタルタロスへと向かいましょう！")
   0()
  EndIf()
  ShowMessageFace("",0,0,2,105)
  ShowMessage("いよいよ、ゴルド西部の砂漠に開いたタルタロスへと乗り込む。")
  ShowMessage("その中ではいったい、何が待っているのだろうか――")
  314(0,0)
  241(bytes(0x04,0x08,0x6f,0x3a,0x0d,0x52,0x50,0x47,0x3a,0x3a,0x42,0x47,0x4d,0x08,0x3a,0x0a,0x40,0x6e,0x61,0x6d,0x65,0x49,0x22,0x12,0x64,0x75,0x6e,0x67,0x65,0x6f,0x6e,0x5f,0x6b,0x61,0x7a,0x61,0x6e,0x06,0x3a,0x06,0x45,0x54,0x3a,0x0c,0x40,0x76,0x6f,0x6c,0x75,0x6d,0x65,0x69,0x69,0x3a,0x0b,0x40,0x70,0x69,0x74,0x63,0x68,0x69,0x69))
  EndEventProcessing()
  0()
 PAGE   2
  // condition: variable 1001 >= 28
  0()



EVENT   22
 PAGE   1
  // condition: switch 1015 is ON
  // condition: variable 1047 >= 3
  // condition: party contains actor #167
  ChangeVariable(1047,1047,0,0,4)
  ShowMessageFace("lusia_fc1",0,0,2,1)
  ShowMessage("【ルシア】")
  ShowMessage("ここは、炎の精霊の力が集まる地ですね。")
  ShowMessage("熱い自然エネルギーを感じます……")
  ShowMessageFace("lusia_fc1",2,0,2,2)
  ShowMessage("【ルシア】")
  ShowMessage("……というか、暑いです。")
  ShowMessageFace("sylph_fc1",7,0,2,3)
  ShowMessage("【シルフ】")
  ShowMessage("またアレやるの！？")
  ShowMessage("たのしみ♪　たのしみ♪")
  ShowMessageFace("lusia_fc1",2,0,2,4)
  ShowMessage("【ルシア】")
  ShowMessage("……………………")
  ShowMessageFace("lusia_fc1",0,0,2,5)
  ShowMessage("【ルシア】")
  ShowMessage("最後の実験が終わった時、私の体が無事である保証はありません。")
  ShowMessage("下手をすれば、この体が消え果ててしまうでしょう。")
  If(0,6,0)
   ShowMessageFace("sonia_fc3",7,0,2,6)
   ShowMessage("【ソニア】")
   ShowMessage("ちょっと、ただの観測じゃなかったの？")
   ShowMessage("そんな危険な実験に取り組むなんて……")
   0()
  Else()
   ShowMessageFace("ruka_fc1",0,0,2,7)
   ShowMessage("【ルカ】")
   ShowMessage("ただの観測じゃなかったのか？")
   ShowMessage("そんな危険な実験に取り組むなんて……")
   0()
  EndIf()
  ShowMessageFace("lusia_fc1",0,0,2,8)
  ShowMessage("【ルシア】")
  ShowMessage("エレメンタルとの同化が、この実験の最終目的なのです。")
  ShowMessage("これまでの観測で、すでに準備は整っています。")
  ShowMessageFace("ruka_fc1",0,0,2,9)
  ShowMessage("【ルカ】")
  ShowMessage("止めても無駄そうだね……")
  ShowMessage("なら、僕達も完成まで見守るよ。")
  ShowMessageFace("lusia_fc1",0,0,2,10)
  ShowMessage("【ルシア】")
  ShowMessage("その前に、あなた達に託しておきたいものがあります。")
  ShowMessage("それは……秘すると決めた、リリィの研究成果。")
  250(bytes(0x04,0x08,0x6f,0x3a,0x0c,0x52,0x50,0x47,0x3a,0x3a,0x53,0x45,0x08,0x3a,0x0a,0x40,0x6e,0x61,0x6d,0x65,0x49,0x22,0x0a,0x49,0x74,0x65,0x6d,0x31,0x06,0x3a,0x06,0x45,0x54,0x3a,0x0b,0x40,0x70,0x69,0x74,0x63,0x68,0x69,0x69,0x3a,0x0c,0x40,0x76,0x6f,0x6c,0x75,0x6d,0x65,0x69,0x55))
  ChangeInventory_Item(638,0,0,1)
  ShowMessageFace("lusia_fc1",0,0,2,11)
  ShowMessage("【ルシア】")
  ShowMessage("これを習得できるのは、人間の身を持つ者のみです。")
  ShowMessage("イリアス神殿で、種族「ワームサマナー」に転種できるでしょう。")
  If(0,4,0)
   ShowMessageFace("alice_fc5",1,0,2,12)
   ShowMessage("【アリス】")
   ShowMessage("分かった、これは我々が管理しよう。")
   0()
  EndIf()
  If(0,5,0)
   ShowMessageFace("iriasu_fc4",2,0,2,13)
   ShowMessage("【イリアス】")
   ShowMessage("このような危険なものは、私が管理しなければなりませんね。")
   ShowMessage("使用者はパーティのみ、門外不出の禁術とします。")
   0()
  EndIf()
  If(0,6,0)
   ShowMessageFace("ruka_fc1",0,0,2,14)
   ShowMessage("【ルカ】")
   ShowMessage("人間のみ、転種可能か……")
   ShowMessage("僕はちょっとイヤだけど、ソニアはどう？")
   ShowMessageFace("sonia_fc2",2,0,2,15)
   ShowMessage("【ソニア】")
   ShowMessage("触手召還かぁ……")
   ShowMessage("抵抗はあるけど、ちょっと使ってみたい気もするかも。")
   0()
  EndIf()
  ShowMessageFace("lusia_fc1",0,0,2,16)
  ShowMessage("【ルシア】")
  ShowMessage("それでは、まずは火のエレメンタルを計測しましょう……")
  ShowMessageFace("salamander_fc1",2,0,2,17)
  ShowMessage("【サラマンダー】")
  ShowMessage("な、なんだ……この感じは……！")
  ShowMessage("くっ、体が……はぅぅぅぅ……")
  ShowMessageFace("undine_fc1",2,0,2,18)
  ShowMessage("【ウンディーネ】")
  ShowMessage("何を発情しているの、この火トカゲは……")
  ShowMessageFace("lusia_fc1",0,0,2,19)
  ShowMessage("【ルシア】")
  ShowMessage("対象を感知しましたね。")
  ShowMessage("それでは、こちらから干渉波を送りましょう……")
  ShowMessageFace("salamander_fc1",2,0,2,20)
  ShowMessage("【サラマンダー】")
  ShowMessage("ち、ちが……！")
  ShowMessageFace("lusia_fc1",0,0,2,21)
  ShowMessage("【ルシア】")
  ShowMessage("干渉波を高めていきます。")
  ShowMessage("2倍……4倍……8倍……")
  ShowMessageFace("salamander_fc1",2,0,2,22)
  ShowMessage("【サラマンダー】")
  ShowMessage("ん……")
  ShowMessageFace("sylph_fc1",7,0,2,23)
  ShowMessage("【シルフ】")
  ShowMessage("……………………")
  ShowMessageFace("salamander_fc1",2,0,2,24)
  ShowMessage("【サラマンダー】")
  ShowMessage("んんんっ……")
  ShowMessageFace("sylph_fc1",7,0,2,25)
  ShowMessage("【シルフ】")
  ShowMessage("ぴきぴき……")
  ShowMessageFace("salamander_fc1",2,0,2,26)
  ShowMessage("【サラマンダー】")
  ShowMessage("だ、だめだ……もう……！")
  241(bytes(0x04,0x08,0x6f,0x3a,0x0d,0x52,0x50,0x47,0x3a,0x3a,0x42,0x47,0x4d,0x08,0x3a,0x0a,0x40,0x6e,0x61,0x6d,0x65,0x49,0x22,0x10,0x73,0x63,0x65,0x6e,0x65,0x5f,0x63,0x6f,0x6d,0x69,0x31,0x06,0x3a,0x06,0x45,0x54,0x3a,0x0c,0x40,0x76,0x6f,0x6c,0x75,0x6d,0x65,0x69,0x69,0x3a,0x0b,0x40,0x70,0x69,0x74,0x63,0x68,0x69,0x69))
  212(-1,1160,false)
  ShowMessageFace("sylph_fc2",3,0,2,27)
  ShowMessage("【シルフ】")
  ShowMessage("ぎゃわー！")
  ShowMessageFace("salamander_fc1",0,0,2,28)
  ShowMessage("【サラマンダー】")
  ShowMessage("ふぅ……")
  ShowMessageFace("undine_fc1",2,0,2,29)
  ShowMessage("【ウンディーネ】")
  ShowMessage("賢者モードというやつね……")
  ShowMessageFace("sylph_fc2",4,0,2,30)
  ShowMessage("【シルフ】")
  ShowMessage("……………………")
  318(0,167,0,3029)
  250(bytes(0x04,0x08,0x6f,0x3a,0x0c,0x52,0x50,0x47,0x3a,0x3a,0x53,0x45,0x08,0x3a,0x0a,0x40,0x6e,0x61,0x6d,0x65,0x49,0x22,0x0a,0x49,0x74,0x65,0x6d,0x31,0x06,0x3a,0x06,0x45,0x54,0x3a,0x0b,0x40,0x70,0x69,0x74,0x63,0x68,0x69,0x69,0x3a,0x0c,0x40,0x76,0x6f,0x6c,0x75,0x6d,0x65,0x69,0x55))
  ShowMessageFace("",0,0,2,31)
  ShowMessage("ルシアは\\I[300]\\C[1]火柱\\C[0]を修得した！")
  241(bytes(0x04,0x08,0x6f,0x3a,0x0d,0x52,0x50,0x47,0x3a,0x3a,0x42,0x47,0x4d,0x08,0x3a,0x0a,0x40,0x6e,0x61,0x6d,0x65,0x49,0x22,0x12,0x64,0x75,0x6e,0x67,0x65,0x6f,0x6e,0x5f,0x6b,0x61,0x7a,0x61,0x6e,0x06,0x3a,0x06,0x45,0x54,0x3a,0x0c,0x40,0x76,0x6f,0x6c,0x75,0x6d,0x65,0x69,0x69,0x3a,0x0b,0x40,0x70,0x69,0x74,0x63,0x68,0x69,0x69))
  ShowMessageFace("lusia_fc1",0,0,2,32)
  ShowMessage("【ルシア】")
  ShowMessage("四属性のエレメンタルを計測し終えました。")
  ShowMessage("これが目的ではありません……")
  ShowMessageFace("lusia_fc1",0,0,2,33)
  ShowMessage("【ルシア】")
  ShowMessage("準備は整いました……")
  ShowMessage("それでは、実験を開始します！")
  ShowMessageFace("lusia_fc1",0,0,2,34)
  ShowMessage("【ルシア】")
  ShowMessage("リリィと私の研究、人体における魔導組成の組み替え――")
  ShowMessage("そして、人体へのエレメンタル繰り込みを――")
  ShowMessageFace("lusia_fc1",0,0,2,35)
  ShowMessage("【ルシア】")
  ShowMessage("私の体で、エレメンタルが息づいて……！")
  ShowMessage("ああ、これなら……！")
  250(bytes(0x04,0x08,0x6f,0x3a,0x0c,0x52,0x50,0x47,0x3a,0x3a,0x53,0x45,0x08,0x3a,0x0a,0x40,0x6e,0x61,0x6d,0x65,0x49,0x22,0x0b,0x4d,0x61,0x67,0x69,0x63,0x31,0x06,0x3a,0x06,0x45,0x54,0x3a,0x0b,0x40,0x70,0x69,0x74,0x63,0x68,0x69,0x69,0x3a,0x0c,0x40,0x76,0x6f,0x6c,0x75,0x6d,0x65,0x69,0x55))
  224(bytes(0x04,0x08,0x75,0x3a,0x0a,0x43,0x6f,0x6c,0x6f,0x72,0x25,0x00,0x00,0x00,0x00,0x00,0xe0,0x6f,0x40,0x00,0x00,0x00,0x00,0x00,0xe0,0x6f,0x40,0x00,0x00,0x00,0x00,0x00,0xe0,0x6f,0x40,0x00,0x00,0x00,0x00,0x00,0xe0,0x6f,0x40),60,true)
  ShowMessageFace("lusia_fc1",0,0,2,36)
  ShowMessage("【ルシア】")
  ShowMessage("研究、完成です……")
  ShowMessage("人の外見を保ったまま、自然感応を果たしました。")
  355("set_class_level(167, 214, 10, false)")
  355("set_class_level(167, 215, 1, false)")
  ShowMessageFace("lusia_fc1",0,0,2,37)
  ShowMessage("【ルシア】")
  ShowMessage("今の私の肉体は、妖精と極めて近いものです……")
  ShowMessage("つまり私は、見た目はそのままに妖精へと生まれ変わったのですよ。")
  250(bytes(0x04,0x08,0x6f,0x3a,0x0c,0x52,0x50,0x47,0x3a,0x3a,0x53,0x45,0x08,0x3a,0x0a,0x40,0x6e,0x61,0x6d,0x65,0x49,0x22,0x11,0x6d,0x6f,0x6e,0x5f,0x66,0x61,0x6e,0x66,0x61,0x6c,0x65,0x33,0x06,0x3a,0x06,0x45,0x54,0x3a,0x0b,0x40,0x70,0x69,0x74,0x63,0x68,0x69,0x69,0x3a,0x0c,0x40,0x76,0x6f,0x6c,0x75,0x6d,0x65,0x69,0x55))
  ShowMessageFace("",0,0,2,38)
  ShowMessage("ルシアはフェアリー系の種族に就けるようになった！")
  241(bytes(0x04,0x08,0x6f,0x3a,0x0d,0x52,0x50,0x47,0x3a,0x3a,0x42,0x47,0x4d,0x08,0x3a,0x0a,0x40,0x6e,0x61,0x6d,0x65,0x49,0x22,0x14,0x73,0x63,0x65,0x6e,0x65,0x5f,0x65,0x70,0x69,0x6c,0x6f,0x67,0x75,0x65,0x32,0x06,0x3a,0x06,0x45,0x54,0x3a,0x0c,0x40,0x76,0x6f,0x6c,0x75,0x6d,0x65,0x69,0x69,0x3a,0x0b,0x40,0x70,0x69,0x74,0x63,0x68,0x69,0x69))
  ShowMessageFace("ruka_fc1",0,0,2,39)
  ShowMessage("【ルカ】")
  ShowMessage("すごいじゃないか！")
  If(0,4,0)
   ShowMessageFace("alice_fc5",2,0,2,40)
   ShowMessage("【アリス】")
   ShowMessage("妖精に転種したのか……")
   ShowMessage("まさか、そんな事が可能だとはな。")
   0()
  EndIf()
  If(0,5,0)
   ShowMessageFace("iriasu_fc4",2,0,2,41)
   ShowMessage("【イリアス】")
   ShowMessage("妖精に転種するとは、また奇妙な研究を……")
   0()
  EndIf()
  ShowMessageFace("lusia_fc1",0,0,2,42)
  ShowMessage("【ルシア】")
  ShowMessage("それでは、改めて……")
  ShowMessage("生まれ変わった私ですが、よろしくお願いいたします。")
  ShowMessageFace("ruka_fc1",0,0,2,43)
  ShowMessage("【ルカ】")
  ShowMessage("これからも、よろしく！")
  ShowMessageFace("lusia_fc1",0,0,2,44)
  ShowMessage("【ルシア】")
  ShowMessage("ちぃぱっぱ……")
  If(0,6,0)
   ShowMessageFace("sonia_fc2",2,0,2,45)
   ShowMessage("【ソニア】")
   ShowMessage("……何か言った？")
   0()
  Else()
   ShowMessageFace("ruka_fc1",0,0,2,46)
   ShowMessage("【ルカ】")
   ShowMessage("……何か言った？")
   0()
  EndIf()
  ShowMessageFace("lusia_fc1",0,0,2,47)
  ShowMessage("【ルシア】")
  ShowMessage("いえ、何も……")
  ShowMessageFace("sylph_fc1",7,0,2,48)
  ShowMessage("【シルフ】")
  ShowMessage("ぴきぴき……")
  355("gain_medal(2107)")
  241(bytes(0x04,0x08,0x6f,0x3a,0x0d,0x52,0x50,0x47,0x3a,0x3a,0x42,0x47,0x4d,0x08,0x3a,0x0a,0x40,0x6e,0x61,0x6d,0x65,0x49,0x22,0x12,0x64,0x75,0x6e,0x67,0x65,0x6f,0x6e,0x5f,0x6b,0x61,0x7a,0x61,0x6e,0x06,0x3a,0x06,0x45,0x54,0x3a,0x0c,0x40,0x76,0x6f,0x6c,0x75,0x6d,0x65,0x69,0x69,0x3a,0x0b,0x40,0x70,0x69,0x74,0x63,0x68,0x69,0x69))
  EndEventProcessing()
  0()
 PAGE   2
  // condition: variable 1047 >= 4
  0()



EVENT   23
 PAGE   1
  250(bytes(0x04,0x08,0x6f,0x3a,0x0c,0x52,0x50,0x47,0x3a,0x3a,0x53,0x45,0x08,0x3a,0x0a,0x40,0x6e,0x61,0x6d,0x65,0x49,0x22,0x0a,0x48,0x65,0x61,0x6c,0x37,0x06,0x3a,0x06,0x45,0x54,0x3a,0x0b,0x40,0x70,0x69,0x74,0x63,0x68,0x69,0x69,0x3a,0x0c,0x40,0x76,0x6f,0x6c,0x75,0x6d,0x65,0x69,0x55))
  224(bytes(0x04,0x08,0x75,0x3a,0x0a,0x43,0x6f,0x6c,0x6f,0x72,0x25,0x00,0x00,0x00,0x00,0x00,0xe0,0x6f,0x40,0x00,0x00,0x00,0x00,0x00,0xe0,0x6f,0x40,0x00,0x00,0x00,0x00,0x00,0xe0,0x6f,0x40,0x00,0x00,0x00,0x00,0x00,0xe0,0x6f,0x40),30,true)
  314(0,0)
  ShowMessageFace("",0,0,2,1)
  ShowMessage("The party's HP and MP have been fully restored!")
  0()



EVENT   24
 PAGE   1
  // condition: switch 31 is ON
  0()



EVENT   25
 PAGE   1
  // condition: switch 1015 is ON
  // condition: party contains actor #99
  ChangeSwitch(2144,2144,0)
  ShowMessageFace("namazu_fc1",0,0,2,1)
  ShowMessage("【ギギ】")
  ShowMessage("むむっ、炎のエネルギーを感じるのう……")
  ShowMessage("ヒゲが少し焦げてしまったわ。")
  ShowMessageFace("namazu_fc1",0,0,2,2)
  ShowMessage("【ギギ】")
  ShowMessage("亀の甲より年の功、自然感応は得意じゃぞ。")
  ShowMessage("この炎のエネルギーを、上手く取り込めば……")
  318(0,99,0,3029)
  250(bytes(0x04,0x08,0x6f,0x3a,0x0c,0x52,0x50,0x47,0x3a,0x3a,0x53,0x45,0x08,0x3a,0x0a,0x40,0x6e,0x61,0x6d,0x65,0x49,0x22,0x0a,0x49,0x74,0x65,0x6d,0x31,0x06,0x3a,0x06,0x45,0x54,0x3a,0x0b,0x40,0x70,0x69,0x74,0x63,0x68,0x69,0x69,0x3a,0x0c,0x40,0x76,0x6f,0x6c,0x75,0x6d,0x65,0x69,0x55))
  ShowMessageFace("",0,0,2,3)
  ShowMessage("ギギは\\I[157]\\C[1]火柱\\C[0]を修得した！")
  ShowMessageFace("namazu_fc1",0,0,2,4)
  ShowMessage("【ギギ】")
  ShowMessage("うむ、この通りよ。")
  ShowMessage("それでは、行くとしようぞ！")
  EndEventProcessing()
  0()
 PAGE   2
  // condition: switch 2144 is ON
  0()
