// EVENT 0910
Name "Boss Level Normal Treasure Chests"

ChangeVariable(11,11,0,2,1,15)
If(1,11,0,1,0)
 ChangeInventory_Item(24,0,0,1)
 EndEventProcessing()
 0()
EndIf()
If(1,11,0,2,0)
 ChangeInventory_Item(25,0,0,1)
 EndEventProcessing()
 0()
EndIf()
If(1,11,0,3,0)
 ChangeInventory_Item(26,0,0,1)
 EndEventProcessing()
 0()
EndIf()
If(1,11,0,4,0)
 ChangeInventory_Item(27,0,0,1)
 EndEventProcessing()
 0()
EndIf()
If(1,11,0,5,0)
 ChangeInventory_Item(28,0,0,1)
 EndEventProcessing()
 0()
EndIf()
If(1,11,0,6,0)
 ChangeInventory_Item(29,0,0,1)
 EndEventProcessing()
 0()
EndIf()
If(1,11,0,7,0)
 ChangeInventory_Item(30,0,0,1)
 EndEventProcessing()
 0()
EndIf()
If(1,11,0,8,0)
 ChangeInventory_Item(31,0,0,1)
 EndEventProcessing()
 0()
EndIf()
If(1,11,0,9,0)
 ChangeInventory_Item(37,0,0,1)
 EndEventProcessing()
 0()
EndIf()
If(1,11,0,10,0)
 ChangeInventory_Item(41,0,0,1)
 EndEventProcessing()
 0()
EndIf()
If(1,11,0,11,0)
 ChangeInventory_Item(45,0,0,1)
 EndEventProcessing()
 0()
EndIf()
If(1,11,0,12,1)
 ChangeInventory_Item(32,0,0,1)
 EndEventProcessing()
 0()
EndIf()
0()
