// EVENT 0095
Name "Skill: Play 551-560"

ChangeVariable(11,11,0,2,1,5)
If(1,100,0,551,0)
 If(1,11,0,1,0)
  ShowMessageFace("mob_maid1_fc1",4,0,2,1)
  ShowMessage("\\n<Kate>......")
  ShowMessageFace("",0,0,2,2)
  ShowMessage("Kate is thinking of tonight's menu.")
  EndEventProcessing()
  0()
 EndIf()
 If(1,11,0,2,0)
  ShowMessageFace("mob_maid1_fc1",2,0,2,3)
  ShowMessage("\\n<Kate>......")
  ShowMessageFace("",0,0,2,4)
  ShowMessage("Kate smiled!")
  ShowMessage("...but nothing happened.")
  0()
 EndIf()
 If(1,11,0,3,0)
  ShowMessageFace("mob_maid1_fc1",0,0,2,5)
  ShowMessage("\\n<Kate>I hope it's to your liking...")
  ShowMessageFace("",0,0,2,6)
  ShowMessage("Kate gave you a gift!")
  250(bytes(0x04,0x08,0x6f,0x3a,0x0c,0x52,0x50,0x47,0x3a,0x3a,0x53,0x45,0x08,0x3a,0x0a,0x40,0x6e,0x61,0x6d,0x65,0x49,0x22,0x0a,0x49,0x74,0x65,0x6d,0x31,0x06,0x3a,0x06,0x45,0x54,0x3a,0x0b,0x40,0x70,0x69,0x74,0x63,0x68,0x69,0x69,0x3a,0x0c,0x40,0x76,0x6f,0x6c,0x75,0x6d,0x65,0x69,0x55))
  ChangeInventory_Item(417,0,0,1)
  ShowMessageFace("",0,0,2,7)
  ShowMessage("You obtain [Cake]!")
  EndEventProcessing()
  0()
 EndIf()
 If(1,11,0,4,0)
  ShowMessageFace("mob_maid1_fc1",3,0,2,8)
  ShowMessage("\\n<Kate>......")
  ShowMessageFace("",0,0,2,9)
  ShowMessage("Kate is silently pulling weeds.")
  250(bytes(0x04,0x08,0x6f,0x3a,0x0c,0x52,0x50,0x47,0x3a,0x3a,0x53,0x45,0x08,0x3a,0x0a,0x40,0x6e,0x61,0x6d,0x65,0x49,0x22,0x0a,0x49,0x74,0x65,0x6d,0x31,0x06,0x3a,0x06,0x45,0x54,0x3a,0x0b,0x40,0x70,0x69,0x74,0x63,0x68,0x69,0x69,0x3a,0x0c,0x40,0x76,0x6f,0x6c,0x75,0x6d,0x65,0x69,0x55))
  ChangeInventory_Item(445,0,0,1)
  ShowMessageFace("",0,0,2,10)
  ShowMessage("You obtain [Weeds!")
  EndEventProcessing()
  0()
 EndIf()
 If(1,11,0,5,0)
  ShowMessageFace("mob_maid1_fc1",0,0,2,11)
  ShowMessage("\\n<Kate>I wonder how my teacher is doing?")
  ShowMessageFace("",0,0,2,12)
  ShowMessage("Kate writes a letter to her teacher, Flora.")
  EndEventProcessing()
  0()
 EndIf()
 0()
EndIf()
If(1,100,0,552,0)
 If(1,11,0,1,0)
  ShowMessageFace("mob_elf1_fc1",0,0,2,13)
  ShowMessage("\\n<Elise>Huh? Wha?")
  ShowMessageFace("",0,0,2,14)
  ShowMessage("...Elise has spaced out.")
  EndEventProcessing()
  0()
 EndIf()
 If(1,11,0,2,0)
  ShowMessageFace("mob_elf1_fc1",0,0,2,15)
  ShowMessage("\\n<Elise>...this was on a tree.")
  250(bytes(0x04,0x08,0x6f,0x3a,0x0c,0x52,0x50,0x47,0x3a,0x3a,0x53,0x45,0x08,0x3a,0x0a,0x40,0x6e,0x61,0x6d,0x65,0x49,0x22,0x0a,0x49,0x74,0x65,0x6d,0x31,0x06,0x3a,0x06,0x45,0x54,0x3a,0x0b,0x40,0x70,0x69,0x74,0x63,0x68,0x69,0x69,0x3a,0x0c,0x40,0x76,0x6f,0x6c,0x75,0x6d,0x65,0x69,0x55))
  ChangeInventory_Item(302,0,0,1)
  ShowMessageFace("",0,0,2,16)
  ShowMessage("You obtain a [Mandarin Orange]!")
  EndEventProcessing()
  0()
 EndIf()
 If(1,11,0,3,0)
  ShowMessageFace("mob_elf1_fc1",0,0,2,17)
  ShowMessage("\\n<Elise>...I'm confused.")
  ShowMessageFace("",0,0,2,18)
  ShowMessage("Elise became confused.")
  EndEventProcessing()
  0()
 EndIf()
 If(1,11,0,4,0)
  ShowMessageFace("mob_elf1_fc1",0,0,2,19)
  ShowMessage("\\n<Elise>......")
  ShowMessageFace("",0,0,2,20)
  ShowMessage("...Elise is just watching.")
  EndEventProcessing()
  0()
 EndIf()
 If(1,11,0,5,0)
  ShowMessageFace("mob_elf1_fc1",0,0,2,21)
  ShowMessage("\\n<Elise>...hnnn!")
  355("interrupt_skill(3104)")
  EndEventProcessing()
  0()
 EndIf()
 0()
EndIf()
If(1,100,0,553,0)
 If(1,11,0,1,0)
  ShowMessageFace("mob_gakusya1_fc1",3,0,2,22)
  ShowMessage("\\n<Fizz>Glasses... Glasses...")
  313(0,553,0,8)
  ShowMessageFace("",0,0,2,23)
  ShowMessage("Fizz seems to have lost her glasses...")
  ShowMessage("Fizz has become blind!")
  EndEventProcessing()
  0()
 EndIf()
 If(1,11,0,2,0)
  ShowMessageFace("mob_gakusya1_fc1",1,0,2,24)
  ShowMessage("\\n<Fizz>I must finish this by tomorrow morning...")
  ShowMessageFace("",0,0,2,25)
  ShowMessage("Fizz is writing a paper.")
  EndEventProcessing()
  0()
 EndIf()
 If(1,11,0,3,0)
  ShowMessageFace("mob_gakusya1_fc1",0,0,2,26)
  ShowMessage("\\n<Fizz>If I don't finish this experiment now ...Ahhh!")
  355("interrupt_skill(3306)")
  EndEventProcessing()
  0()
 EndIf()
 If(1,11,0,4,0)
  ShowMessageFace("mob_gakusya1_fc1",0,0,2,27)
  ShowMessage("\\n<Fizz>My thesis will be delayed because I am on a journey to save the world... there.")
  ShowMessageFace("",0,0,2,28)
  ShowMessage("Fizz wrote a letter.")
  EndEventProcessing()
  0()
 EndIf()
 If(1,11,0,5,0)
  ShowMessageFace("mob_gakusya1_fc1",1,0,2,29)
  ShowMessage("\\n<Fizz>...Ahhh?!")
  355("interrupt_skill(3293)")
  EndEventProcessing()
  0()
 EndIf()
 0()
EndIf()
If(1,100,0,554,0)
 If(1,11,0,1,0)
  ShowMessageFace("mob_nasu1_fc1",0,0,2,30)
  ShowMessage("\\n<Nightingale>Now, time for a shot...")
  ShowMessageFace("",0,0,2,31)
  ShowMessage("Nightingale prepared an injection!")
  ShowMessage("But everyone looked away!")
  EndEventProcessing()
  0()
 EndIf()
 If(1,11,0,2,0)
  ShowMessageFace("mob_nasu1_fc1",0,0,2,32)
  ShowMessage("\\n<Nightingale>Here, it's very nutritious.")
  ShowMessageFace("",0,0,2,33)
  ShowMessage("Nightengail presented a gift!")
  250(bytes(0x04,0x08,0x6f,0x3a,0x0c,0x52,0x50,0x47,0x3a,0x3a,0x53,0x45,0x08,0x3a,0x0a,0x40,0x6e,0x61,0x6d,0x65,0x49,0x22,0x0a,0x49,0x74,0x65,0x6d,0x31,0x06,0x3a,0x06,0x45,0x54,0x3a,0x0b,0x40,0x70,0x69,0x74,0x63,0x68,0x69,0x69,0x3a,0x0c,0x40,0x76,0x6f,0x6c,0x75,0x6d,0x65,0x69,0x55))
  ChangeInventory_Item(328,0,0,1)
  ShowMessageFace("",0,0,2,34)
  ShowMessage("You obtain an [Eel]!")
  EndEventProcessing()
  0()
 EndIf()
 If(1,11,0,3,0)
  ShowMessageFace("mob_nasu1_fc1",0,0,2,35)
  ShowMessage("\\n<Nightingale>All right, time for your shot.")
  313(0,1,0,34)
  313(0,1,0,40)
  ShowMessageFace("",0,0,2,36)
  ShowMessage("Nightingale injected Luka with strange medicine!")
  ShowMessage("Luka began to regenerate health!")
  EndEventProcessing()
  0()
 EndIf()
 If(1,11,0,4,0)
  ShowMessageFace("mob_nasu1_fc1",0,0,2,37)
  ShowMessage("\\n<Nightingale>All right, time for your shot.")
  313(0,1,0,25)
  ShowMessageFace("",0,0,2,38)
  ShowMessage("Nightingale injected Luka with strange medicine!")
  ShowMessage("Luka was immersed in ecstasy!")
  EndEventProcessing()
  0()
 EndIf()
 If(1,11,0,5,0)
  ShowMessageFace("mob_nasu1_fc1",0,0,2,39)
  ShowMessage("\\n<Nightingale>Ufufuu...")
  355("interrupt_skill(3296)")
  EndEventProcessing()
  0()
 EndIf()
 0()
EndIf()
If(1,100,0,555,0)
 If(1,11,0,1,0)
  ShowMessageFace("mob_murabito2_fc1",0,0,2,40)
  ShowMessage("\\n<Teresa>......")
  ShowMessageFace("",0,0,2,41)
  ShowMessage("Teresa has spaced out!")
  EndEventProcessing()
  0()
 EndIf()
 If(1,11,0,2,0)
  ShowMessageFace("mob_murabito2_fc1",0,0,2,42)
  ShowMessage("\\n<Teresa>Snack...")
  ShowMessageFace("",0,0,2,43)
  ShowMessage("Teresa presents a gift!")
  250(bytes(0x04,0x08,0x6f,0x3a,0x0c,0x52,0x50,0x47,0x3a,0x3a,0x53,0x45,0x08,0x3a,0x0a,0x40,0x6e,0x61,0x6d,0x65,0x49,0x22,0x0a,0x49,0x74,0x65,0x6d,0x31,0x06,0x3a,0x06,0x45,0x54,0x3a,0x0b,0x40,0x70,0x69,0x74,0x63,0x68,0x69,0x69,0x3a,0x0c,0x40,0x76,0x6f,0x6c,0x75,0x6d,0x65,0x69,0x55))
  ChangeInventory_Item(414,0,0,1)
  ShowMessageFace("",0,0,2,44)
  ShowMessage("You obtain some [Chocolate]!")
  EndEventProcessing()
  0()
 EndIf()
 If(1,11,0,3,0)
  ShowMessageFace("mob_murabito2_fc1",0,0,2,45)
  ShowMessage("\\n<Teresa>Do you best...")
  ShowMessageFace("",0,0,2,46)
  ShowMessage("Teresa cheers everyone on!")
  ShowMessage("...but no one heard her.")
  EndEventProcessing()
  0()
 EndIf()
 If(1,11,0,4,0)
  ShowMessageFace("mob_murabito2_fc1",1,0,2,47)
  ShowMessage("\\n<Teresa>......")
  313(0,555,0,24)
  ShowMessageFace("",0,0,2,48)
  ShowMessage("Teresa is having perverted thoughts!")
  ShowMessage("Teresa has become horny!")
  EndEventProcessing()
  0()
 EndIf()
 If(1,11,0,5,0)
  ShowMessageFace("mob_murabito2_fc1",0,0,2,49)
  ShowMessage("\\n<Teresa>Ha...haa...!")
  355("interrupt_skill(3308)")
  EndEventProcessing()
  0()
 EndIf()
 0()
EndIf()
If(1,100,0,556,0)
 If(1,11,0,1,0)
  ShowMessageFace("mob_sister1_fc1",0,0,2,50)
  ShowMessage("\\n<Maria>Saying that I don't have any grudges? That's a lie...")
  355("interrupt_skill(3295)")
  EndEventProcessing()
  0()
 EndIf()
 If(1,11,0,2,0)
  ShowMessageFace("mob_sister1_fc1",0,0,2,51)
  ShowMessage("\\n<Maria>This was found in the monastery's field.\nFufufuu...")
  ShowMessageFace("",0,0,2,52)
  ShowMessage("Maria presents a gift!")
  250(bytes(0x04,0x08,0x6f,0x3a,0x0c,0x52,0x50,0x47,0x3a,0x3a,0x53,0x45,0x08,0x3a,0x0a,0x40,0x6e,0x61,0x6d,0x65,0x49,0x22,0x0a,0x49,0x74,0x65,0x6d,0x31,0x06,0x3a,0x06,0x45,0x54,0x3a,0x0b,0x40,0x70,0x69,0x74,0x63,0x68,0x69,0x69,0x3a,0x0c,0x40,0x76,0x6f,0x6c,0x75,0x6d,0x65,0x69,0x55))
  ChangeInventory_Item(310,0,0,1)
  ShowMessageFace("",0,0,2,53)
  ShowMessage("You obtain a [Carrot]!")
  EndEventProcessing()
  0()
 EndIf()
 If(1,11,0,3,0)
  ShowMessageFace("mob_sister1_fc1",0,0,2,54)
  ShowMessage("\\n<Maria>God, please watch over us...")
  ShowMessageFace("",0,0,2,55)
  ShowMessage("Maria is praying to god...")
  EndEventProcessing()
  0()
 EndIf()
 If(1,11,0,4,0)
  ShowMessageFace("mob_sister1_fc1",0,0,2,56)
  ShowMessage("\\n<Maria>Fufufu...ufufuu...")
  313(0,556,0,24)
  ShowMessageFace("",0,0,2,57)
  ShowMessage("Maria is having perverted thoughts!")
  ShowMessage("Maria has become horny!")
  EndEventProcessing()
  0()
 EndIf()
 If(1,11,0,5,0)
  ShowMessageFace("mob_sister1_fc1",0,0,2,58)
  ShowMessage("\\n<Maria>God, lend us your strength...")
  355("interrupt_skill(3302)")
  EndEventProcessing()
  0()
 EndIf()
 0()
EndIf()
If(1,100,0,557,0)
 If(1,11,0,1,0)
  ShowMessageFace("justice_fc1",0,0,2,59)
  ShowMessage("\\n<Jessica>Justice shall overcome evil!")
  ShowMessageFace("",0,0,2,60)
  ShowMessage("Jessica struck a pose!")
  ShowMessage("But no one was looking!")
  EndEventProcessing()
  0()
 EndIf()
 If(1,11,0,2,0)
  ShowMessageFace("justice_fc1",0,0,2,61)
  ShowMessage("\\n<Jessica>Speaking of heroes, sausage!\nEat and grow strong!")
  ShowMessageFace("",0,0,2,62)
  ShowMessage("Jessica presents a gift!")
  250(bytes(0x04,0x08,0x6f,0x3a,0x0c,0x52,0x50,0x47,0x3a,0x3a,0x53,0x45,0x08,0x3a,0x0a,0x40,0x6e,0x61,0x6d,0x65,0x49,0x22,0x0a,0x49,0x74,0x65,0x6d,0x31,0x06,0x3a,0x06,0x45,0x54,0x3a,0x0b,0x40,0x70,0x69,0x74,0x63,0x68,0x69,0x69,0x3a,0x0c,0x40,0x76,0x6f,0x6c,0x75,0x6d,0x65,0x69,0x55))
  ChangeInventory_Item(331,0,0,1)
  ShowMessageFace("",0,0,2,63)
  ShowMessage("You obtain a [Sausage]!")
  EndEventProcessing()
  0()
 EndIf()
 If(1,11,0,3,0)
  ShowMessageFace("justice_fc1",0,0,2,64)
  ShowMessage("\\n<Jessica>Love! Freedom! Hopes! Dreams!\nThat is, that-ta-ta is...! What I am!")
  ShowMessageFace("",0,0,2,65)
  ShowMessage("Jessica is practicing her catchphrase!")
  EndEventProcessing()
  0()
 EndIf()
 If(1,11,0,4,0)
  ShowMessageFace("justice_fc1",0,0,2,66)
  ShowMessage("\\n<Jessica>Fighting spirit, unleashed!")
  355("interrupt_skill(3294)")
  EndEventProcessing()
  0()
 EndIf()
 If(1,11,0,5,0)
  ShowMessageFace("justice_fc1",0,0,2,67)
  ShowMessage("\\n<Jessica>Trans... form! Hyaa!")
  355("interrupt_skill(3126)")
  EndEventProcessing()
  0()
 EndIf()
 0()
EndIf()
If(1,100,0,558,0)
 If(1,11,0,1,0)
  ShowMessageFace("mob_uranai1_fc1",0,0,2,68)
  ShowMessage("\\n<Naia>Squeak, squeak...")
  ShowMessageFace("",0,0,2,69)
  ShowMessage("Naia is polishing her crystal ball.")
  EndEventProcessing()
  0()
 EndIf()
 If(1,11,0,2,0)
  ShowMessageFace("mob_uranai1_fc1",1,0,2,70)
  ShowMessage("\\n<Naia>Someday, I will also be a famous fortune teller...")
  ShowMessageFace("",0,0,2,71)
  ShowMessage("Naia is practicing her signature.")
  EndEventProcessing()
  0()
 EndIf()
 If(1,11,0,3,0)
  ShowMessageFace("mob_uranai1_fc1",0,0,2,72)
  ShowMessage("\\n<Naia>This is... healing light!")
  355("interrupt_skill(3302)")
  EndEventProcessing()
  0()
 EndIf()
 If(1,11,0,4,0)
  ShowMessageFace("mob_uranai1_fc1",2,0,2,73)
  ShowMessage("\\n<Naia>......")
  313(0,558,0,24)
  ShowMessageFace("",0,0,2,74)
  ShowMessage("Naia is having perverted thoughts!")
  ShowMessage("Naia has become horny!")
  EndEventProcessing()
  0()
 EndIf()
 If(1,11,0,5,0)
  ShowMessageFace("mob_uranai1_fc1",0,0,2,75)
  ShowMessage("\\n<Naia>Let's stop fighting...")
  ShowMessageFace("",0,0,2,76)
  ShowMessage("Naia tries to stop the fight!")
  ShowMessage("...but no one was listening!")
  EndEventProcessing()
  0()
 EndIf()
 0()
EndIf()
If(1,100,0,559,0)
 If(1,11,0,1,0)
  ShowMessageFace("mob_assasin1_fc1",1,0,2,77)
  ShowMessage("\\n<Salaan>This is my secret technique!")
  313(0,559,0,220)
  ShowMessageFace("",0,0,2,78)
  ShowMessage("Salaan hid somewhere!")
  ShowMessage("...but nobody tried to find her.")
  EndEventProcessing()
  0()
 EndIf()
 If(1,11,0,2,0)
  ShowMessageFace("mob_assasin1_fc1",1,0,2,79)
  ShowMessage("\\n<Salaan>A gift, to sate your hunger.")
  ShowMessageFace("",0,0,2,80)
  ShowMessage("Salaan presented a gift!")
  250(bytes(0x04,0x08,0x6f,0x3a,0x0c,0x52,0x50,0x47,0x3a,0x3a,0x53,0x45,0x08,0x3a,0x0a,0x40,0x6e,0x61,0x6d,0x65,0x49,0x22,0x0a,0x49,0x74,0x65,0x6d,0x31,0x06,0x3a,0x06,0x45,0x54,0x3a,0x0b,0x40,0x70,0x69,0x74,0x63,0x68,0x69,0x69,0x3a,0x0c,0x40,0x76,0x6f,0x6c,0x75,0x6d,0x65,0x69,0x55))
  ChangeInventory_Item(361,0,0,1)
  ShowMessageFace("",0,0,2,81)
  ShowMessage("You obtain a [Rice Ball]!")
  EndEventProcessing()
  0()
 EndIf()
 If(1,11,0,3,0)
  ShowMessageFace("mob_assasin1_fc1",1,0,2,82)
  ShowMessage("\\n<Salaan>I must train every day...")
  ShowMessageFace("",0,0,2,83)
  ShowMessage("Salaan was training in secret.")
  EndEventProcessing()
  0()
 EndIf()
 If(1,11,0,4,0)
  ShowMessageFace("mob_assasin1_fc1",1,0,2,84)
  ShowMessage("\\n<Salaan>For just a bit, let my practice my sexual technique...")
  313(0,1,0,24)
  ShowMessageFace("",0,0,2,85)
  ShowMessage("Salaan stroked Luka's crotch with her skilled hands!")
  ShowMessage("Luka became horny!")
  EndEventProcessing()
  0()
 EndIf()
 If(1,11,0,5,0)
  ShowMessageFace("mob_assasin1_fc1",1,0,2,86)
  ShowMessage("\\n<Salaan>Taste my homemade bomb!\n...Did I use too much gunpowder?")
  355("interrupt_skill(3306)")
  EndEventProcessing()
  0()
 EndIf()
 0()
EndIf()
If(1,100,0,560,0)
 If(1,11,0,1,0)
  ShowMessageFace("mob_odoriko1_fc1",0,0,2,87)
  ShowMessage("\\n<Melody>No~w! Hussle! Hussle!")
  355("interrupt_skill(2047)")
  EndEventProcessing()
  0()
 EndIf()
 If(1,11,0,2,0)
  ShowMessageFace("mob_odoriko1_fc1",0,0,2,88)
  ShowMessage("\\n<Melody>Let's all dance together! ♪")
  355("interrupt_skill(2032)")
  0()
 EndIf()
 If(1,11,0,3,0)
  ShowMessageFace("mob_odoriko1_fc1",0,0,2,89)
  ShowMessage("\\n<Melody>Lalalala! ♪")
  ShowMessageFace("",0,0,2,90)
  ShowMessage("Melody is happily singing and dancing.")
  EndEventProcessing()
  0()
 EndIf()
 If(1,11,0,4,0)
  ShowMessageFace("mob_odoriko1_fc1",0,0,2,91)
  ShowMessage("\\n<Melody>Shake! Shake! ♪")
  ShowMessageFace("",0,0,2,92)
  ShowMessage("Melody performed a fun dance!")
  ShowMessage("...but nothing happened.")
  0()
 EndIf()
 If(1,11,0,5,0)
  ShowMessageFace("mob_odoriko1_fc1",0,0,2,93)
  ShowMessage("\\n<Melody>Everyone, do your best! ♪")
  355("interrupt_skill(3300)")
  EndEventProcessing()
  0()
 EndIf()
 0()
EndIf()
0()
