﻿// EVENT 0119
Name "プロメスティン転種"

241(bytes(0x04,0x08,0x6f,0x3a,0x0d,0x52,0x50,0x47,0x3a,0x3a,0x42,0x47,0x4d,0x08,0x3a,0x0a,0x40,0x6e,0x61,0x6d,0x65,0x49,0x22,0x0a,0x73,0x74,0x65,0x69,0x6e,0x06,0x3a,0x06,0x45,0x54,0x3a,0x0c,0x40,0x76,0x6f,0x6c,0x75,0x6d,0x65,0x69,0x69,0x3a,0x0b,0x40,0x70,0x69,0x74,0x63,0x68,0x69,0x69))
PictureDisplay(5,"80_stein_st32",0,0,0,0,100,100,0,0)
PictureMove(5,null,0,0,0,0,100,100,255,0,30,true)
If(0,1920,1)
 ChangeSwitch(1920,1920,0)
 ShowMessageFace("stein_fc2",1,0,2,1)
 ShowMessage("【プロメスティン】")
 ShowMessage("にんじんエキスですが、さらに完成度を高めました！")
 ShowMessageFace("stein_fc2",1,0,2,2)
 ShowMessage("【プロメスティン】")
 ShowMessage("種族「スライム」のレベルが10に達していれば、")
 ShowMessage("魔獣に転種する事ができますよ♪")
 ShowMessageFace("bunnyslime_fc1",0,0,2,3)
 ShowMessage("【うさ】")
 ShowMessage("わーい♪")
 ShowMessage("うさぎ友達ができたら、うれしいな♪")
 DefineLabel("ループ")
 0()
EndIf()
If(0,1921,1)
 If(12,"actor_class_level_over?(167, 214, 1)")
  If(0,2141,0)
   If(0,2141,0)
    If(0,2141,0)
     If(0,2141,0)
      ChangeSwitch(1921,1921,0)
      ShowMessageFace("stein_fc2",1,0,2,4)
      ShowMessage("【プロメスティン】")
      ShowMessage("ところで……最近、ルシアさんと共同研究をしているのです。")
      ShowMessage("フェアリー化の技術を、もっと広範化できないかと。")
      ShowMessageFace("lusia_fc1",0,0,2,5)
      ShowMessage("【ルシア】")
      ShowMessage("私の体では、エレメント化の実験に成功しましたが……")
      ShowMessage("他種族への応用を計画しているのですよ。")
      ShowMessageFace("stein_fc2",1,0,2,6)
      ShowMessage("【プロメスティン】")
      ShowMessage("研究の結果、人魚の肉体はエレメントとの親和性が高いのです。")
      ShowMessage("より深く、自然のエネルギーを宿した個体がいれば……")
      ShowMessageFace("lusia_fc1",0,0,2,7)
      ShowMessage("【ルシア】")
      ShowMessage("ええ、エレメントがすでに根付いた人魚で実験すれば……")
      ShowMessage("妖精化の研究が格段に進歩するのですが……")
      ShowMessageFace("namazu_fc1",2,0,2,8)
      ShowMessage("【ギギ】")
      ShowMessage("おっと急用を思い出した、儂はこれにて……")
      ShowMessageFace("stein_fc2",2,0,2,9)
      ShowMessage("【プロメスティン】")
      ShowMessage("あっ、逃げられます！")
      ShowMessage("捕らえましょう、ルシアさん！")
      ShowMessageFace("lusia_fc1",1,0,2,10)
      ShowMessage("【ルシア】")
      ShowMessage("逃がしませんよ、私の触手で……！")
      241(bytes(0x04,0x08,0x6f,0x3a,0x0d,0x52,0x50,0x47,0x3a,0x3a,0x42,0x47,0x4d,0x08,0x3a,0x0a,0x40,0x6e,0x61,0x6d,0x65,0x49,0x22,0x10,0x73,0x63,0x65,0x6e,0x65,0x5f,0x63,0x6f,0x6d,0x69,0x32,0x06,0x3a,0x06,0x45,0x54,0x3a,0x0c,0x40,0x76,0x6f,0x6c,0x75,0x6d,0x65,0x69,0x69,0x3a,0x0b,0x40,0x70,0x69,0x74,0x63,0x68,0x69,0x69))
      250(bytes(0x04,0x08,0x6f,0x3a,0x0c,0x52,0x50,0x47,0x3a,0x3a,0x53,0x45,0x08,0x3a,0x0a,0x40,0x6e,0x61,0x6d,0x65,0x49,0x22,0x16,0x6d,0x6f,0x6e,0x5f,0x65,0x72,0x6f,0x5f,0x6d,0x61,0x6b,0x69,0x74,0x75,0x6b,0x69,0x33,0x06,0x3a,0x06,0x45,0x54,0x3a,0x0b,0x40,0x70,0x69,0x74,0x63,0x68,0x69,0x69,0x3a,0x0c,0x40,0x76,0x6f,0x6c,0x75,0x6d,0x65,0x69,0x69))
      ShowMessageFace("namazu_fc1",2,0,2,11)
      ShowMessage("【ギギ】")
      ShowMessage("のわー！　離せー！")
      ShowMessageFace("stein_fc2",1,0,2,12)
      ShowMessage("【プロメスティン】")
      ShowMessage("研究のために犠牲になって下さい！")
      ShowMessage("さあさあ、腕を出すのです！")
      ShowMessageFace("lusia_fc1",1,0,2,13)
      ShowMessage("【ルシア】")
      ShowMessage("科学とは、宗教以上に生け贄を必要とするのです！")
      ShowMessage("観念して、実験台になりなさい！")
      ShowMessageFace("namazu_fc1",2,0,2,14)
      ShowMessage("【ギギ】")
      ShowMessage("やめれー！")
      221()
      ShowMessageFace("",0,0,2,15)
      ShowMessage("プロメスティンとルシアは、ギギに怪しいエキスを注射した！")
      222()
      ShowMessageFace("stein_fc2",0,0,2,16)
      ShowMessage("【プロメスティン】")
      ShowMessage("……………………")
      ShowMessageFace("lusia_fc1",0,0,2,17)
      ShowMessage("【ルシア】")
      ShowMessage("……………………")
      ShowMessageFace("namazu_fc1",0,0,2,18)
      ShowMessage("【ギギ】")
      ShowMessage("……………………")
      ShowMessageFace("namazu_fc1",0,0,2,19)
      ShowMessage("【ギギ】")
      ShowMessage("……ちぃぱっぱ！")
      ShowMessageFace("stein_fc2",1,0,2,20)
      ShowMessage("【プロメスティン】")
      ShowMessage("成功です！")
      ShowMessageFace("lusia_fc1",0,0,2,21)
      ShowMessage("【ルシア】")
      ShowMessage("やりましたね！")
      250(bytes(0x04,0x08,0x6f,0x3a,0x0c,0x52,0x50,0x47,0x3a,0x3a,0x53,0x45,0x08,0x3a,0x0a,0x40,0x6e,0x61,0x6d,0x65,0x49,0x22,0x11,0x6d,0x6f,0x6e,0x5f,0x66,0x61,0x6e,0x66,0x61,0x6c,0x65,0x32,0x06,0x3a,0x06,0x45,0x54,0x3a,0x0b,0x40,0x70,0x69,0x74,0x63,0x68,0x69,0x69,0x3a,0x0c,0x40,0x76,0x6f,0x6c,0x75,0x6d,0x65,0x69,0x69))
      355("set_class_level(99, 214, 10, false, false)")
      655("set_class_level(99, 215, 10, false, true)")
      655("set_class_level(99, 217, 10, false, false)")
      ShowMessageFace("",0,0,2,22)
      ShowMessage("ギギはフェアリーに転種した！")
      ShowMessageFace("stein_fc2",1,0,2,23)
      ShowMessage("【プロメスティン】")
      ShowMessage("この成功により、人魚を妖精化する技術が確立しました。")
      ShowMessage("例によって種族「マーメイド」のランク10は必須ですよ。")
      ShowMessageFace("bunnyslime_fc1",0,0,2,24)
      ShowMessage("【うさ】")
      ShowMessage("ねぇねぇ、それは何エキスなの？")
      ShowMessageFace("stein_fc2",0,0,2,25)
      ShowMessage("【プロメスティン】")
      ShowMessage("えっと……なまずエキス、でしょう。")
      ShowMessageFace("sonia_fc4",0,0,2,26)
      ShowMessage("【ソニア】")
      ShowMessage("だんだん命名が苦しくなってきたわね……")
      ShowMessageFace("stein_fc2",1,0,2,27)
      ShowMessage("【プロメスティン】")
      ShowMessage("さあさあ、今後も研究を続けますよ！")
      ShowMessageFace("lusia_fc1",0,0,2,28)
      ShowMessage("【ルシア】")
      ShowMessage("もちろん、私もお手伝いしましょう。")
      ShowMessage("求道に終わりはありませんからね……")
      ShowMessageFace("namazu_fc1",0,0,2,29)
      ShowMessage("【ギギ】")
      ShowMessage("ちぃぱっぱ！　ちぃぱっぱ！")
      ShowMessageFace("sonia_fc4",0,0,2,30)
      ShowMessage("【ソニア】")
      ShowMessage("……………………")
      PictureClear(5)
      241(bytes(0x04,0x08,0x6f,0x3a,0x0d,0x52,0x50,0x47,0x3a,0x3a,0x42,0x47,0x4d,0x08,0x3a,0x0a,0x40,0x6e,0x61,0x6d,0x65,0x49,0x22,0x0c,0x63,0x61,0x73,0x74,0x6c,0x65,0x36,0x06,0x3a,0x06,0x45,0x54,0x3a,0x0c,0x40,0x76,0x6f,0x6c,0x75,0x6d,0x65,0x69,0x69,0x3a,0x0b,0x40,0x70,0x69,0x74,0x63,0x68,0x69,0x69))
      EndEventProcessing()
      0()
     EndIf()
     0()
    EndIf()
    0()
   EndIf()
   0()
  EndIf()
  0()
 EndIf()
 0()
EndIf()
DefineLabel("ループ")
ShowMessageFace("stein_fc2",1,0,2,31)
ShowMessage("【プロメスティン】")
ShowMessage("さて、どの種族に転種しますか……？")
355("ex_choice_add(\"Human→Vampire\",1)")
655("ex_choice_add(\"Slime→Beast\",2)")
655("ex_choice_add(\"Mermaid→Fairy\",3,")
655("\"s[1921]\",0)")
655("ex_choice_add(\"Never Mind\",11)")
355("ex_choice_show(0,11,[0,0])")
If(1,9,0,1,0)
 ChangeVariable(11,11,0,3,0,317,0)
 ChangeVariable(12,12,0,3,0,224,0)
 ShowMessageFace("stein_fc2",1,0,2,32)
 ShowMessage("【プロメスティン】")
 ShowMessage("吸血鬼に転種するならば、にんにくエキスですね。")
 ShowMessage("「にんにく」3個と「夜の黒片」1個が必要です。")
 ShowMessageFace("",0,0,2,33)
 ShowMessage("Garlic (Have:\\V[11]）")
 ShowMessage("Pitch Black Fragment (Have:\\V[12]）")
 ShowMessage("以上を消費し、人間を吸血鬼に転種させますか？")
 ShowChoices(strings("Yes","No"),2)
 IfPlayerPicksChoice(0,null)
  If(1,11,0,3,1)
   If(1,12,0,1,1)
    ShowMessageFace("stein_fc2",1,0,2,34)
    ShowMessage("【プロメスティン】")
    ShowMessage("さてさて、誰ににんにくエキスを投与しますか？")
    ShowMessage("人間のランクが10に達していないと、投与できませんよ。")
    355("names = party_members.collect{|m|m.name}")
    655("unlimited_choices(11, names)")
    655("if $game_variables[11] != names.size")
    655("actor = party_members[$game_variables[11]]")
    655("$game_variables[12] = actor.id")
    655("else")
    655("$game_variables[12] = 0")
    655("end")
    If(1,12,0,0,0)
     JumpToLabel("ループ")
     0()
    EndIf()
    If(12,"actor_class_level_over?(v(12), 151, 10)")
     If(12,"actor_class_level_over?(v(12), 184, 1)")
      ShowMessageFace("stein_fc2",2,0,2,35)
      ShowMessage("【プロメスティン】")
      ShowMessage("すでに、吸血鬼の因子を宿しているようですね。")
      ShowMessage("残念ながら、投与できません……")
      JumpToLabel("ループ")
      0()
     Else()
      ShowMessageFace("stein_fc2",1,0,2,36)
      ShowMessage("【プロメスティン】")
      ShowMessage("それではいきますよ！　さぁさぁ、腕を出して……！")
      ChangeInventory_Item(317,1,0,3)
      ChangeInventory_Item(224,1,0,1)
      355("set_class_level(v(12), 184, 1, true, true)")
      250(bytes(0x04,0x08,0x6f,0x3a,0x0c,0x52,0x50,0x47,0x3a,0x3a,0x53,0x45,0x08,0x3a,0x0a,0x40,0x6e,0x61,0x6d,0x65,0x49,0x22,0x10,0x6d,0x6f,0x6e,0x5f,0x66,0x61,0x6e,0x66,0x61,0x6c,0x65,0x06,0x3a,0x06,0x45,0x54,0x3a,0x0b,0x40,0x70,0x69,0x74,0x63,0x68,0x69,0x69,0x3a,0x0c,0x40,0x76,0x6f,0x6c,0x75,0x6d,0x65,0x69,0x69))
      ShowMessageFace("",0,0,2,37)
      ShowMessage("吸血鬼に転種した！")
      ShowMessageFace("stein_fc2",1,0,2,38)
      ShowMessage("【プロメスティン】")
      ShowMessage("ふふふっ、大成功です！")
      JumpToLabel("ループ")
      0()
     EndIf()
     0()
    Else()
     ShowMessageFace("stein_fc2",2,0,2,39)
     ShowMessage("【プロメスティン】")
     ShowMessage("あれれ、人間のランクが10に達していませんよ。")
     ShowMessage("多分死ぬので、残念ながら投与できません……")
     JumpToLabel("ループ")
     0()
    EndIf()
    0()
   EndIf()
   0()
  EndIf()
  ShowMessageFace("stein_fc2",2,0,2,40)
  ShowMessage("【プロメスティン】")
  ShowMessage("あっ……素材が足りないみたいですね。")
  ShowMessage("申し訳ありませんが、材料不足でエキスが作れません。")
  JumpToLabel("ループ")
  0()
 IfPlayerPicksChoice(1,null)
  JumpToLabel("ループ")
  0()
 404()
 0()
EndIf()
If(1,9,0,2,0)
 ChangeVariable(11,11,0,3,0,310,0)
 ChangeVariable(12,12,0,3,0,238,0)
 ShowMessageFace("stein_fc2",1,0,2,41)
 ShowMessage("【プロメスティン】")
 ShowMessage("魔獣に転種するならば、にんじんエキスですね。")
 ShowMessage("「にんじん」3個と「狂獣の爪」1個が必要です。")
 ShowMessageFace("",0,0,2,42)
 ShowMessage("Carrot (Have:\\V[11]）")
 ShowMessage("Feral Beast Claw (Have:\\V[12]）")
 ShowMessage("以上を消費し、スライムを魔獣に転種させますか？")
 ShowChoices(strings("Yes","No"),2)
 IfPlayerPicksChoice(0,null)
  If(1,11,0,3,1)
   If(1,12,0,1,1)
    ShowMessageFace("stein_fc2",1,0,2,43)
    ShowMessage("【プロメスティン】")
    ShowMessage("さてさて、誰ににんじんエキスを投与しますか？")
    ShowMessage("スライムのランクが10に達していないと、投与できませんよ。")
    355("names = party_members.collect{|m|m.name}")
    655("unlimited_choices(11, names)")
    655("if $game_variables[11] != names.size")
    655("actor = party_members[$game_variables[11]]")
    655("$game_variables[12] = actor.id")
    655("else")
    655("$game_variables[12] = 0")
    655("end")
    If(1,12,0,0,0)
     JumpToLabel("ループ")
     0()
    EndIf()
    If(12,"actor_class_level_over?(v(12), 223, 10)")
     If(12,"actor_class_level_over?(v(12), 232, 1)")
      ShowMessageFace("stein_fc2",2,0,2,44)
      ShowMessage("【プロメスティン】")
      ShowMessage("すでに、魔獣の因子を宿しているようですね。")
      ShowMessage("残念ながら、投与できません……")
      JumpToLabel("ループ")
      0()
     Else()
      ShowMessageFace("stein_fc2",1,0,2,45)
      ShowMessage("【プロメスティン】")
      ShowMessage("それではいきますよ！　さぁさぁ、腕を出して……！")
      ChangeInventory_Item(310,1,0,3)
      ChangeInventory_Item(238,1,0,1)
      355("set_class_level(v(12), 232, 1, true, true)")
      250(bytes(0x04,0x08,0x6f,0x3a,0x0c,0x52,0x50,0x47,0x3a,0x3a,0x53,0x45,0x08,0x3a,0x0a,0x40,0x6e,0x61,0x6d,0x65,0x49,0x22,0x10,0x6d,0x6f,0x6e,0x5f,0x66,0x61,0x6e,0x66,0x61,0x6c,0x65,0x06,0x3a,0x06,0x45,0x54,0x3a,0x0b,0x40,0x70,0x69,0x74,0x63,0x68,0x69,0x69,0x3a,0x0c,0x40,0x76,0x6f,0x6c,0x75,0x6d,0x65,0x69,0x69))
      ShowMessageFace("",0,0,2,46)
      ShowMessage("魔獣に転種した！")
      ShowMessageFace("stein_fc2",1,0,2,47)
      ShowMessage("【プロメスティン】")
      ShowMessage("ふふふっ、大成功です！")
      JumpToLabel("ループ")
      0()
     EndIf()
     0()
    Else()
     ShowMessageFace("stein_fc2",2,0,2,48)
     ShowMessage("【プロメスティン】")
     ShowMessage("あれれ、スライムのランクが10に達していませんよ。")
     ShowMessage("多分死ぬので、残念ながら投与できません……")
     JumpToLabel("ループ")
     0()
    EndIf()
    0()
   EndIf()
   0()
  EndIf()
  ShowMessageFace("stein_fc2",2,0,2,49)
  ShowMessage("【プロメスティン】")
  ShowMessage("あっ……素材が足りないみたいですね。")
  ShowMessage("申し訳ありませんが、材料不足でエキスが作れません。")
  JumpToLabel("ループ")
  0()
 IfPlayerPicksChoice(1,null)
  JumpToLabel("ループ")
  0()
 404()
 0()
EndIf()
If(1,9,0,3,0)
 ChangeVariable(11,11,0,3,0,328,0)
 ChangeVariable(12,12,0,3,0,229,0)
 ShowMessageFace("stein_fc2",1,0,2,50)
 ShowMessage("【プロメスティン】")
 ShowMessage("フェアリーに転種するならば、なまずエキスですね。")
 ShowMessage("「うなぎ」3個と「精霊のどんぐり」1個が必要です。")
 ShowMessageFace("",0,0,2,51)
 ShowMessage("Eel (Have:\\V[11]）")
 ShowMessage("Spirit Acorn (Have:\\V[12]）")
 ShowMessage("以上を消費し、マーメイドをフェアリーに転種させますか？")
 ShowChoices(strings("Yes","No"),2)
 IfPlayerPicksChoice(0,null)
  If(1,11,0,3,1)
   If(1,12,0,1,1)
    ShowMessageFace("stein_fc2",1,0,2,52)
    ShowMessage("【プロメスティン】")
    ShowMessage("さてさて、誰になまずエキスを投与しますか？")
    ShowMessage("種族「マーメイド」のランクが10に達していないと、投与できませんよ。")
    355("names = party_members.collect{|m|m.name}")
    655("unlimited_choices(11, names)")
    655("if $game_variables[11] != names.size")
    655("actor = party_members[$game_variables[11]]")
    655("$game_variables[12] = actor.id")
    655("else")
    655("$game_variables[12] = 0")
    655("end")
    If(1,12,0,0,0)
     JumpToLabel("ループ")
     0()
    EndIf()
    If(12,"actor_class_level_over?(v(12), 194, 10)")
     If(12,"actor_class_level_over?(v(12), 214, 1)")
      ShowMessageFace("stein_fc2",2,0,2,53)
      ShowMessage("【プロメスティン】")
      ShowMessage("すでに、フェアリーの因子を宿しているようですね。")
      ShowMessage("残念ながら、投与できません……")
      JumpToLabel("ループ")
      0()
     Else()
      ShowMessageFace("stein_fc2",1,0,2,54)
      ShowMessage("【プロメスティン】")
      ShowMessage("それではいきますよ！　さぁさぁ、腕を出して……！")
      ChangeInventory_Item(328,1,0,3)
      ChangeInventory_Item(229,1,0,1)
      355("set_class_level(v(12), 214, 1, true, true)")
      250(bytes(0x04,0x08,0x6f,0x3a,0x0c,0x52,0x50,0x47,0x3a,0x3a,0x53,0x45,0x08,0x3a,0x0a,0x40,0x6e,0x61,0x6d,0x65,0x49,0x22,0x10,0x6d,0x6f,0x6e,0x5f,0x66,0x61,0x6e,0x66,0x61,0x6c,0x65,0x06,0x3a,0x06,0x45,0x54,0x3a,0x0b,0x40,0x70,0x69,0x74,0x63,0x68,0x69,0x69,0x3a,0x0c,0x40,0x76,0x6f,0x6c,0x75,0x6d,0x65,0x69,0x69))
      ShowMessageFace("",0,0,2,55)
      ShowMessage("フェアリーに転種した！")
      ShowMessageFace("stein_fc2",1,0,2,56)
      ShowMessage("【プロメスティン】")
      ShowMessage("ふふふっ、大成功です！")
      JumpToLabel("ループ")
      0()
     EndIf()
     0()
    Else()
     ShowMessageFace("stein_fc2",2,0,2,57)
     ShowMessage("【プロメスティン】")
     ShowMessage("あれれ、マーメイドのランクが10に達していませんよ。")
     ShowMessage("多分死ぬので、残念ながら投与できません……")
     JumpToLabel("ループ")
     0()
    EndIf()
    0()
   EndIf()
   0()
  EndIf()
  ShowMessageFace("stein_fc2",2,0,2,58)
  ShowMessage("【プロメスティン】")
  ShowMessage("あっ……素材が足りないみたいですね。")
  ShowMessage("申し訳ありませんが、材料不足でエキスが作れません。")
  JumpToLabel("ループ")
  0()
 IfPlayerPicksChoice(1,null)
  JumpToLabel("ループ")
  0()
 404()
 0()
EndIf()
PictureClear(5)
241(bytes(0x04,0x08,0x6f,0x3a,0x0d,0x52,0x50,0x47,0x3a,0x3a,0x42,0x47,0x4d,0x08,0x3a,0x0a,0x40,0x6e,0x61,0x6d,0x65,0x49,0x22,0x0c,0x63,0x61,0x73,0x74,0x6c,0x65,0x36,0x06,0x3a,0x06,0x45,0x54,0x3a,0x0c,0x40,0x76,0x6f,0x6c,0x75,0x6d,0x65,0x69,0x69,0x3a,0x0b,0x40,0x70,0x69,0x74,0x63,0x68,0x69,0x69))
EndEventProcessing()
0()
