// EVENT 0140
Name "Medal King"

ChangeVariable(10,10,0,3,0,32,0)
If(1,10,0,0,0)
 ShowMessageFace("People4",0,0,2,1)
 ShowMessage("【メダル王】")
 ShowMessage("お主が所有しているメダルは……一枚もないのか。")
 ShowMessage("せっかくだから、賞品リストを見ていくが良い。")
 0()
Else()
 ShowMessageFace("People4",0,0,2,2)
 ShowMessage("【メダル王】")
 ShowMessage("お主が所有しているメダルは、\\V[10]枚。")
 ShowMessage("さて、どの宝物が欲しいのだ？")
 0()
EndIf()
DefineLabel("リスト")
ChangeVariable(10,10,0,3,0,32,0)
355("unlimited_choices(11,[\"Life Nut(2)\",")
655("\"Mystery Nut(2)\",\"Seed of Power(2)\",")
655("\"Seed of Defense(2)\",\"Seed of Magic(2)\",")
655("\"Seed of Spirit(2)\",\"Seed of Agility(2)\",")
655("\"Seed of Skill(2)\",")
655("\"Heinrich's Helm(30-Only one)\",")
655("\"Heinrich's Shield(30-Only one)\",")
655("\"Heinrich's Sword(40-Only one)\",")
655("\"Heinrich's Armor(40-Only one)\",")
655("\"Etemen`anki(50)\",")
655("\"Never mind\"])")
If(1,11,0,0,0)
 If(1,10,0,2,1)
  ChangeInventory_Item(32,1,0,2)
  ChangeVariable(55,55,1,0,2)
  ShowMessageFace("People4",0,0,2,3)
  ShowMessage("【メダル王】")
  ShowMessage("それでは、受け取るが良い。")
  250(bytes(0x04,0x08,0x6f,0x3a,0x0c,0x52,0x50,0x47,0x3a,0x3a,0x53,0x45,0x08,0x3a,0x0a,0x40,0x6e,0x61,0x6d,0x65,0x49,0x22,0x0a,0x49,0x74,0x65,0x6d,0x31,0x06,0x3a,0x06,0x45,0x54,0x3a,0x0b,0x40,0x70,0x69,0x74,0x63,0x68,0x69,0x69,0x3a,0x0c,0x40,0x76,0x6f,0x6c,0x75,0x6d,0x65,0x69,0x55))
  ChangeInventory_Item(24,0,0,1)
  ShowMessageFace("People4",0,0,2,4)
  ShowMessage("【メダル王】")
  ShowMessage("他に交換したいものはあるか？")
  JumpToLabel("リスト")
  0()
 Else()
  ShowMessageFace("People4",0,0,2,5)
  ShowMessage("【メダル王】")
  ShowMessage("残念ながら、メダルの数が足りないようだな……")
  JumpToLabel("リスト")
  0()
 EndIf()
 0()
EndIf()
If(1,11,0,1,0)
 If(1,10,0,2,1)
  ChangeInventory_Item(32,1,0,2)
  ChangeVariable(55,55,1,0,2)
  ShowMessageFace("People4",0,0,2,6)
  ShowMessage("【メダル王】")
  ShowMessage("それでは、受け取るが良い。")
  250(bytes(0x04,0x08,0x6f,0x3a,0x0c,0x52,0x50,0x47,0x3a,0x3a,0x53,0x45,0x08,0x3a,0x0a,0x40,0x6e,0x61,0x6d,0x65,0x49,0x22,0x0a,0x49,0x74,0x65,0x6d,0x31,0x06,0x3a,0x06,0x45,0x54,0x3a,0x0b,0x40,0x70,0x69,0x74,0x63,0x68,0x69,0x69,0x3a,0x0c,0x40,0x76,0x6f,0x6c,0x75,0x6d,0x65,0x69,0x55))
  ChangeInventory_Item(25,0,0,1)
  ShowMessageFace("People4",0,0,2,7)
  ShowMessage("【メダル王】")
  ShowMessage("他に交換したいものはあるか？")
  JumpToLabel("リスト")
  0()
 Else()
  ShowMessageFace("People4",0,0,2,8)
  ShowMessage("【メダル王】")
  ShowMessage("残念ながら、メダルの数が足りないようだな……")
  JumpToLabel("リスト")
  0()
 EndIf()
 0()
EndIf()
If(1,11,0,2,0)
 If(1,10,0,2,1)
  ChangeInventory_Item(32,1,0,2)
  ChangeVariable(55,55,1,0,2)
  ShowMessageFace("People4",0,0,2,9)
  ShowMessage("【メダル王】")
  ShowMessage("それでは、受け取るが良い。")
  250(bytes(0x04,0x08,0x6f,0x3a,0x0c,0x52,0x50,0x47,0x3a,0x3a,0x53,0x45,0x08,0x3a,0x0a,0x40,0x6e,0x61,0x6d,0x65,0x49,0x22,0x0a,0x49,0x74,0x65,0x6d,0x31,0x06,0x3a,0x06,0x45,0x54,0x3a,0x0b,0x40,0x70,0x69,0x74,0x63,0x68,0x69,0x69,0x3a,0x0c,0x40,0x76,0x6f,0x6c,0x75,0x6d,0x65,0x69,0x55))
  ChangeInventory_Item(26,0,0,1)
  ShowMessageFace("People4",0,0,2,10)
  ShowMessage("【メダル王】")
  ShowMessage("他に交換したいものはあるか？")
  JumpToLabel("リスト")
  0()
 Else()
  ShowMessageFace("People4",0,0,2,11)
  ShowMessage("【メダル王】")
  ShowMessage("残念ながら、メダルの数が足りないようだな……")
  JumpToLabel("リスト")
  0()
 EndIf()
 0()
EndIf()
If(1,11,0,3,0)
 If(1,10,0,2,1)
  ChangeInventory_Item(32,1,0,2)
  ChangeVariable(55,55,1,0,2)
  ShowMessageFace("People4",0,0,2,12)
  ShowMessage("【メダル王】")
  ShowMessage("それでは、受け取るが良い。")
  250(bytes(0x04,0x08,0x6f,0x3a,0x0c,0x52,0x50,0x47,0x3a,0x3a,0x53,0x45,0x08,0x3a,0x0a,0x40,0x6e,0x61,0x6d,0x65,0x49,0x22,0x0a,0x49,0x74,0x65,0x6d,0x31,0x06,0x3a,0x06,0x45,0x54,0x3a,0x0b,0x40,0x70,0x69,0x74,0x63,0x68,0x69,0x69,0x3a,0x0c,0x40,0x76,0x6f,0x6c,0x75,0x6d,0x65,0x69,0x55))
  ChangeInventory_Item(27,0,0,1)
  ShowMessageFace("People4",0,0,2,13)
  ShowMessage("【メダル王】")
  ShowMessage("他に交換したいものはあるか？")
  JumpToLabel("リスト")
  0()
 Else()
  ShowMessageFace("People4",0,0,2,14)
  ShowMessage("【メダル王】")
  ShowMessage("残念ながら、メダルの数が足りないようだな……")
  JumpToLabel("リスト")
  0()
 EndIf()
 0()
EndIf()
If(1,11,0,4,0)
 If(1,10,0,2,1)
  ChangeInventory_Item(32,1,0,2)
  ChangeVariable(55,55,1,0,2)
  ShowMessageFace("People4",0,0,2,15)
  ShowMessage("【メダル王】")
  ShowMessage("それでは、受け取るが良い。")
  250(bytes(0x04,0x08,0x6f,0x3a,0x0c,0x52,0x50,0x47,0x3a,0x3a,0x53,0x45,0x08,0x3a,0x0a,0x40,0x6e,0x61,0x6d,0x65,0x49,0x22,0x0a,0x49,0x74,0x65,0x6d,0x31,0x06,0x3a,0x06,0x45,0x54,0x3a,0x0b,0x40,0x70,0x69,0x74,0x63,0x68,0x69,0x69,0x3a,0x0c,0x40,0x76,0x6f,0x6c,0x75,0x6d,0x65,0x69,0x55))
  ChangeInventory_Item(28,0,0,1)
  ShowMessageFace("People4",0,0,2,16)
  ShowMessage("【メダル王】")
  ShowMessage("他に交換したいものはあるか？")
  JumpToLabel("リスト")
  0()
 Else()
  ShowMessageFace("People4",0,0,2,17)
  ShowMessage("【メダル王】")
  ShowMessage("残念ながら、メダルの数が足りないようだな……")
  JumpToLabel("リスト")
  0()
 EndIf()
 0()
EndIf()
If(1,11,0,5,0)
 If(1,10,0,2,1)
  ChangeInventory_Item(32,1,0,2)
  ChangeVariable(55,55,1,0,2)
  ShowMessageFace("People4",0,0,2,18)
  ShowMessage("【メダル王】")
  ShowMessage("それでは、受け取るが良い。")
  250(bytes(0x04,0x08,0x6f,0x3a,0x0c,0x52,0x50,0x47,0x3a,0x3a,0x53,0x45,0x08,0x3a,0x0a,0x40,0x6e,0x61,0x6d,0x65,0x49,0x22,0x0a,0x49,0x74,0x65,0x6d,0x31,0x06,0x3a,0x06,0x45,0x54,0x3a,0x0b,0x40,0x70,0x69,0x74,0x63,0x68,0x69,0x69,0x3a,0x0c,0x40,0x76,0x6f,0x6c,0x75,0x6d,0x65,0x69,0x55))
  ChangeInventory_Item(29,0,0,1)
  ShowMessageFace("People4",0,0,2,19)
  ShowMessage("【メダル王】")
  ShowMessage("他に交換したいものはあるか？")
  JumpToLabel("リスト")
  0()
 Else()
  ShowMessageFace("People4",0,0,2,20)
  ShowMessage("【メダル王】")
  ShowMessage("残念ながら、メダルの数が足りないようだな……")
  JumpToLabel("リスト")
  0()
 EndIf()
 0()
EndIf()
If(1,11,0,6,0)
 If(1,10,0,2,1)
  ChangeInventory_Item(32,1,0,2)
  ChangeVariable(55,55,1,0,2)
  ShowMessageFace("People4",0,0,2,21)
  ShowMessage("【メダル王】")
  ShowMessage("それでは、受け取るが良い。")
  250(bytes(0x04,0x08,0x6f,0x3a,0x0c,0x52,0x50,0x47,0x3a,0x3a,0x53,0x45,0x08,0x3a,0x0a,0x40,0x6e,0x61,0x6d,0x65,0x49,0x22,0x0a,0x49,0x74,0x65,0x6d,0x31,0x06,0x3a,0x06,0x45,0x54,0x3a,0x0b,0x40,0x70,0x69,0x74,0x63,0x68,0x69,0x69,0x3a,0x0c,0x40,0x76,0x6f,0x6c,0x75,0x6d,0x65,0x69,0x55))
  ChangeInventory_Item(30,0,0,1)
  ShowMessageFace("People4",0,0,2,22)
  ShowMessage("【メダル王】")
  ShowMessage("他に交換したいものはあるか？")
  JumpToLabel("リスト")
  0()
 Else()
  ShowMessageFace("People4",0,0,2,23)
  ShowMessage("【メダル王】")
  ShowMessage("残念ながら、メダルの数が足りないようだな……")
  JumpToLabel("リスト")
  0()
 EndIf()
 0()
EndIf()
If(1,11,0,7,0)
 If(1,10,0,2,1)
  ChangeInventory_Item(32,1,0,2)
  ChangeVariable(55,55,1,0,2)
  ShowMessageFace("People4",0,0,2,24)
  ShowMessage("【メダル王】")
  ShowMessage("それでは、受け取るが良い。")
  250(bytes(0x04,0x08,0x6f,0x3a,0x0c,0x52,0x50,0x47,0x3a,0x3a,0x53,0x45,0x08,0x3a,0x0a,0x40,0x6e,0x61,0x6d,0x65,0x49,0x22,0x0a,0x49,0x74,0x65,0x6d,0x31,0x06,0x3a,0x06,0x45,0x54,0x3a,0x0b,0x40,0x70,0x69,0x74,0x63,0x68,0x69,0x69,0x3a,0x0c,0x40,0x76,0x6f,0x6c,0x75,0x6d,0x65,0x69,0x55))
  ChangeInventory_Item(31,0,0,1)
  ShowMessageFace("People4",0,0,2,25)
  ShowMessage("【メダル王】")
  ShowMessage("他に交換したいものはあるか？")
  JumpToLabel("リスト")
  0()
 Else()
  ShowMessageFace("People4",0,0,2,26)
  ShowMessage("【メダル王】")
  ShowMessage("残念ながら、メダルの数が足りないようだな……")
  JumpToLabel("リスト")
  0()
 EndIf()
 0()
EndIf()
If(1,11,0,8,0)
 If(0,2326,0)
  ShowMessageFace("People4",0,0,2,27)
  ShowMessage("【メダル王】")
  ShowMessage("それは一品のみの秘宝、すでにお主に授けたはず。")
  ShowMessage("他に交換したいものはあるか？")
  JumpToLabel("リスト")
  0()
 EndIf()
 If(1,10,0,30,1)
  ChangeInventory_Item(32,1,0,30)
  ChangeVariable(55,55,1,0,30)
  ShowMessageFace("People4",0,0,2,28)
  ShowMessage("【メダル王】")
  ShowMessage("それでは、受け取るが良い。")
  250(bytes(0x04,0x08,0x6f,0x3a,0x0c,0x52,0x50,0x47,0x3a,0x3a,0x53,0x45,0x08,0x3a,0x0a,0x40,0x6e,0x61,0x6d,0x65,0x49,0x22,0x0a,0x49,0x74,0x65,0x6d,0x31,0x06,0x3a,0x06,0x45,0x54,0x3a,0x0b,0x40,0x70,0x69,0x74,0x63,0x68,0x69,0x69,0x3a,0x0c,0x40,0x76,0x6f,0x6c,0x75,0x6d,0x65,0x69,0x55))
  ChangeInventoryArmor(226,0,0,1,false)
  ChangeSwitch(2326,2326,0)
  ShowMessageFace("People4",0,0,2,29)
  ShowMessage("【メダル王】")
  ShowMessage("他に交換したいものはあるか？")
  JumpToLabel("リスト")
  0()
 Else()
  ShowMessageFace("People4",0,0,2,30)
  ShowMessage("【メダル王】")
  ShowMessage("残念ながら、メダルの数が足りないようだな……")
  JumpToLabel("リスト")
  0()
 EndIf()
 0()
EndIf()
If(1,11,0,9,0)
 If(0,2327,0)
  ShowMessageFace("People4",0,0,2,31)
  ShowMessage("【メダル王】")
  ShowMessage("それは一品のみの秘宝、すでにお主に授けたはず。")
  ShowMessage("他に交換したいものはあるか？")
  JumpToLabel("リスト")
  0()
 EndIf()
 If(1,10,0,30,1)
  ChangeInventory_Item(32,1,0,30)
  ChangeVariable(55,55,1,0,30)
  ShowMessageFace("People4",0,0,2,32)
  ShowMessage("【メダル王】")
  ShowMessage("それでは、受け取るが良い。")
  250(bytes(0x04,0x08,0x6f,0x3a,0x0c,0x52,0x50,0x47,0x3a,0x3a,0x53,0x45,0x08,0x3a,0x0a,0x40,0x6e,0x61,0x6d,0x65,0x49,0x22,0x0a,0x49,0x74,0x65,0x6d,0x31,0x06,0x3a,0x06,0x45,0x54,0x3a,0x0b,0x40,0x70,0x69,0x74,0x63,0x68,0x69,0x69,0x3a,0x0c,0x40,0x76,0x6f,0x6c,0x75,0x6d,0x65,0x69,0x55))
  ChangeInventoryArmor(321,0,0,1,false)
  ChangeSwitch(2327,2327,0)
  ShowMessageFace("People4",0,0,2,33)
  ShowMessage("【メダル王】")
  ShowMessage("他に交換したいものはあるか？")
  JumpToLabel("リスト")
  0()
 Else()
  ShowMessageFace("People4",0,0,2,34)
  ShowMessage("【メダル王】")
  ShowMessage("残念ながら、メダルの数が足りないようだな……")
  JumpToLabel("リスト")
  0()
 EndIf()
 0()
EndIf()
If(1,11,0,10,0)
 If(0,2324,0)
  ShowMessageFace("People4",0,0,2,35)
  ShowMessage("【メダル王】")
  ShowMessage("それは一品のみの秘宝、すでにお主に授けたはず。")
  ShowMessage("他に交換したいものはあるか？")
  JumpToLabel("リスト")
  0()
 EndIf()
 If(1,10,0,40,1)
  ChangeInventory_Item(32,1,0,40)
  ChangeVariable(55,55,1,0,40)
  ShowMessageFace("People4",0,0,2,36)
  ShowMessage("【メダル王】")
  ShowMessage("それでは、受け取るが良い。")
  250(bytes(0x04,0x08,0x6f,0x3a,0x0c,0x52,0x50,0x47,0x3a,0x3a,0x53,0x45,0x08,0x3a,0x0a,0x40,0x6e,0x61,0x6d,0x65,0x49,0x22,0x0a,0x49,0x74,0x65,0x6d,0x31,0x06,0x3a,0x06,0x45,0x54,0x3a,0x0b,0x40,0x70,0x69,0x74,0x63,0x68,0x69,0x69,0x3a,0x0c,0x40,0x76,0x6f,0x6c,0x75,0x6d,0x65,0x69,0x55))
  ChangeInventoryWeapon(112,0,0,1,false)
  ChangeSwitch(2324,2324,0)
  ShowMessageFace("People4",0,0,2,37)
  ShowMessage("【メダル王】")
  ShowMessage("他に交換したいものはあるか？")
  JumpToLabel("リスト")
  0()
 Else()
  ShowMessageFace("People4",0,0,2,38)
  ShowMessage("【メダル王】")
  ShowMessage("残念ながら、メダルの数が足りないようだな……")
  JumpToLabel("リスト")
  0()
 EndIf()
 0()
EndIf()
If(1,11,0,11,0)
 If(0,2325,0)
  ShowMessageFace("People4",0,0,2,39)
  ShowMessage("【メダル王】")
  ShowMessage("それは一品のみの秘宝、すでにお主に授けたはず。")
  ShowMessage("他に交換したいものはあるか？")
  JumpToLabel("リスト")
  0()
 EndIf()
 If(1,10,0,40,1)
  ChangeInventory_Item(32,1,0,40)
  ChangeVariable(55,55,1,0,40)
  ShowMessageFace("People4",0,0,2,40)
  ShowMessage("【メダル王】")
  ShowMessage("それでは、受け取るが良い。")
  250(bytes(0x04,0x08,0x6f,0x3a,0x0c,0x52,0x50,0x47,0x3a,0x3a,0x53,0x45,0x08,0x3a,0x0a,0x40,0x6e,0x61,0x6d,0x65,0x49,0x22,0x0a,0x49,0x74,0x65,0x6d,0x31,0x06,0x3a,0x06,0x45,0x54,0x3a,0x0b,0x40,0x70,0x69,0x74,0x63,0x68,0x69,0x69,0x3a,0x0c,0x40,0x76,0x6f,0x6c,0x75,0x6d,0x65,0x69,0x55))
  ChangeInventoryArmor(97,0,0,1,false)
  ChangeSwitch(2325,2325,0)
  ShowMessageFace("People4",0,0,2,41)
  ShowMessage("【メダル王】")
  ShowMessage("他に交換したいものはあるか？")
  JumpToLabel("リスト")
  0()
 Else()
  ShowMessageFace("People4",0,0,2,42)
  ShowMessage("【メダル王】")
  ShowMessage("残念ながら、メダルの数が足りないようだな……")
  JumpToLabel("リスト")
  0()
 EndIf()
 0()
EndIf()
If(1,11,0,12,0)
 If(1,10,0,50,1)
  ChangeInventory_Item(32,1,0,50)
  ChangeVariable(55,55,1,0,50)
  ShowMessageFace("People4",0,0,2,43)
  ShowMessage("【メダル王】")
  ShowMessage("それでは、受け取るが良い。")
  250(bytes(0x04,0x08,0x6f,0x3a,0x0c,0x52,0x50,0x47,0x3a,0x3a,0x53,0x45,0x08,0x3a,0x0a,0x40,0x6e,0x61,0x6d,0x65,0x49,0x22,0x0a,0x49,0x74,0x65,0x6d,0x31,0x06,0x3a,0x06,0x45,0x54,0x3a,0x0b,0x40,0x70,0x69,0x74,0x63,0x68,0x69,0x69,0x3a,0x0c,0x40,0x76,0x6f,0x6c,0x75,0x6d,0x65,0x69,0x55))
  ChangeInventoryWeapon(185,0,0,1,false)
  ShowMessageFace("People4",0,0,2,44)
  ShowMessage("【メダル王】")
  ShowMessage("他に交換したいものはあるか？")
  JumpToLabel("リスト")
  0()
 Else()
  ShowMessageFace("People4",0,0,2,45)
  ShowMessage("【メダル王】")
  ShowMessage("残念ながら、メダルの数が足りないようだな……")
  JumpToLabel("リスト")
  0()
 EndIf()
 0()
EndIf()
ShowMessageFace("People4",0,0,2,46)
ShowMessage("【メダル王】")
ShowMessage("メダルを集め、また来るが良い。")
ShowMessage("この村でのんびりしながら待っていよう……")
If(1,55,0,3,1)
 355("gain_medal(1401)")
 0()
EndIf()
If(1,55,0,15,1)
 355("gain_medal(1402)")
 0()
EndIf()
If(1,55,0,50,1)
 355("gain_medal(1403)")
 0()
EndIf()
PictureClear(5)
EndEventProcessing()
0()
